﻿2000.1.1 = {

	capital = 557
	oob = "IRQ_2000"
	set_convoys = 30
	
	add_ideas = {
		gdp_3
		#tax_cost_25
		crippling_corruption
		export_economy
		stagnation
		defence_04
		edu_02
		health_02
		social_02
		bureau_04
		police_04
		draft_army
		volunteer_women
		shia
		rentier_state
		youth_radicalization
		LoAS_member
		al_jazeera_banned
		fossil_fuel_industry
		the_military
	}
	
	### IRQ ###
	#Influence system
	init_influence = yes
	set_variable = { domestic_influence_amount = 180 }
	add_to_array = { influence_array = USA.id }
	add_to_array = { influence_array_val = 0 }
	add_to_array = { influence_array = ENG.id }
	add_to_array = { influence_array_val = 0 }
	add_to_array = { influence_array = SOV.id }
	add_to_array = { influence_array_val = 65 }
	add_to_array = { influence_array = PER.id }
	add_to_array = { influence_array_val = 44 }
	add_to_array = { influence_array = SYR.id }
	add_to_array = { influence_array_val = 9 }
	add_to_array = { influence_array = TUR.id }
	add_to_array = { influence_array_val = 17 }
	add_to_array = { influence_array = SAU.id }
	add_to_array = { influence_array_val = 12 }
	startup_influence = yes
	
	set_variable = { var = debt value = 130 }
	set_variable = { var = treasury value = 10 }
	set_variable = { var = tax_rate value = 25 }
	set_variable = { var = int_investments value = 0 }
	#initial_money_setup = yes
	
	set_technology = { 
		legacy_doctrines = 1 
		grand_battleplan = 1 
		deep_echelon_advance = 1 
		rigid_hierarchy = 1 
		praetorian_guard = 1
		
		infantry_weapons = 1
		infantry_weapons1 = 1
		
		combat_eng_equipment = 1
		
		night_vision_1 = 1
		
		command_control_equipment = 1
		
		Early_APC = 1 #Vehicle Design
		
		APC_1 = 1
		
		IFV_1 = 1
		
		MBT_1 = 1
		MBT_2 = 1
		
		ENGI_MBT_1 = 1
		
		Rec_tank_0 = 1

		util_vehicle_0 = 1
		
		artillery_0 = 1
		SP_arty_0 = 1
		SP_arty_1 = 1
		SP_R_arty_0 = 1
		SP_R_arty_1 = 1
		
		Anti_tank_0 = 1
		Heavy_Anti_tank_0 = 1
		
		Anti_Air_0 = 1
		SP_Anti_Air_0 = 1
		
		early_fighter = 1
		
		MR_Fighter1 = 1
		
		AS_Fighter1 = 1
		
		landing_craft = 1
		camouflage = 1
		camouflage2 = 1
	}
	
	set_politics = {
		parties = {
			democratic = { #western
				popularity = 3.0
			}
			communism = { #Emerging
				popularity = 28.0
			}
			fascism = { #Salafist
				popularity = 8.0
			}
			neutrality = { #neutrality
				popularity = 4.0
			}
			nationalist = { #nationalist
				popularity = 24.0
			}
		}
		ruling_party = nationalist
		last_election = "1999.4.30"
		election_frequency = 48
		elections_allowed = no
	}
	
	start_politics_input = yes

	### Party Popularities
	set_variable = { party_pop_array^0 = 0 } #Western_Autocracy
	set_variable = { party_pop_array^1 = 0 } #conservatism
	set_variable = { party_pop_array^2 = 0.03 } #liberalism
	set_variable = { party_pop_array^3 = 0 } #socialism
	set_variable = { party_pop_array^4 = 0 } #Communist-State
	set_variable = { party_pop_array^5 = 0 } #anarchist_communism
	set_variable = { party_pop_array^6 = 0.14 } #Conservative
	set_variable = { party_pop_array^7 = 0 } #Autocracy
	set_variable = { party_pop_array^8 = 0.07 } #Mod_Vilayat_e_Faqih
	set_variable = { party_pop_array^9 = 0.07 } #Vilayat_e_Faqih
	set_variable = { party_pop_array^10 = 0 } #Kingdom
	set_variable = { party_pop_array^11 = 0.08 } #Caliphate
	set_variable = { party_pop_array^12 = 0.01 } #Neutral_Muslim_Brotherhood
	set_variable = { party_pop_array^13 = 0 } #Neutral_Autocracy
	set_variable = { party_pop_array^14 = 0 } #Neutral_conservatism
	set_variable = { party_pop_array^15 = 0 } #oligarchism
	set_variable = { party_pop_array^16 = 0 } #Neutral_Libertarian
	set_variable = { party_pop_array^17 = 0 } #Neutral_green
	set_variable = { party_pop_array^18 = 0 } #neutral_Social
	set_variable = { party_pop_array^19 = 0.03 } #Neutral_Communism
	set_variable = { party_pop_array^20 = 0.05 } #Nat_Populism
	set_variable = { party_pop_array^21 = 0 } #Nat_Fascism
	set_variable = { party_pop_array^22 = 0.24 } #Nat_Autocracy
	set_variable = { party_pop_array^23 = 0 } #Monarchist

	### Ruling Party
	add_to_array = { ruling_party = 22 }

	startup_politics = yes

	create_country_leader = {
		name = "Saddam Hussein"
		picture = "saddam_hussein.dds"
		expire = "2010.1.1"
		ideology = Nat_Autocracy
		traits = {
			military_career
			nationalist_Nat_Autocracy
			ruthless
			sly
		}
	}
	
	create_corps_commander = {
		name = "Abdul Amir Rashid Yarallah"
		picture = "Irq_Abdul_Amir_Rashid_Yarallah.dds"
		traits = { urban_assault_specialist }
		id = 30000
		skill = 1
		attack_skill = 1
		defense_skill = 1
		planning_skill = 1
		logistics_skill = 1
		
	}

	create_corps_commander = {
		name = "Jassem Nazal Qassim"
		picture = "irq_tank_Jassem_Nazal_Qassim.dds"
		traits = { panzer_leader }
		id = 30001
		skill = 1
		attack_skill = 1
		defense_skill = 1
		planning_skill = 1
		logistics_skill = 1
		
	}

	create_corps_commander = {
		name = "Fadhil Jamil al-Barwari"
		picture = "Iraq_Fadhil_Jamil_al-Barwari.dds"
		traits = { desert_fox }
		id = 30002
		skill = 1
		attack_skill = 1
		defense_skill = 1
		planning_skill = 1
		logistics_skill = 1
		
	}
	create_field_marshal = {
		name = "Othman Al Ghanimi"
		picture = "Portrait_Othman_Al_Ghanimi.dds"
		traits = { old_guard thorough_planner }
		id = 30003
		skill = 2
		attack_skill = 2
		defense_skill = 2
		planning_skill = 2
		logistics_skill = 2
	}

	create_field_marshal = {
		name = "Babaker Zebari"
		picture = "Portrait_Babaker_Zebari.dds"
		traits = { offensive_doctrine }
		id = 30004
		skill = 1
		attack_skill = 1
		defense_skill = 1
		planning_skill = 1
		logistics_skill = 1
	}

	create_corps_commander = {
		name = "Qassi Jassem Nazal"
		picture = "Portrait_Qassi_Jassem_Nazal.dds"
		traits = { panzer_leader }
		id = 30005
		skill = 2
		attack_skill = 2
		defense_skill = 2
		planning_skill = 2
		logistics_skill = 2
	}

	create_corps_commander = {
		name = "Abud Qanbar"
		picture = "Portrait_Abud_Qanbar.dds"
		traits = { trait_engineer }
		id = 30006
		skill = 2
		attack_skill = 2
		defense_skill = 2
		planning_skill = 2
		logistics_skill = 2
	}

	create_corps_commander = {
		name = "Mutaa Al Khazraji"
		picture = "Portrait_Mutaa_Al_Khazraji.dds"
		traits = { desert_fox }
		id = 30007
		skill = 1
		attack_skill = 1
		defense_skill = 1
		planning_skill = 1
		logistics_skill = 1
	}

	create_corps_commander = {
		name = "Othman Ali Farhood"
		picture = "Portrait_Othman_Ali_Farhood.dds"
		traits = { ranger }
		id = 30008
		skill = 2
		attack_skill = 2
		defense_skill = 2
		planning_skill = 2
		logistics_skill = 2
	}

	create_corps_commander = {
		name = "Hamid Al Maliki"
		picture = "Portrait_Hamid_Al_Maliki.dds"
		traits = { commando }
		id = 30009
		skill = 2
		attack_skill = 2
		defense_skill = 2
		planning_skill = 2
		logistics_skill = 2
	}

	create_corps_commander = {
		name = "Abdel Wahal Al Saadi"
		picture = "Portrait_Abdel_Wahab_Al_Saadi.dds"
		traits = { urban_assault_specialist }
		id = 30010
		skill = 2
		attack_skill = 2
		defense_skill = 2
		planning_skill = 2
		logistics_skill = 2
	}

	create_corps_commander = {
		name = "Ali Ghaidan Majid"
		picture = "Portrait_Ali_Ghaidan_Majid.dds"
		traits = { panzer_leader }
		id = 30011
		skill = 1
		attack_skill = 1
		defense_skill = 1
		planning_skill = 1
		logistics_skill = 1
	}

	create_corps_commander = {
		name = "Nassir Al Hiti"
		picture = "Portrait_Nassir_Al_Hiti.dds"
		traits = { ranger }
		id = 30012
		skill = 2
		attack_skill = 2
		defense_skill = 2
		planning_skill = 2
		logistics_skill = 2
	}

	create_corps_commander = {
		name = "Sabah Al Fatlawi"
		picture = "Portrait_Sabah_Al_Fatlawi.dds"
		traits = { urban_assault_specialist }
		id = 30013
		skill = 3
		attack_skill = 3
		defense_skill = 3
		planning_skill = 3
		logistics_skill = 3
	}

	create_corps_commander = {
		name = "Talib Shaghati"
		picture = "Portrait_Talib_Shaghati.dds"
		traits = { commando }
		id = 30014
		skill = 3
		attack_skill = 3
		defense_skill = 3
		planning_skill = 3
		logistics_skill = 3
	}

	create_navy_leader = {
		name = "Ali Hussain Ali"
		picture = "Portrait_Ali_Hussain_Ali.dds"
		traits = { old_guard_navy superior_tactician }
		id = 30015
	}
}

2017.1.1 = {
	capital = 557
	oob = "IRQ_2017"
	set_convoys = 30
	
	# Starting tech
	set_technology = { 
		legacy_doctrines = 1 
		grand_battleplan = 1 
		deep_echelon_advance = 1 
		rigid_hierarchy = 1 
		praetorian_guard = 1
		
		infantry_weapons = 1
		infantry_weapons1 = 1
		
		combat_eng_equipment = 1
		
		night_vision_1 = 1
		night_vision_2 = 1
		
		command_control_equipment = 1
		
		land_Drone_equipment = 1
		
		Early_APC = 1 #Vehicle Design
		
		APC_1 = 1
		
		IFV_1 = 1
		
		MBT_1 = 1
		
		ENGI_MBT_1 = 1
		
		Rec_tank_0 = 1

		util_vehicle_0 = 1
		
		artillery_0 = 1
		SP_arty_0 = 1
		SP_R_arty_0 = 1
		
		Anti_tank_0 = 1
		Heavy_Anti_tank_0 = 1
		
		Anti_Air_0 = 1
		SP_Anti_Air_0 = 1
		
		early_fighter = 1
		Strike_fighter1 = 1
		
		MR_Fighter1 = 1
		MR_Fighter2 = 1
		
		AS_Fighter1 = 1
		
		L_Strike_fighter1 = 1
		
		corvette_1 = 1
		diesel_attack_submarine_1 = 1
		
		early_helicopter = 1
		attack_helicopter1 = 1
		
		landing_craft = 1
		
		body_armor_1980 = 1
	}
	
	remove_ideas = {
		stagnation
		draft_army
		#tax_cost_25
	}
	add_ideas = {
		sadrist_militias
		iranian_quds_force
		iranian_aid
		USA_usaid
		Inherent_Resolve
		volunteer_army
		#tax_cost_36
		
	}
	
	### IRQ ###
	#Influence system
	init_influence = yes
	set_variable = { domestic_influence_amount = 45 }
	add_to_array = { influence_array = USA.id }
	add_to_array = { influence_array_val = 80 }
	add_to_array = { influence_array = ENG.id }
	add_to_array = { influence_array_val = 24 }
	add_to_array = { influence_array = SOV.id }
	add_to_array = { influence_array_val = 45 }
	add_to_array = { influence_array = PER.id }
	add_to_array = { influence_array_val = 140 }
	add_to_array = { influence_array = SYR.id }
	add_to_array = { influence_array_val = 20 }
	add_to_array = { influence_array = TUR.id }
	add_to_array = { influence_array_val = 3 }
	add_to_array = { influence_array = SAU.id }
	add_to_array = { influence_array_val = 1 }
	startup_influence = yes
	
	set_country_flag = Major_Importer_US_Arms #Trends-in-international-arms-transfers-2016.pdf
	set_country_flag = enthusiastic_fossil_fuel_industry
	set_country_flag = positive_the_military
	
	set_variable = { var = debt value = 114.6 }
	set_variable = { var = treasury value = 44.87 }
	set_variable = { var = int_investments value = 0.9 }
	set_variable = { var = tax_rate value = 36 }
	
	#set_variable = { var = size_modifier value = 0.38 } #4 CIC
	#initial_money_setup = yes

	#Nat focus
	complete_national_focus = bonus_tech_slots
	complete_national_focus = Generic_4K_GDPC_slot
	complete_national_focus = Generic_4_IC_slot
		
	remove_opinion_modifier = { target = PER modifier = oppresses_sunni }
	add_opinion_modifier = { target = PER modifier = resistance_axis }
	add_opinion_modifier = { target = SYR modifier = resistance_axis }

	add_opinion_modifier = { target = KUR modifier = IRQ_Dont_Support_Kurdish_Independence }
	add_opinion_modifier = { target = ROJ modifier = IRQ_Dont_Support_Kurdish_Independence }

	add_opinion_modifier = { target = SAU modifier = hostile_status }
	add_opinion_modifier = { target = KUW modifier = hostile_status }
	add_opinion_modifier = { target = UAE modifier = hostile_status }

	diplomatic_relation = {
		country = SYR
		relation = military_access
		active = yes
	}

	set_politics = {
		parties = {
			democratic = { #western
				popularity = 16.3
			}
			communism = { #Emerging
				popularity = 40.2
			}
			fascism = { #Salafist
				popularity = 5.0
			}
			neutrality = { #neutrality
				popularity = 24.4
			}
			nationalist = { #nationalist
				popularity = 14.0
			}
		}
		ruling_party = communism
		last_election = "2014.4.30"
		election_frequency = 48
		elections_allowed = yes
	}
	
	start_politics_input = yes

	### Party Popularities
	set_variable = { party_pop_array^0 = 0 } #Western_Autocracy
	set_variable = { party_pop_array^1 = 0.06 } #conservatism
	set_variable = { party_pop_array^2 = 0.063 } #liberalism
	set_variable = { party_pop_array^3 = 0.04 } #socialism
	set_variable = { party_pop_array^4 = 0 } #Communist-State
	set_variable = { party_pop_array^5 = 0.03 } #anarchist_communism
	set_variable = { party_pop_array^6 = 0.115 } #Conservative
	set_variable = { party_pop_array^7 = 0 } #Autocracy
	set_variable = { party_pop_array^8 = 0.107 } #Mod_Vilayat_e_Faqih
	set_variable = { party_pop_array^9 = 0.15 } #Vilayat_e_Faqih
	set_variable = { party_pop_array^10 = 0 } #Kingdom
	set_variable = { party_pop_array^11 = 0.05 } #Caliphate
	set_variable = { party_pop_array^12 = 0.084 } #Neutral_Muslim_Brotherhood
	set_variable = { party_pop_array^13 = 0 } #Neutral_Autocracy
	set_variable = { party_pop_array^14 = 0.13 } #Neutral_conservatism
	set_variable = { party_pop_array^15 = 0 } #oligarchism
	set_variable = { party_pop_array^16 = 0 } #Neutral_Libertarian
	set_variable = { party_pop_array^17 = 0 } #Neutral_green
	set_variable = { party_pop_array^18 = 0 } #neutral_Social
	set_variable = { party_pop_array^19 = 0.03 } #Neutral_Communism
	set_variable = { party_pop_array^20 = 0.14 } #Nat_Populism
	set_variable = { party_pop_array^21 = 0 } #Nat_Fascism
	set_variable = { party_pop_array^22 = 0 } #Nat_Autocracy
	set_variable = { party_pop_array^23 = 0 } #Monarchist

	### Ruling Party
	add_to_array = { ruling_party = 14 }

	startup_politics = yes

	create_country_leader = {
		name = "Haider al-Abadi"
		picture = "Haider_al-Abadi.dds"
		expire = "2050.1.1"
		ideology = Conservative
		traits = {
			emerging_Conservative
		}
	}
}