﻿2000.1.1 = {
	capital = 275
	oob = "SAF_2000"
	if = {
		limit = {
			has_dlc = "Man the Guns"
		}
		set_naval_oob = "SAF_2000_naval_mtg"
		else = {
			set_naval_oob = "SAF_2000_naval_legacy"
		}
	}
	
	set_convoys = 25
	
	add_ideas = {
		#pop_050
		unrestrained_corruption
		christian
		gdp_4
		stagnation
		defence_01
		edu_03
		health_03
		social_03
		bureau_03
		police_02
		rentier_state
		export_economy
		volunteer_army
		volunteer_women
		intervention_limited_interventionism
		USA_usaid #https://explorer.usaid.gov/aid-dashboard.html
		industrial_conglomerates
		landowners
		small_medium_business_owners
		#hybrid
		#tax_cost_23
		multi_ethnic_state_idea
	}
	
	# Starting tech
	set_technology = { 
		legacy_doctrines = 1 
		modern_blitzkrieg = 1 
		forward_defense = 1 
		encourage_nco_iniative = 1 
		air_land_battle = 1

		infantry_weapons = 1
		infantry_weapons1 = 1
		infantry_weapons2 = 1
		infantry_weapons3 = 1 #Vektor CR-21
		
		combat_eng_equipment = 1
		
		night_vision_1 = 1
		night_vision_2 = 1
		night_vision_3 = 1 #1985
		
		command_control_equipment = 1
		command_control_equipment1 = 1
		command_control_equipment2 = 1
		
		land_Drone_equipment = 1
		land_Drone_equipment1 = 1
		
		Anti_tank_0 = 1
		Heavy_Anti_tank_0 = 1
		AT_upgrade_1 = 1
		AT_upgrade_2 = 1
		Anti_tank_1 = 1
		Heavy_Anti_tank_1 = 1
		Anti_tank_2 = 1 #ZT3 IPLS
		Heavy_Anti_tank_2 = 1 #ZT3 Iklwa
		
		Anti_Air_0 = 1
		SP_Anti_Air_0 = 1
		
		artillery_0 = 1
		Arty_upgrade_1 = 1
		artillery_1 = 1 #G5
		SP_arty_0 = 1
		SP_arty_1 = 1
		SP_R_arty_0 = 1
		SP_R_arty_1 = 1	#Valkiri Mk1
		
		Early_APC = 1 #Vehicle Design
		
		MBT_1 = 1 #Olifant 2
		
		util_vehicle_0 = 1
		util_vehicle_1 = 1
		util_vehicle_2 = 1
		util_vehicle_3 = 1	#Mamba
		
		Rec_tank_0 = 1
		Rec_tank_1 = 1
		Rec_tank_2 = 1 #Rooikat 76
		
		APC_1 = 1
		APC_2 = 1
		APC_3 = 1
		APC_4 = 1	#Matador
		
		early_helicopter = 1
		attack_helicopter1 = 1
		attack_helicopter2 = 1		#Rooivalk
		
		transport_helicopter1 = 1
		transport_helicopter2 = 1 #Atlas Oryx
		
		L_Strike_fighter1 = 1
		L_Strike_fighter2 = 1 #AHRLAC
		
		Air_UAV1 = 1 #Seeker 400 UAS
		
		MR_Fighter1 = 1 #Atlas Cheetah

		diesel_attack_submarine_1 = 1
		
		landing_craft = 1
		
		body_armor_1980 = 1
		camouflage = 1
		camouflage2 = 1
	}

	set_country_flag = positive_industrial_conglomerates
	set_country_flag = positive_landowners
	set_country_flag = positive_small_medium_business_owners
	set_global_flag = sell_SAF_H_anti_tank_2
	set_global_flag = sell_SAF_APC_1
	clr_global_flag = sell_SAF_APC_5
	set_global_flag = sell_SAF_arty_1
	set_global_flag = sell_SAF_rec_0
	clr_global_flag = sell_SAF_rec_2
	
	#Influence system
	init_influence = yes
	set_variable = { domestic_influence_amount = 270 }
	add_to_array = { influence_array = ENG.id }
	add_to_array = { influence_array_val = 50 }
	add_to_array = { influence_array = USA.id }
	add_to_array = { influence_array_val = 20 }
	add_to_array = { influence_array = CAN.id }
	add_to_array = { influence_array_val = 5 }
	add_to_array = { influence_array = CHI.id }
	add_to_array = { influence_array_val = 40 }
	add_to_array = { influence_array = SOV.id }
	add_to_array = { influence_array_val = 5 }
	add_to_array = { influence_array = SAU.id }
	add_to_array = { influence_array_val = 5 }
	startup_influence = yes
	
	### Economy
	set_variable = { var = debt value = 84 }
	set_variable = { var = treasury value = 11 }
	set_variable = { var = tax_rate value = 23 }
	set_variable = { var = int_investments value = 0 }
	#initial_money_setup = yes
	
	set_politics = {
		parties = {
			democratic = { #western
				popularity = 23.7
			}
			communism = { #Emerging
				popularity = 0.0
			}
			fascism = { #Salafist
				popularity = 0.0
			}
			neutrality = { #neutrality
				popularity = 76.3
			}
			nationalist = { #nationalist
				popularity = 0.0
			}
		}
		ruling_party = neutrality
		last_election = "2000.1.1"
		election_frequency = 48
		elections_allowed = yes
	}
	
	start_politics_input = yes

	### Party Popularities
	set_variable = { party_pop_array^0 = 0 } #Western_Autocracy
	set_variable = { party_pop_array^1 = 0.069 } #conservatism
	set_variable = { party_pop_array^2 = 0.108 } #liberalism
	set_variable = { party_pop_array^3 = 0.06 } #socialism
	set_variable = { party_pop_array^4 = 0 } #Communist-State
	set_variable = { party_pop_array^5 = 0 } #anarchist_communism
	set_variable = { party_pop_array^6 = 0 } #Conservative
	set_variable = { party_pop_array^7 = 0 } #Autocracy
	set_variable = { party_pop_array^8 = 0 } #Mod_Vilayat_e_Faqih
	set_variable = { party_pop_array^9 = 0 } #Vilayat_e_Faqih
	set_variable = { party_pop_array^10 = 0 } #Kingdom
	set_variable = { party_pop_array^11 = 0 } #Caliphate
	set_variable = { party_pop_array^12 = 0 } #Neutral_Muslim_Brotherhood
	set_variable = { party_pop_array^13 = 0 } #Neutral_Autocracy
	set_variable = { party_pop_array^14 = 0.1 } #Neutral_conservatism
	set_variable = { party_pop_array^15 = 0 } #oligarchism
	set_variable = { party_pop_array^16 = 0 } #Neutral_Libertarian
	set_variable = { party_pop_array^17 = 0 } #Neutral_green
	set_variable = { party_pop_array^18 = 0.663 } #neutral_Social
	set_variable = { party_pop_array^19 = 0 } #Neutral_Communism
	set_variable = { party_pop_array^20 = 0 } #Nat_Populism
	set_variable = { party_pop_array^21 = 0 } #Nat_Fascism
	set_variable = { party_pop_array^22 = 0 } #Nat_Autocracy
	set_variable = { party_pop_array^23 = 0 } #Monarchist

	### Ruling Party
	add_to_array = { ruling_party = 18 }

	startup_politics = yes

	create_country_leader = {
		name = "Thabo Mbeki"
		picture = "Portrait_Thabo_Mbeki.dds"
		ideology = neutral_Social
		traits = {
			neutrality_neutral_Social
		}
	}
	
	create_field_marshal = {
		name = "Solly Shoke"
		picture = "Portrait_Solly_Shoke.dds"
		traits = { old_guard organisational_leader }
		id = 52200
		skill = 4
		attack_skill = 4
		defense_skill = 4
		planning_skill = 4
		logistics_skill = 4
	}

	create_field_marshal = {
		name = "Fabian Msimang"
		picture = "Portrait_Fabian_Msimang.dds"
		traits = { logistics_wizard }
		id = 52201
		skill = 3
		attack_skill = 3
		defense_skill = 3
		planning_skill = 3
		logistics_skill = 3
	}

	create_field_marshal = {
		name = "Nontobeko Mpaxa"
		picture = "Portrait_Nontobeko_Mpaxa.dds"
		traits = { thorough_planner }
		id = 52202
		skill = 2
		attack_skill = 2
		defense_skill = 2
		planning_skill = 2
		logistics_skill = 2
	}

	create_field_marshal = {
		name = "Lindile Yam"
		picture = "Portrait_Lindile_Yam.dds"
		traits = { offensive_doctrine }
		id = 52203
		skill = 3
		attack_skill = 3
		defense_skill = 3
		planning_skill = 3
		logistics_skill = 3
	}

	create_field_marshal = {
		name = "Carlo Gagiano"
		picture = "Portrait_Carlo_Gagiano.dds"
		traits = { logistics_wizard }
		id = 52204
		skill = 3
		attack_skill = 3
		defense_skill = 3
		planning_skill = 3
		logistics_skill = 3
	}
	create_field_marshal = {
		name = "Gerhard Kamffer"
		picture = "generals/Gerhard_Kamffer.dds"
		id = 52205
		skill = 1
		attack_skill = 1
		defense_skill = 1
		planning_skill = 1
		logistics_skill = 1
	}
	create_corps_commander = {
		name = "Godfrey Ngwenya"
		picture = "generals/Godfrey_Ngwenya.dds"
		id = 52206
		skill = 2
		attack_skill = 2
		defense_skill = 2
		planning_skill = 2
		logistics_skill = 2
	}
	create_corps_commander = {
		name = "Lawrence Smith"
		picture = "Portrait_Lawrence_Smith.dds"
		traits = { hill_fighter }
		id = 52207
		skill = 2
		attack_skill = 2
		defense_skill = 2
		planning_skill = 2
		logistics_skill = 2
	}

	create_corps_commander = {
		name = "Andre Retief"
		picture = "Portrait_Andre_Retief.dds"
		traits = { panzer_leader }
		id = 52208
		skill = 1
		attack_skill = 1
		defense_skill = 1
		planning_skill = 1
		logistics_skill = 1
	}

	create_corps_commander = {
		name = "Rudzani Maphwanya"
		picture = "Portrait_Rudzani_Maphwanya.dds"
		traits = { desert_fox }
		id = 52209
		skill = 2
		attack_skill = 2
		defense_skill = 2
		planning_skill = 2
		logistics_skill = 2
	}

	create_corps_commander = {
		name = "Roy Andersen"
		picture = "Portrait_Roy_Andersen.dds"
		traits = { bearer_of_artillery }
		id = 52210
		skill = 2
		attack_skill = 2
		defense_skill = 2
		planning_skill = 2
		logistics_skill = 2
	}

	create_corps_commander = {
		name = "Jabu Mbuli"
		picture = "Portrait_Jabu_Mbuli.dds"
		traits = { bearer_of_artillery }
		id = 52211
		skill = 2
		attack_skill = 2
		defense_skill = 2
		planning_skill = 2
		logistics_skill = 2
	}

	create_corps_commander = {
		name = "Willis Nkosi"
		picture = "Portrait_Willis_Nkosi.dds"
		traits = { trait_engineer }
		id = 52212
		skill = 1
		attack_skill = 1
		defense_skill = 1
		planning_skill = 1
		logistics_skill = 1
	}

	create_corps_commander = {
		name = "G.S. Hlongwa"
		picture = "Portrait_SG_Hlongwa.dds"
		traits = { fortress_buster }
		id = 52213
		skill = 1
		attack_skill = 1
		defense_skill = 1
		planning_skill = 1
		logistics_skill = 1
	}

	create_corps_commander = {
		name = "Koos Liebenberg"
		picture = "Portrait_Koos_Liebenberg.dds"
		traits = { ranger }
		id = 52214
		skill = 1
		attack_skill = 1
		defense_skill = 1
		planning_skill = 1
		logistics_skill = 1
	}

	create_navy_leader = {
		name = "Mosuwa Samuel Hlongwane"
		picture = "Portrait_Samuel_Hlongwane.dds"
		traits = { old_guard_navy superior_tactician }
		id = 52215
	}

	create_navy_leader = {
		name = "David Guy Jamieson"
		picture = "Portrait_David_Jamieson.dds"
		traits = { ironside }
		id = 52216
	}

	create_navy_leader = {
		name = "Hanno Teuteberg"
		picture = "Portrait_Hanno_Teuteberg.dds"
		traits = { blockade_runner }
		id = 52217
	}
	create_navy_leader = {
		name = "Bubele Mhlana"
		picture = "admirals/Bubele_Mhlana.dds"
		id = 52218
	}
	create_navy_leader = {
		name = "Thomas Vusi Mahlangu"
		picture = "Portrait_Thomas_Vusi_Mahlangu.dds"
		traits = { seawolf }
		id = 52219
	}
}

2017.1.1 = {
	capital = 275 
	oob = "SAF_2017"
	if = {
		limit = {
			has_dlc = "Man the Guns"
		}
		set_naval_oob = "SAF_2017_naval_mtg"
		else = {
			set_naval_oob = "SAF_2017_naval_legacy"
		}
	}
	set_convoys = 25

	add_ideas = {
		#pop_050
		unrestrained_corruption
		christian
		gdp_4
		stagnation
		defence_01
		edu_03
		health_03
		social_03
		bureau_03
		police_02
		rentier_state
		export_economy
		volunteer_army
		volunteer_women
		intervention_limited_interventionism
		USA_usaid #https://explorer.usaid.gov/aid-dashboard.html
		industrial_conglomerates
		landowners
		small_medium_business_owners
		#hybrid
		#tax_cost_30
		multi_ethnic_state_idea
	}
	
	#set_country_flag = gdp_4
	set_country_flag = positive_industrial_conglomerates
	set_country_flag = positive_landowners
	set_country_flag = positive_small_medium_business_owners
	set_global_flag = sell_SAF_H_anti_tank_2
	set_global_flag = sell_SAF_APC_5
	clr_global_flag = sell_SAF_APC_1
	set_global_flag = sell_SAF_arty_1
	set_global_flag = sell_SAF_rec_2
	clr_global_flag = sell_SAF_rec_0
	
	#Nat focus
	complete_national_focus = bonus_tech_slots
	complete_national_focus = Generic_4K_GDPC_slot
	complete_national_focus = Generic_4_IC_slot
	complete_national_focus = Generic_8_IC_slot
	complete_national_focus = Generic_16_IC_slot
	
	# Starting tech
	set_technology = { 
		legacy_doctrines = 1 
		modern_blitzkrieg = 1 
		forward_defense = 1 
		encourage_nco_iniative = 1 
		air_land_battle = 1

		infantry_weapons = 1
		infantry_weapons1 = 1
		infantry_weapons2 = 1
		infantry_weapons3 = 1 #Vektor CR-21
		
		combat_eng_equipment = 1
		
		night_vision_1 = 1
		night_vision_2 = 1
		night_vision_3 = 1 #1985
		
		command_control_equipment = 1
		command_control_equipment1 = 1
		command_control_equipment2 = 1
		command_control_equipment3 = 1 #2005
		
		land_Drone_equipment = 1
		land_Drone_equipment1 = 1
		land_Drone_equipment2 = 1 #2005
		
		Anti_tank_0 = 1
		Heavy_Anti_tank_0 = 1
		AT_upgrade_1 = 1
		AT_upgrade_2 = 1
		Anti_tank_1 = 1
		Heavy_Anti_tank_1 = 1
		Anti_tank_2 = 1 #ZT3 IPLS
		Heavy_Anti_tank_2 = 1 #ZT3 Iklwa
		
		Anti_Air_0 = 1
		SP_Anti_Air_0 = 1
		AA_upgrade_1 = 1
		
		artillery_0 = 1
		Arty_upgrade_1 = 1
		artillery_1 = 1 #G5
		SP_arty_0 = 1
		SP_arty_1 = 1
		SP_R_arty_0 = 1
		SP_R_arty_1 = 1
		SP_arty_2 = 1 #GV6 Renoster
		SP_R_arty_2 = 1 #alkiri Mk2
		
		Early_APC = 1 #Vehicle Design
		
		MBT_1 = 1
		MBT_2 = 1 #Olifant 2
		
		ENGI_MBT_1 = 1
		ENGI_MBT_2 = 1
		
		util_vehicle_0 = 1
		util_vehicle_1 = 1
		util_vehicle_2 = 1
		util_vehicle_3 = 1
		util_vehicle_4 = 1 #2005
		util_vehicle_5 = 1 #RG-35
		
		Rec_tank_0 = 1
		Rec_tank_1 = 1
		Rec_tank_2 = 1 #Rooikat 76
		
		IFV_1 = 1
		IFV_2 = 1
		IFV_3 = 1
		IFV_4 = 1
		IFV_5 = 1 #Badger
		
		APC_1 = 1
		APC_2 = 1
		APC_3 = 1
		APC_4 = 1
		APC_5 = 1 #Mbombe
		
		early_helicopter = 1
		attack_helicopter1 = 1
		attack_helicopter2 = 1
		attack_helicopter3 = 1 #Mi-24 SuperHind Mk.V
		
		transport_helicopter1 = 1
		transport_helicopter2 = 1 #Atlas Oryx
		
		L_Strike_fighter1 = 1
		L_Strike_fighter2 = 1 #AHRLAC
		
		Air_UAV1 = 1 #Seeker 400 UAS
		
		MR_Fighter1 = 1 #Atlas Cheetah
		
		frigate_1 = 1
		
		diesel_attack_submarine_1 = 1
		
		landing_craft = 1
		
		body_armor_2000 = 1

	}
	
	### Economy
	set_variable = { var = debt value = 184 }
	set_variable = { var = treasury value = 47 }
	set_variable = { var = int_investments value = 0 }
	set_variable = { var = tax_rate value = 30 }
	#initial_money_setup = yes
	
	set_politics = {
		parties = {
			democratic = { #western
				popularity = 26.8
			}
			communism = { #Emerging
				popularity = 12.8
			}
			fascism = { #Salafist
				popularity = 0.0
			}
			neutrality = { #neutrality
				popularity = 64.6
			}
			nationalist = { #nationalist
				popularity = 2.4
			}
		}
		
		ruling_party = communism
		last_election = "2014.5.7"
		election_frequency = 60
		elections_allowed = yes
	}

	start_politics_input = yes

	### Party Popularities
	set_variable = { party_pop_array^0 = 0 } #Western_Autocracy
	set_variable = { party_pop_array^1 = 0.03 } #conservatism
	set_variable = { party_pop_array^2 = 0.228 } #liberalism
	set_variable = { party_pop_array^3 = 0.01 } #socialism
	set_variable = { party_pop_array^4 = 0.064 } #Communist-State
	set_variable = { party_pop_array^5 = 0 } #anarchist_communism
	set_variable = { party_pop_array^6 = 0 } #Conservative
	set_variable = { party_pop_array^7 = 0 } #Autocracy
	set_variable = { party_pop_array^8 = 0 } #Mod_Vilayat_e_Faqih
	set_variable = { party_pop_array^9 = 0 } #Vilayat_e_Faqih
	set_variable = { party_pop_array^10 = 0 } #Kingdom
	set_variable = { party_pop_array^11 = 0 } #Caliphate
	set_variable = { party_pop_array^12 = 0 } #Neutral_Muslim_Brotherhood
	set_variable = { party_pop_array^13 = 0 } #Neutral_Autocracy
	set_variable = { party_pop_array^14 = 0.024 } #Neutral_conservatism
	set_variable = { party_pop_array^15 = 0 } #oligarchism
	set_variable = { party_pop_array^16 = 0 } #Neutral_Libertarian
	set_variable = { party_pop_array^17 = 0 } #Neutral_green
	set_variable = { party_pop_array^18 = 0.622 } #neutral_Social
	set_variable = { party_pop_array^19 = 0 } #Neutral_Communism
	set_variable = { party_pop_array^20 = 0.024 } #Nat_Populism
	set_variable = { party_pop_array^21 = 0 } #Nat_Fascism
	set_variable = { party_pop_array^22 = 0 } #Nat_Autocracy
	set_variable = { party_pop_array^23 = 0 } #Monarchist

	### Ruling Party
	add_to_array = { ruling_party = 4 }

	startup_politics = yes

	create_country_leader = {
		name = "Jacob Zuma"
		picture = "Jacob_Zuma.dds"
		ideology = Communist-State
		traits = {
			spy
			emerging_Communist-State
			narcissist
			greedy
			rash
		}
	}
	
	create_equipment_variant = {
		name = "RG-32 Scout"
		type = util_vehicle_4
		upgrades = {
		}
	}

	create_equipment_variant = {
		name = "Marauder"
		type = util_vehicle_5
		upgrades = {
		}
	}
}