﻿2000.1.1 = {
	add_ideas = {
		volunteer_army
		defence_02
		health_04
		social_04
	}

	capital = 131
	oob = "SER_2000"
	if = {
		limit = {
			has_dlc = "Man the Guns"
		}
		set_naval_oob = "SER_2000_naval_mtg"
		else = {
			set_naval_oob = "SER_2000_naval_legacy"
		}
	}
	set_convoys = 25
	
	add_ideas = {
		#pop_050
		orthodox_christian
		unrestrained_corruption
		gdp_4
		stable_growth
		defence_04
		edu_03
		health_03
		social_03
		bureau_02
		police_05
		draft_army
		volunteer_women
		medium_far_right_movement
		small_medium_business_owners
		landowners
		The_Clergy
		#civil_law
		#tax_cost_35
		multi_ethnic_state_idea
	}
	
	#Influence system
	init_influence = yes
	set_variable = { domestic_influence_amount = 180 }
	add_to_array = { influence_array = FRA.id }
	add_to_array = { influence_array_val = 10 }
	add_to_array = { influence_array = SOV.id }
	add_to_array = { influence_array_val = 80 }
	add_to_array = { influence_array = GER.id }
	add_to_array = { influence_array_val = 10 }
	add_to_array = { influence_array = ITA.id }
	add_to_array = { influence_array_val = 10 }
	add_to_array = { influence_array = CHI.id }
	add_to_array = { influence_array_val = 10 }
	add_to_array = { influence_array = USA.id }
	add_to_array = { influence_array_val = 1 }
	startup_influence = yes
	
	set_variable = { var = debt value = 22.5 }
	set_variable = { var = treasury value = 1.3 }
	set_variable = { var = int_investments value = 0 }
	set_variable = { var = tax_rate value = 35 }
	
	set_global_flag = sell_SER_IFV_2
	clr_global_flag = sell_SER_IFV_4
	set_global_flag = sell_SER_arty_1

	set_cosmetic_tag = SER_FRY
	
	set_technology = { 
		legacy_doctrines = 1 
		infiltration_assault = 1 
		defence_in_depth = 1 
		early_tunnel_warfare = 1 
		guerilla_specialisation = 1
		
		infantry_weapons = 1
		infantry_weapons1 = 1
		infantry_weapons2 = 1
		
		command_control_equipment = 1
		
		land_Drone_equipment = 1
		
		Anti_tank_0 = 1
		Heavy_Anti_tank_0 = 1
		
		Anti_Air_0 = 1
		SP_Anti_Air_0 = 1
		
		combat_eng_equipment = 1
		
		util_vehicle_0 = 1
		util_vehicle_1 = 1
		util_vehicle_2 = 1
		
		early_helicopter = 1
		transport_helicopter1 = 1
		
		night_vision_1 = 1
		night_vision_2 = 1
		
		Early_APC = 1
		MBT_1 = 1
		MBT_2 = 1 #M-84A
		
		ENGI_MBT_1 = 1
		ENGI_MBT_2 = 1 #M-84A1
		
		IFV_1 = 1
		IFV_2 = 1 #BVP M-80
		
		APC_1 = 1
		APC_2 = 1
		APC_3 = 1 #BOV-1
		
		artillery_0 = 1
		artillery_1 = 1 #M-84 Nora
		Arty_upgrade_1 = 1
		
		SP_arty_0 = 1
		SP_arty_1 = 1
		
		SP_R_arty_0 = 1
		SP_R_arty_1 = 1 #M-77 Oganj
		
		early_fighter = 1
		L_Strike_fighter1 = 1
		L_Strike_fighter2 = 1 #G-4 Super Galeb
	   
		Strike_fighter1 = 1
		Strike_fighter2 = 1 #J-22 Orao
		
		landing_craft = 1
		
		#Sava-Class
		submarine_1 = 1
		diesel_attack_submarine_1 = 1
		diesel_attack_submarine_2 = 1
		
		#Kotor-Class
		corvette_1 = 1
		corvette_2 = 1
		missile_corvette_1 = 1
		
		body_armor_1980 = 1
		
	}
	
	set_politics = {

		parties = {
			democratic = { #western
				popularity = 24.3 
			}
			communism = { #Emerging
				popularity = 3.6
			}
			fascism = { #Salafist
				popularity = 0.0 
			}
			neutrality = { #neutrality
				popularity = 31.6
			}
			nationalist = { #nationalist
				popularity = 40.5 
			}
		}
		ruling_party = nationalist
		last_election = "1997.9.21"
		election_frequency = 48
		elections_allowed = yes
	}
	
	start_politics_input = yes

	set_variable = { party_pop_array^0 = 0.05 } #Western_Autocracy
	set_variable = { party_pop_array^1 = 0.025 } #conservatism
	set_variable = { party_pop_array^2 = 0.165 } #liberalism
	set_variable = { party_pop_array^3 = 0.003 } #socialism
	set_variable = { party_pop_array^4 = 0.005 } #Communist-State
	set_variable = { party_pop_array^5 = 0.01 } #anarchist_communism
	set_variable = { party_pop_array^6 = 0.02 } #Conservative
	set_variable = { party_pop_array^7 = 0.001 } #Autocracy
	set_variable = { party_pop_array^8 = 0 } #Mod_Vilayat_e_Faqih
	set_variable = { party_pop_array^9 = 0 } #Vilayat_e_Faqih
	set_variable = { party_pop_array^10 = 0 } #Kingdom
	set_variable = { party_pop_array^11 = 0 } #Caliphate
	set_variable = { party_pop_array^12 = 0 } #Neutral_Muslim_Brotherhood
	set_variable = { party_pop_array^13 = 0 } #Neutral_Autocracy
	set_variable = { party_pop_array^14 = 0.295 } #Neutral_conservatism
	set_variable = { party_pop_array^16 = 0.001 } #Neutral_Libertarian
	set_variable = { party_pop_array^17 = 0 } #Neutral_green
	set_variable = { party_pop_array^18 = 0.01 } #neutral_Social
	set_variable = { party_pop_array^19 = 0.01 } #Neutral_Communism
	set_variable = { party_pop_array^20 = 0.34 } #Nat_Populism
	set_variable = { party_pop_array^21 = 0.065 } #Nat_Fascism
	set_variable = { party_pop_array^22 = 0 } #Nat_Autocracy
	set_variable = { party_pop_array^23 = 0 } #Monarchist
	add_to_array = { ruling_party = 20 }
	startup_politics = yes
	
	
	create_country_leader = {
		name = "Slobodan Milošević"
		picture = "slobodan_milosevic.dds"
		expire = "2006.3.26"
		ideology = Nat_Populism
		traits = {
			career_politician
			nationalist_Nat_Populism
			ruthless
			war_criminal
		}
	}
	
	create_corps_commander = {
		name = "Ljubisa Dikovic"
		picture = "Gen_Igor_Borisovich_Tymofeyev.dds"
		traits = { commando trickster }
		id = 54300
		skill = 3
		attack_skill = 3
		defense_skill = 3
		planning_skill = 3
		logistics_skill = 3

	}

	create_corps_commander = {
		name = "Milan Mojsilovic"
		picture = "Gen_Igor_Borisovich_Tymofeyev.dds"
		traits = { panzer_leader }
		id = 54301
		skill = 3
		attack_skill = 3
		defense_skill = 3
		planning_skill = 3
		logistics_skill = 3

	}

	create_corps_commander = {
		name = "Sladjan Djordjevic"
		picture = "Gen_Igor_Borisovich_Tymofeyev.dds"
		traits = { panzer_leader }
		id = 54302
		skill = 3
		attack_skill = 3
		defense_skill = 3
		planning_skill = 3
		logistics_skill = 3

	}
	create_corps_commander = {
		name = "Željko Petrović"
		picture = "Portrait_Zeljko_Petrovic.dds"
		traits = { panzer_leader }
		id = 54303
		skill = 1
		attack_skill = 1
		defense_skill = 1
		planning_skill = 1
		logistics_skill = 1
	}

	create_corps_commander = {
		name = "Dušan Stojanović"
		picture = "Portrait_Dusan_Stojanovic.dds"
		traits = { panzer_leader }
		id = 54304
		skill = 1
		attack_skill = 1
		defense_skill = 1
		planning_skill = 1
		logistics_skill = 1
	}

	create_corps_commander = {
		name = "Želimir Glisović"
		picture = "Portrait_Zelimir_Glisovic.dds"
		traits = { trait_engineer }
		id = 54305
		skill = 1
		attack_skill = 1
		defense_skill = 1
		planning_skill = 1
		logistics_skill = 1
	}

	create_corps_commander = {
		name = "Milosav Simović"
		picture = "Portrait_Milosav_Simovic.dds"
		traits = { ranger }
		id = 54306
		skill = 1
		attack_skill = 1
		defense_skill = 1
		planning_skill = 1
		logistics_skill = 1
	}

	create_corps_commander = {
		name = "Jelesije Radivojević"
		picture = "Portrait_Jelesije_Radivojevic.dds"
		traits = { commando }
		id = 54307
		skill = 1
		attack_skill = 1
		defense_skill = 1
		planning_skill = 1
		logistics_skill = 1
	}

	create_corps_commander = {
		name = "Ranko Živak"
		picture = "Portrait_Ranko_Zivak.dds"
		traits = { commando }
		id = 54308
		skill = 2
		attack_skill = 2
		defense_skill = 2
		planning_skill = 2
		logistics_skill = 2
	}

	create_corps_commander = {
		name = "Predrag Bandić"
		picture = "Portrait_Predrag_Bandic.dds"
		traits = { commando }
		id = 54309
		skill = 1
		attack_skill = 1
		defense_skill = 1
		planning_skill = 1
		logistics_skill = 1
	}

	create_corps_commander = {
		name = "Dejan Joksimović"
		picture = "Portrait_Dejan_Joksimovic.dds"
		traits = { commando }
		id = 54310
		skill = 1
		attack_skill = 1
		defense_skill = 1
		planning_skill = 1
		logistics_skill = 1
	}

	create_corps_commander = {
		name = "Miodrag Gordić"
		picture = "Portrait_Miodrag_Gordic.dds"
		traits = { bearer_of_artillery }
		id = 54311
		skill = 1
		attack_skill = 1
		defense_skill = 1
		planning_skill = 1
		logistics_skill = 1
	}

	create_corps_commander = {
		name = "Branko Andrić"
		picture = "Portrait_Branko_Andric.dds"
		traits = {  }
		id = 54312
		skill = 2
		attack_skill = 2
		defense_skill = 2
		planning_skill = 2
		logistics_skill = 2
	}

	create_corps_commander = {
		name = "Vojin Jondić"
		picture = "Portrait_Vojin_Jondic.dds"
		traits = { trickster }
		id = 54313
		skill = 2
		attack_skill = 2
		defense_skill = 2
		planning_skill = 2
		logistics_skill = 2
	}

	create_corps_commander = {
		name = "Mladjen Nišević"
		picture = "Portrait_Mladjen_Nisevic.dds"
		traits = {  }
		id = 54314
		skill = 2
		attack_skill = 2
		defense_skill = 2
		planning_skill = 2
		logistics_skill = 2
	}

	create_corps_commander = {
		name = "Djokica Petrović"
		picture = "Portrait_Djokica_Petrovic.dds"
		traits = { hill_fighter }
		id = 54315
		skill = 2
		attack_skill = 2
		defense_skill = 2
		planning_skill = 2
		logistics_skill = 2
	}

	create_corps_commander = {
		name = "Stojan Batinić"
		picture = "Portrait_Stojan_Batinic.dds"
		traits = {  }
		id = 54316
		skill = 1
		attack_skill = 1
		defense_skill = 1
		planning_skill = 1
		logistics_skill = 1
	}

	create_corps_commander = {
		name = "Zarko Lazarević"
		picture = "Portrait_Zarko_Lazarevic.dds"
		traits = {  }
		id = 54317
		skill = 1
		attack_skill = 1
		defense_skill = 1
		planning_skill = 1
		logistics_skill = 1
	}

	create_corps_commander = {
		name = "Zoran Lubura"
		picture = "Portrait_Zoran_Lubura.dds"
		traits = {  }
		id = 54318
		skill = 1
		attack_skill = 1
		defense_skill = 1
		planning_skill = 1
		logistics_skill = 1
	}

	create_corps_commander = {
		name = "Ljubomir Nikolić"
		picture = "Portrait_Ljubomir_Nikolic.dds"
		traits = {  }
		id = 54319
		skill = 1
		attack_skill = 1
		defense_skill = 1
		planning_skill = 1
		logistics_skill = 1
	}

	create_corps_commander = {
		name = "Marinko Pavlović"
		picture = "Portrait_Marinko_Pavlovic.dds"
		traits = {  }
		id = 54320
		skill = 1
		attack_skill = 1
		defense_skill = 1
		planning_skill = 1
		logistics_skill = 1
	}

	create_corps_commander = {
		name = "Zoran Popović"
		picture = "Portrait_Zoran_Popovic.dds"
		traits = {  }
		id = 54321
		skill = 1
		attack_skill = 1
		defense_skill = 1
		planning_skill = 1
		logistics_skill = 1
	}

	create_corps_commander = {
		name = "Predra Simović"
		picture = "Portrait_Predrag_Simovic.dds"
		traits = {  }
		id = 54322
		skill = 1
		attack_skill = 1
		defense_skill = 1
		planning_skill = 1
		logistics_skill = 1
	}

	create_corps_commander = {
		name = "Vladimir Vukajlović"
		picture = "Portrait_Vladimir_Vukaljovic.dds"
		traits = { urban_assault_specialist }
		id = 54323
		skill = 1
		attack_skill = 1
		defense_skill = 1
		planning_skill = 1
		logistics_skill = 1
	}

	create_navy_leader = {
		name = "Andrija Andrić"
		picture = "Portrait_Andrija_Andric.dds"
		traits = { old_guard_navy superior_tactician }
		id = 54324
	}
}

2017.1.1 = {
	drop_cosmetic_tag = yes
	capital = 131
	oob = "SER_2017"
	set_convoys = 5

	set_technology = { 
		infantry_weapons3 = 1
		infantry_weapons4 = 1
		
		util_vehicle_3 = 1
		util_vehicle_4 = 1
		
		AT_upgrade_1 = 1
		Anti_tank_1 = 1
		Heavy_Anti_tank_1 = 1
		
		MBT_3 = 1
		MBT_4 = 1 #M-84A
		
		IFV_3 = 1
		IFV_4 = 1 #BVP M-80
		
		APC_4 = 1
		APC_5 = 1
		
		AA_upgrade_1 = 1
		Anti_Air_1 = 1
		SP_Anti_Air_1 = 1
		
		body_armor_2000 = 1
	}

	remove_ideas = {
		defence_04
		health_03
		social_03
		draft_army
	}
	
	add_ideas = {
		volunteer_army
		defence_02
		health_04
		social_04
	}
	
	#set_country_flag = gdp_4
	set_country_flag = positive_small_medium_business_owners
	set_country_flag = positive_landowners
	set_global_flag = sell_SER_IFV_4
	clr_global_flag = sell_SER_IFV_2
	set_global_flag = sell_SER_arty_1
	
	set_variable = { var = debt value = 26 }
	set_variable = { var = treasury value = 11 }
	set_variable = { var = int_investments value = 0 }
	set_variable = { var = tax_rate value = 35 }
	
	#set_variable = { var = size_modifier value = 0.38 } #4 CIC
	#initial_money_setup = yes
	
	#Nat focus
	complete_national_focus = bonus_tech_slots
	complete_national_focus = Generic_4K_GDPC_slot
	complete_national_focus = Generic_4_IC_slot
	complete_national_focus = Generic_8_IC_slot
	
	set_politics = {

		parties = {
			democratic = { #western
				popularity = 19.0 
			}
			communism = { #Emerging
				popularity = 3.0 
			}
			fascism = { #Salafist
				popularity = 0.0 
			}
			neutrality = { #neutrality
				popularity = 72.0 
			}
			nationalist = { #nationalist
				popularity = 3.0 
			}
		}
		
		ruling_party = neutrality
		last_election = "2016.4.4"
		election_frequency = 48
		elections_allowed = yes
	}


	start_politics_input = yes

	set_variable = { party_pop_array^0 = 0.01 } #Western_Autocracy
	set_variable = { party_pop_array^1 = 0 } #conservatism
	set_variable = { party_pop_array^2 = 0.16 } #liberalism
	set_variable = { party_pop_array^3 = 0.02 } #socialism
	set_variable = { party_pop_array^4 = 0.01 } #Communist-State
	set_variable = { party_pop_array^5 = 0 } #anarchist_communism
	set_variable = { party_pop_array^6 = 0 } #Conservative
	set_variable = { party_pop_array^7 = 0.01 } #Autocracy
	set_variable = { party_pop_array^8 = 0 } #Mod_Vilayat_e_Faqih
	set_variable = { party_pop_array^9 = 0 } #Vilayat_e_Faqih
	set_variable = { party_pop_array^10 = 0 } #Kingdom
	set_variable = { party_pop_array^11 = 0 } #Caliphate
	set_variable = { party_pop_array^12 = 0.01 } #Neutral_Muslim_Brotherhood
	set_variable = { party_pop_array^13 = 0.09 } #Neutral_Autocracy
	set_variable = { party_pop_array^14 = 0.53 } #Neutral_conservatism
	set_variable = { party_pop_array^15 = 0 } #oligarchism
	set_variable = { party_pop_array^16 = 0.05 } #Neutral_Libertarian
	set_variable = { party_pop_array^17 = 0 } #Neutral_green
	set_variable = { party_pop_array^18 = 0.03 } #neutral_Social
	set_variable = { party_pop_array^19 = 0.01 } #Neutral_Communism
	set_variable = { party_pop_array^20 = 0.03 } #Nat_Populism
	set_variable = { party_pop_array^21 = 0 } #Nat_Fascism
	set_variable = { party_pop_array^22 = 0 } #Nat_Autocracy
	set_variable = { party_pop_array^23 = 0 } #Monarchist
	add_to_array = { ruling_party = 14 }
	startup_politics = yes

	create_country_leader = {
		name = "Aleksandar Vučić"
		picture = "Aleksandar_Vucic.dds"
		ideology = Neutral_conservatism
		traits = {
			neutrality_Neutral_conservatism
		}
	}

}