
EP_main_cat = {
	
	icon = generic_economy
	
	visible = {
		always = yes
	}
}

EP_inf_cat = {
	
	icon = generic_economy
	
	visible = {
		has_country_flag = inf_cat_open
	}
}

EP_arty_cat = {
	
	icon = generic_economy
	
	visible = {
		has_country_flag = arty_cat_open
	}
}

EP_vhc_cat = {
	
	icon = generic_economy
	
	visible = {
		has_country_flag = vhc_cat_open
	}
}

EP_air_cat = {
	
	icon = generic_economy
	
	visible = {
		has_country_flag = air_cat_open
	}
}

EP_navy_cat = {
	
	icon = generic_economy
	
	visible = {
		has_country_flag = navy_cat_open
	}
}

EP_smug_main_cat = {
	
	icon = generic_economy
	
	visible = {
		always = yes
	}
}