focus_tree = {
	id = France
	country = {
		factor = 0
		modifier = {
			add = 10
			tag = FRA
		}
	}
	default = no
	
	
	
######################################	
##			INDUSTRIAL PATH			##
######################################
	focus = {
		id = FRA_Absolute_Centralization
		icon = GFX_goal_unknown
		cost = 10
		x = 15
		y = 0
			prerequisite = { }
			mutually_exclusive = { }
			available = { }
			historical_ai = { }
			select_effect = { }
			bypass = { }
			cancel = { }

			cancel_if_invalid = yes
			continue_if_invalid = yes
			available_if_capitulated = no
			
			complete_tooltip = {
				# 56 = {
					# add_extra_state_shared_building_slots = 2
					# add_building_construction = {
						# type = industrial_complex
						# level = 2
						# instant_build = yes
					# }
				# }
				# custom_effect_tooltip = FRA_Absolute_Centralization_tt
			}
			completion_reward = {
				56 = {
					add_extra_state_shared_building_slots = 2
					add_building_construction = {
						type = industrial_complex
						level = 2
						instant_build = yes
					}
				}
				add_to_variable = { treasury = 5 }
			}

			ai_will_do = {
				base = 10 }
	}
		
	focus = {	id = FRA_French_Fleurons
		icon = GFX_goal_unknown
		cost = 10
		prerequisite = {
			focus = FRA_Absolute_Centralization
		}
		relative_position_id = FRA_Absolute_Centralization
		x = -7
		y = 1
			mutually_exclusive = { }
			available = { }
			historical_ai = { }
			select_effect = { }
			bypass = { }
			cancel = { }

			cancel_if_invalid = yes
			continue_if_invalid = yes
			available_if_capitulated = no
			
			completion_reward = {
				research_bonus = { industry = 0.40 }
				add_political_power = 50
			}
			# add_tech_bonus = {
				# name = industrial_bonus
				# bonus = -0.5
				# uses = 1
				# category = industry
			# }

			ai_will_do = {
				base = 10 }

	}	
##		RESEARCH SUB-PATH		##
	focus = {	id = FRA_Sophia_Antipolis
		icon = research
		cost = 10
		prerequisite = {
			focus = FRA_French_Fleurons
		}
		relative_position_id = FRA_French_Fleurons
		x = -8
		y = 1
			available_if_capitulated = yes
			cancel_if_invalid = no
			continue_if_invalid = yes
			
			available = {
				num_of_factories > 85
			}
			
			ai_will_do = {
				factor = 100
			}

			completion_reward = {
				add_research_slot = 1
			}
	}
	focus = {
		id = FRA_French_Cluster
		icon = research
		cost = 10
		prerequisite = {
			focus = FRA_Sophia_Antipolis
		}
		relative_position_id = FRA_Sophia_Antipolis
		x = 0
		y = 1
			available_if_capitulated = yes
			cancel_if_invalid = no
			continue_if_invalid = yes
			
			available = {
				num_of_factories > 130
			}
			
			ai_will_do = {
				factor = 100
			}

			completion_reward = {
				add_research_slot = 1
			}
	}
	focus = {
		id = FRA_Pole_Competitivite
		icon = research
		cost = 10
		prerequisite = {
			focus = FRA_French_Cluster
		}
		relative_position_id = FRA_French_Cluster
		x = 0
		y = 1
			available_if_capitulated = yes
			cancel_if_invalid = no
			continue_if_invalid = yes
			
			available = {
				num_of_factories > 190
			}
			
			ai_will_do = {
				factor = 100
			}

			completion_reward = {
				add_research_slot = 1
			}
	}
	focus = {
		id = FRA_French_Tech
		icon = research
		cost = 10
		prerequisite = {
			focus = FRA_Pole_Competitivite
		}
		relative_position_id = FRA_Pole_Competitivite
		x = 0
		y = 1
			available_if_capitulated = yes
			cancel_if_invalid = no
			continue_if_invalid = yes
			
			available = {
				num_of_factories > 280
			}
			
			ai_will_do = {
				factor = 100
			}

			completion_reward = {
				add_research_slot = 1
			}
	}
	focus = {
		id = FRA_Pepiniere
		icon = research
		cost = 10
		prerequisite = {
			focus = FRA_French_Tech
		}
		relative_position_id = FRA_French_Tech
		x = 0
		y = 1
			available_if_capitulated = yes
			cancel_if_invalid = no
			continue_if_invalid = yes
			
			available = {
				num_of_factories > 380
			}
			
			ai_will_do = {
				factor = 100
			}

			completion_reward = {
				add_research_slot = 1
			}
	}
	focus = {
		id = FRA_Licornes
		icon = research
		cost = 10
		prerequisite = {
			focus = FRA_Pepiniere
		}
		relative_position_id = FRA_Pepiniere
		x = 0
		y = 1
			available_if_capitulated = yes
			cancel_if_invalid = no
			continue_if_invalid = yes
			
			available = {
				num_of_factories > 500
			}
			
			ai_will_do = {
				factor = 100
			}

			completion_reward = {
				add_research_slot = 1
			}
	}
##		END RESEARCH SUB-PATH		##

##		INFRASTRUCTURE SUB-PATH		##	
	focus = {
		id = FRA_Alsthom
		icon = GFX_goal_unknown
		cost = 10
		prerequisite = {
			focus = FRA_French_Fleurons
		}
		relative_position_id = FRA_French_Fleurons
		x = -4
		y = 1
		
		available_if_capitulated = yes
			
			completion_reward = {
				add_ideas = FRA_alsthom
			}
			ai_will_do = {
				base = 10 }
	}
	focus = {
		id = FRA_South_West_LGV
		icon = infrastructure
		cost = 10
		prerequisite = {
			focus = FRA_Alsthom
		}
		relative_position_id = FRA_Alsthom
		x = -2
		y = 1
		
		available_if_capitulated = no
		completion_reward = {
			if = {
				limit = { has_full_control_of_state = 59 }
				59 = { add_building_construction = { type = infrastructure level = 2 instant_build = yes } }
			}
			if = {
				limit = { has_full_control_of_state = 60 }
				60 = { add_building_construction = { type = infrastructure level = 2 instant_build = yes } }
			}
		}
	}
	focus = {
		id = FRA_Continue_Spain
		icon = GFX_goal_unknown
		cost = 10
		prerequisite = {
			focus = FRA_South_West_LGV
		}
		relative_position_id = FRA_South_West_LGV
		x = 0
		y = 1
		available_if_capitulated = no
		
		available = {
			SPR = { has_full_control_of_state = 88 }
			SPR = { has_full_control_of_state = 90 }
			SPR = { has_full_control_of_state = 91 }
		}
		completion_reward = {
			if = {
				limit = { 
					SPR = { has_full_control_of_state = 88 } }
					88 = { add_building_construction = { type = infrastructure level = 1 instant_build = yes } }
			}
			if = {
				limit = { 
					SPR = { has_full_control_of_state = 90 } }
					90 = { add_building_construction = { type = infrastructure level = 1 instant_build = yes } }
			}
			if = {
				limit = { 
					SPR = { has_full_control_of_state = 91 } }
					91 = { add_building_construction = { type = infrastructure level = 1 instant_build = yes } }
			}
		add_to_variable = { treasury = -1.5 }
		}
	}
	focus = {	id = FRA_South_East_LGV
		icon = infrastructure
		cost = 10
		prerequisite = {
			focus = FRA_Alsthom
		}
		relative_position_id = FRA_Alsthom
		x = 0
		y = 1
		available_if_capitulated = no
		completion_reward = {
			if = {
				limit = { has_full_control_of_state = 56 }
				56 = { add_building_construction = { type = infrastructure level = 1 instant_build = yes } }
			}
			if = {
				limit = { has_full_control_of_state = 58 }
				58 = { add_building_construction = { type = infrastructure level = 1 instant_build = yes } }
			}
			if = {
				limit = { has_full_control_of_state = 62 }
				62 = { add_building_construction = { type = infrastructure level = 1 instant_build = yes } }
			}
			if = {
				limit = { has_full_control_of_state = 63 }
				63 = { add_building_construction = { type = infrastructure level = 1 instant_build = yes } }
			}
		}
	}
	focus = {
		id = FRA_Continue_Italy
		icon = align_to_italy
		cost = 10
		prerequisite = {
			focus = FRA_South_East_LGV
		}
		relative_position_id = FRA_South_East_LGV
		x = 0
		y = 1
		available_if_capitulated = no

		available = {
			ITA = { has_full_control_of_state = 77 }
			ITA = { has_full_control_of_state = 79 }
			ITA = { has_full_control_of_state = 81 }
		}
		completion_reward = {
			if = {
				limit = { 
					ITA = { has_full_control_of_state = 77 } }
					77 = { add_building_construction = { type = infrastructure level = 1 instant_build = yes } }
			}
			if = {
				limit = { 
					ITA = { has_full_control_of_state = 79 } }
					79 = { add_building_construction = { type = infrastructure level = 1 instant_build = yes } }
			}
			if = {
				limit = { 
					ITA = { has_full_control_of_state = 81 } }
					81 = { add_building_construction = { type = infrastructure level = 1 instant_build = yes } }
			}
		add_to_variable = { treasury = -1.5 }
		}
	}
	focus = {
		id = FRA_North_East_LGV
		icon = infrastructure
		cost = 10
		prerequisite = {
			focus = FRA_Alsthom
		}
		relative_position_id = FRA_Alsthom
		x = 2
		y = 1
		available_if_capitulated = no
		completion_reward = {
			if = {
				limit = { has_full_control_of_state = 56 }
				56 = { add_building_construction = { type = infrastructure level = 1 instant_build = yes } }
			}
			if = {
				limit = { has_full_control_of_state = 54 }
				54 = { add_building_construction = { type = infrastructure level = 1 instant_build = yes } }
			}
			if = {
				limit = { has_full_control_of_state = 57 }
				57 = { add_building_construction = { type = infrastructure level = 2 instant_build = yes } }
			}
		}
	}
	focus = {
		id = FRA_Buy_British_Railways
		icon = GFX_goal_unknown
		cost = 10
		prerequisite = {
			focus = FRA_North_East_LGV
		}
		relative_position_id = FRA_North_East_LGV
		x = 0
		y = 1
			
		available_if_capitulated = no
		

		completion_reward = {
			country_event = { id = France.1 }
		}

		ai_will_do = {
			base = 10 }
	}
	focus = {
		id = FRA_European_Railway_System
		icon = Great_Railway_Incident
		cost = 10
		prerequisite = {
			focus = FRA_Buy_British_Railways
		}
		prerequisite = {
			focus = FRA_Continue_Italy
		}
		prerequisite = {
			focus = FRA_Continue_Spain
		}
		relative_position_id = FRA_Continue_Italy
		x = 0
		y = 1
		
		cancel_if_invalid = yes
		continue_if_invalid = yes
		available_if_capitulated = no
		
		completion_reward = {
			custom_effect_tooltip = FRA_European_Railway_System_tt
			set_global_flag = European_Railway_System
		}
		
		ai_will_do = { base = 10 }
	}
	focus = {
		id = FRA_SNCE
		icon = SNCE_2
		cost = 10
		prerequisite = {
			focus = FRA_European_Railway_System
		}
		relative_position_id = FRA_European_Railway_System
		x = 0
		y = 1
		
		cancel_if_invalid = yes
		continue_if_invalid = yes
		available_if_capitulated = yes
		
		completion_reward = {
			add_ideas = FRA_idea_SNCE
		}

		ai_will_do = { base = 10 }
	}
##		END INFRASTRUCTURE SUB-PATH		##	

##		RESSOURCES SUB-PATH		##
	focus = {
		id = FRA_Energetic_Independancy
		icon = oil_trade
		cost = 10
		prerequisite = {
			focus = FRA_French_Fleurons
		}
		relative_position_id = FRA_French_Fleurons
		x = 2
		y = 1

	}
	focus = {
		id = FRA_Areva_Niger
		icon = Areva
		cost = 10
		prerequisite = {
			focus = FRA_Energetic_Independancy
		}
		relative_position_id = FRA_Energetic_Independancy
		x = -2
		y = 1
		available = { 
			NGR = {
			controls_state = 330
			}
		}
		completion_reward = {
			if = {
				limit = {
					NGR = {
					controls_state = 330
					not = {
						has_war_with = FRA
					}
					}
				}
			add_resource = {
				type = tungsten
				amount = 12
				state = 330
				}
			}
		}
	}
	focus = {
		id = FRA_CFMM
		icon = GFX_goal_unknown
		cost = 10
		prerequisite = {
			focus = FRA_Areva_Niger
		}
		relative_position_id = FRA_Areva_Niger
		x = 0
		y = 1
		available = { 
			NGR = {
			controls_state = 330
			}
		}
		completion_reward = {
			if = {
				limit = {
					NGR = {
					controls_state = 330
					not = {
						has_war_with = FRA
					}
					}
				}
			add_resource = {
				type = tungsten
				amount = 12
				state = 330
				}
			}
		}
	}
	focus = {
		id = FRA_CNMF
		icon = GFX_goal_unknown
		cost = 10
		prerequisite = {
			focus = FRA_CFMM
		}
		relative_position_id = FRA_CFMM
		x = 0
		y = 1
		available = {
			FRA = {
			controls_state = 54
			}
		}
		completion_reward = {
			add_resource = {
			type = aluminium
			amount = 12
			state = 54
			}
		}
	}
	focus = {
		id = FRA_ERAMET
		icon = Eramet
		cost = 10
		prerequisite = {
			focus = FRA_CNMF
		}
		relative_position_id = FRA_CNMF
		x = 0
		y = 1
		available = {
			FRA = {
			controls_state = 62
			}
		}
		completion_reward = {
			add_resource = {
			type = steel
			amount = 24
			state = 62
			}
		}
	}
	focus = {
		id = FRA_Imerys
		icon = Imerys
		cost = 10
		prerequisite = {
			focus = FRA_ERAMET
		}
		relative_position_id = FRA_ERAMET
		x = 0
		y = 1
		available = {
			FRA = {
			controls_state = 62
			}
		}
		completion_reward = {
			add_resource = {
			type = aluminium
			amount = 12
			state = 62
			}
		}
	}
	focus = {
		id = FRA_Total_Afrique_Equatoriale
		icon = GFX_goal_unknown
		cost = 10
		prerequisite = {
			focus = FRA_Energetic_Independancy
		}
		relative_position_id = FRA_Energetic_Independancy
		x = 0
		y = 1
		available = {
			OR = { 
				NIG = {
				controls_state = 332
				}
				CNG = {
				controls_state = 315
				}
				GAB = {
				controls_state = 317
				}
			}
		}
		
		completion_reward = {
			if = {
				limit = {
					NIG = {
					controls_state = 332
					not = {
						has_war_with = FRA
					}
					}
				}
				add_resource = {
				type = oil
				amount = 4
				state = 332
				}
			}
			if = {
				limit = {
					CNG = {
					controls_state = 315
					not = {
						has_war_with = FRA
					}
					}
				}
				add_resource = {
				type = oil
				amount = 4
				state = 315
				}
			}
			if = {
				limit = {
					GAB = {
					controls_state = 317
					not = {
						has_war_with = FRA
					}
					}
				}
				add_resource = {
				type = oil
				amount = 4
				state = 317
				}
			}
		}
	}
	focus = {
		id = FRA_Total_Afrique_Occidentale
		icon = GFX_goal_unknown
		cost = 10
		prerequisite = {
			focus = FRA_Total_Afrique_Equatoriale
		}
		relative_position_id = FRA_Total_Afrique_Equatoriale
		x = 0
		y = 1
		available = {
			OR = { 
				MAU = {
				controls_state = 371
				}
				CDI = {
				controls_state = 352
				}
			}
		}
		completion_reward = {
			if = {
				limit = {
					MAU = {
					controls_state = 371
					not = {
						has_war_with = FRA
					}
					}
				}			
				add_resource = {
				type = oil
				amount = 6
				state = 371
				}
			}
			if = {
				limit = {
					CDI = {
					controls_state = 352
					not = {
						has_war_with = FRA
					}
					}
				}
				add_resource = {
				type = oil
				amount = 6
				state = 352
				}
			}
		}
	}
	focus = {
		id = FRA_Total_Afrique_Nord
		icon = GFX_goal_unknown
		cost = 10
		prerequisite = {
			focus = FRA_Total_Afrique_Occidentale
		}
		relative_position_id = FRA_Total_Afrique_Occidentale
		x = 0
		y = 1
		available = {
			OR = { 
				LBA = {
				controls_state = 397
				}
				ALG = {
				controls_state = 381
				}
				SUD = {
				controls_state = 225
				}
			}
		}
		completion_reward = {
			if = {
				limit = {
					LBA = {
					controls_state = 397
					not = {
						has_war_with = FRA
					}
					}
				}
			add_resource = {
				type = oil
				amount = 4
				state = 397
				}
			}
			if = {
				limit = {
					ALG = {
					controls_state = 381
					not = {
						has_war_with = FRA
					}
					}
				}
				add_resource = {
				type = oil
				amount = 4
				state = 381
				}
			}
			if = {
				limit = {
					SUD = {
					controls_state = 225
					not = {
						has_war_with = FRA
					}
					}
				}
				add_resource = {
				type = oil
				amount = 4
				state = 225
				}
			}
		}
	}
	focus = {
		id = FRA_Total_Afrique_Sud
		icon = GFX_goal_unknown
		cost = 10
		prerequisite = {
			focus = FRA_Total_Afrique_Nord
		}
		relative_position_id = FRA_Total_Afrique_Nord
		x = 0
		y = 1
		available = {
			OR = { 
				AGL = {
				controls_state = 298
				}
				KEN = {
				controls_state = 241
				}
				SAF = {
				controls_state = 281
				}
			}
		}
		completion_reward = {
			if = {
				limit = {
					AGL = {
					controls_state = 298
					not = {
						has_war_with = FRA
					}
					}
				}
			add_resource = {
				type = oil
				amount = 4
				state = 298
				}
			}
			if = {
				limit = {
					KEN = {
					controls_state = 241
					not = {
						has_war_with = FRA
					}
					}
				}
				add_resource = {
				type = oil
				amount = 4
				state = 241
				}
			}
			if = {
				limit = {
					SAF = {
					controls_state = 281
					not = {
						has_war_with = FRA
					}
					}
				}
				add_resource = {
				type = oil
				amount = 4
				state = 281
				}
			}
		}
	}
	focus = {
		id = FRA_Total_Guyane
		icon = GFX_goal_unknown
		cost = 10
		prerequisite = {
			focus = FRA_Total_Afrique_Sud
		}
		relative_position_id = FRA_Total_Afrique_Sud
		x = 0
		y = 1
		available = {
			FRA = {
			controls_state = 67
			}
		}
		completion_reward = {
			add_resource = {
			type = oil
			amount = 12
			state = 67
			}
		}
	}
	focus = {
		id = FRA_EDF
		icon = EDF 
		cost = 10
		prerequisite = {
			focus = FRA_Energetic_Independancy
		}
		relative_position_id = FRA_Energetic_Independancy
		x = 2
		y = 1
		completion_reward = {
			research_bonus = { synthetic_refinery = 0.40 }
		}

	}
	focus = {
		id = FRA_GDF_Suez
		icon = GDF_Suez
		cost = 10
		prerequisite = {
			focus = FRA_EDF
		}
		relative_position_id = FRA_EDF
		x = 0
		y = 1

	}
	focus = {
		id = FRA_Services_Essences_Armees
		icon = Services_des_Essences_des_Armees
		cost = 10
		prerequisite = {
			focus = FRA_GDF_Suez
		}
		relative_position_id = FRA_GDF_Suez
		x = 0
		y = 1

	}
	focus = {
		id = FRA_Fuel_Rationalisation
		icon = GFX_goal_unknown
		cost = 10
		prerequisite = {
			focus = FRA_Services_Essences_Armees
		}
		relative_position_id = FRA_Services_Essences_Armees
		x = 0
		y = 1

	}
	focus = {
		id = FRA_CEPIA
		icon = research
		cost = 10
		prerequisite = {
			focus = FRA_Fuel_Rationalisation
		}
		relative_position_id = FRA_Fuel_Rationalisation
		x = 0
		y = 1
			completion_reward = {
				add_research_slot = 1
			}
	}
##		END RESSOURCES SUB-PATH		##

##		ECONOMY SUB-PATH		##
	focus = {
		id = FRA_Subsidize_PSA
		icon = peugeot
		cost = 10
		prerequisite = {
			focus = FRA_French_Fleurons
		}
		relative_position_id = FRA_French_Fleurons
		x = 7
		y = 1

	}
	focus = {
		id = FRA_La_Defence
		icon = industry_civilian
		cost = 10
		prerequisite = {
			focus = FRA_Subsidize_PSA
		}
		relative_position_id = FRA_Subsidize_PSA
		x = -1
		y = 1

	}
	focus = {
		id = FRA_LaFarge
		icon = construction
		cost = 10
		prerequisite = {
			focus = FRA_Subsidize_PSA
		}
		relative_position_id = FRA_Subsidize_PSA
		x = 1
		y = 1

	}
	focus = {
		id = FRA_URSSAF
		icon = euro
		cost = 10
		prerequisite = {
			focus = FRA_La_Defence
		}
		prerequisite = {
			focus = FRA_LaFarge
		}
		relative_position_id = FRA_La_Defence
		x = 1
		y = 1

	}
	focus = {
		id = FRA_Formal_Lean_Manufacturing
		icon = bob_semple
		cost = 10
		prerequisite = {
			focus = FRA_URSSAF
		}
		relative_position_id = FRA_URSSAF
		x = 0
		y = 1

	}
	focus = {
		id = FRA_Le_LAB
		icon = research
		cost = 10
		prerequisite = {
			focus = FRA_Formal_Lean_Manufacturing
		}
		relative_position_id = FRA_Formal_Lean_Manufacturing
		x = 0
		y = 1
			completion_reward = {
				add_research_slot = 1
			}
	}
##		END ECONOMY SUB-PATH		##

##		DOM-TOM SUB-PATH		##
	focus = {
		id = FRA_Transcontinental_Country
		icon = GFX_goal_unknown
		cost = 10
		prerequisite = {
			focus = FRA_Absolute_Centralization
		}
		relative_position_id = FRA_Absolute_Centralization
		x = 7
		y = 1

	}
	focus = {
		id = FRA_TOM
		icon = GFX_goal_unknown
		cost = 10
		prerequisite = {
			focus = FRA_Transcontinental_Country
		}
		relative_position_id = FRA_Transcontinental_Country
		x = -2
		y = 1

	}
	focus = {
		id = FRA_TAAF
		icon = TAAF
		cost = 10
		prerequisite = {
			focus = FRA_TOM
		}
		relative_position_id = FRA_TOM
		x = -2
		y = 2

	}
	focus = {
		id = FRA_Polynesian_Outpost
		icon = GFX_goal_unknown
		cost = 10
		prerequisite = {
			focus = FRA_TOM
		}
		relative_position_id = FRA_TOM
		x = 0
		y = 1

	}
	focus = {
		id = FRA_French_Polynesia
		icon = GFX_goal_unknown
		cost = 10
		prerequisite = {
			focus = FRA_Polynesian_Outpost
		}
		relative_position_id = FRA_Polynesian_Outpost
		x = 0
		y = 1

	}
	focus = {
		id = FRA_Kanaks
		icon = GFX_goal_unknown
		cost = 10
		prerequisite = {
			focus = FRA_TOM
		}
		relative_position_id = FRA_TOM
		x = 2
		y = 1

	}
	focus = {
		id = FRA_Vale_New_Caledonia
		icon = GFX_goal_unknown
		cost = 10
		prerequisite = {
			focus = FRA_Kanaks
		}
		relative_position_id = FRA_Kanaks
		x = 0
		y = 1

	}
	focus = {
		id = FRA_Reorganize_Overseas_territories
		icon = GFX_goal_unknown
		cost = 10
		prerequisite = {
			focus = FRA_French_Polynesia
		}
		prerequisite = {
			focus = FRA_TAAF
		}
		prerequisite = {
			focus = FRA_Vale_New_Caledonia
		}
		relative_position_id = FRA_French_Polynesia
		x = 0
		y = 1

	}
		focus = {
		id = FRA_Kerguelen_militarization
		icon = GFX_goal_unknown
		cost = 10
		prerequisite = {
			focus = FRA_TAAF
		}
		relative_position_id = FRA_TAAF
		x = 0
		y = 1

	}
	focus = {
		id = FRA_Kerguelen_Nuke
		icon = GFX_goal_unknown
		cost = 10
		prerequisite = {
			focus = FRA_Kerguelen_militarization
		}
		relative_position_id = FRA_Kerguelen_militarization
		x = 0
		y = 1

	}
	focus = {
		id = FRA_DOM
		icon = GFX_goal_unknown
		cost = 10
		prerequisite = {
			focus = FRA_Transcontinental_Country
		}
		relative_position_id = FRA_Transcontinental_Country
		x = 3
		y = 1

	}
	focus = {
		id = FRA_Referendum_Departementalization
		icon = GFX_goal_unknown
		cost = 10
		prerequisite = {
			focus = FRA_DOM
		}
		relative_position_id = FRA_DOM
		x = -1
		y = 1

	}
	focus = {
		id = FRA_Overseas_Airports
		icon = escort_fighters
		cost = 10
		prerequisite = {
			focus = FRA_Referendum_Departementalization
		}
		relative_position_id = FRA_Referendum_Departementalization
		x = 0
		y = 1

	}
	focus = {
		id = FRA_Overseas_Bases
		icon = coastal_fort
		cost = 10
		prerequisite = {
			focus = FRA_DOM
		}
		relative_position_id = FRA_DOM
		x = 1
		y = 1

	}
	focus = {
		id = FRA_Overseas_Shipyard
		icon = naval_dockyard
		cost = 10
		prerequisite = {
			focus = FRA_Overseas_Bases
		}
		relative_position_id = FRA_Overseas_Bases
		x = 0
		y = 1

	}
	focus = {
		id = FRA_Universite_Outremer
		icon = research
		cost = 10
		prerequisite = {
			focus = FRA_Overseas_Shipyard
		}
		prerequisite = {
			focus = FRA_Overseas_Airports
		}
		relative_position_id = FRA_Overseas_Airports
		x = 1
		y = 1

	}	
##		END DOM-TOM SUB-PATH		##

##########################################	
##			END INDUSTRIAL PATH			##
##########################################




#########################################################################




######################################	
##			DIPLOMACY PATH			##
######################################
	focus = {
		id = FRA_French_Diplomacy
		icon = align_to_france
		cost = 10
		x = 33
		y = 0

	}

##		INTERNATIONAL SUB-PATH		##
	focus = {
		id = FRA_International_Network
		icon = national_unity
		cost = 10
		prerequisite = {
			focus = FRA_French_Diplomacy
		}
		relative_position_id = FRA_French_Diplomacy
		x = -3
		y = 1

	}
	focus = {
		id = FRA_Occident
		icon = war_in_europe
		cost = 10
		prerequisite = {
			focus = FRA_International_Network
		}
		relative_position_id = FRA_International_Network
		x = -1
		y = 1

	}
	focus = {
		id = FRA_Orient
		icon = war_in_asia
		cost = 10
		prerequisite = {
			focus = FRA_International_Network
		}
		relative_position_id = FRA_International_Network
		x = 1
		y = 1

	}
	focus = {
		id = FRA_Bipolarism
		icon = GFX_goal_unknown
		cost = 10
		prerequisite = {
			focus = FRA_Orient
		}
		prerequisite = {
			focus = FRA_Occident
		}
		relative_position_id = FRA_Occident
		x = 1
		y = 1

	}
	focus = {
		id = FRA_COP21
		icon = GFX_goal_unknown
		cost = 10
		prerequisite = {
			focus = FRA_Bipolarism
		}
		relative_position_id = FRA_Bipolarism
		x = -1
		y = 1

	}
	focus = {
		id = FRA_Peace_Conference
		icon = global_community
		cost = 10
		prerequisite = {
			focus = FRA_Bipolarism
		}
		relative_position_id = FRA_Bipolarism
		x = 1
		y = 1

	}
##		END INTERNATIONAL SUB-PATH		##

##		FRANCAFRIQUE SUB-PATH		##
	focus = {
		id = FRA_Francafrique
		icon = african_conflict
		cost = 10
		prerequisite = {
			focus = FRA_French_Diplomacy
		}
		relative_position_id = FRA_French_Diplomacy
		x = 3
		y = 1

	}
	focus = {
		id = FRA_Afrique_Occidentale_Francaise
		icon = GFX_goal_unknown
		cost = 10
		prerequisite = {
			focus = FRA_Francafrique
		}
		relative_position_id = FRA_Francafrique
		x = -3
		y = 1

	}
	focus = {
		id = FRA_Mission_Corymbe
		icon = position_armies
		cost = 10
		prerequisite = {
			focus = FRA_Afrique_Occidentale_Francaise
		}
		relative_position_id = FRA_Afrique_Occidentale_Francaise
		x = 0
		y = 1

	}
	focus = {
		id = FRA_Operation_Licorne
		icon = war2
		cost = 10
		prerequisite = {
			focus = FRA_Mission_Corymbe
		}
		relative_position_id = FRA_Mission_Corymbe
		x = 0
		y = 1

	}
	focus = {
		id = FRA_Afrique_Equatoriale_Francaise
		icon = GFX_goal_unknown
		cost = 10
		prerequisite = {
			focus = FRA_Francafrique
		}
		relative_position_id = FRA_Francafrique
		x = -1
		y = 1

	}
	focus = {
		id = FRA_FTA
		icon = GFX_goal_unknown
		cost = 10
		prerequisite = {
			focus = FRA_Afrique_Equatoriale_Francaise
		}
		relative_position_id = FRA_Afrique_Equatoriale_Francaise
		x = 0
		y = 1

	}
	focus = {
		id = FRA_Operation_Boali
		icon = war2
		cost = 10
		prerequisite = {
			focus = FRA_FTA
		}
		relative_position_id = FRA_FTA
		x = 0
		y = 1

	}
	focus = {
		id = FRA_Operation_Barkhane
		icon = war2_green
		cost = 10
		prerequisite = {
			focus = FRA_Operation_Boali
		}
		prerequisite = {
			focus = FRA_Operation_Licorne
		}
		relative_position_id = FRA_Operation_Licorne
		x = 1
		y = 1

	}
	focus = {
		id = FRA_Franc_CFA
		icon = money
		cost = 10
		prerequisite = {
			focus = FRA_Operation_Barkhane
		}
		relative_position_id = FRA_Operation_Barkhane
		x = 0
		y = 1

	}
	focus = {
		id = FRA_Indian_Ocean
		icon = GFX_goal_unknown
		cost = 10
		prerequisite = {
			focus = FRA_Francafrique
		}
		relative_position_id = FRA_Francafrique
		x = 1
		y = 1

	}
	focus = {
		id = FRA_Operation_Atalante
		icon = position_armies
		cost = 10
		prerequisite = {
			focus = FRA_Indian_Ocean
		}
		relative_position_id = FRA_Indian_Ocean
		x = 0
		y = 1

	}
	focus = {
		id = FRA_Operation_Namib
		icon = war2
		cost = 10
		prerequisite = {
			focus = FRA_Operation_Atalante
		}
		relative_position_id = FRA_Operation_Atalante
		x = 0
		y = 1

	}
	focus = {
		id = FRA_North_Africa
		icon = GFX_goal_unknown
		cost = 10
		prerequisite = {
			focus = FRA_Francafrique
		}
		relative_position_id = FRA_Francafrique
		x = 3
		y = 1

	}
	focus = {
		id = FRA_Levant
		icon = GFX_goal_unknown
		cost = 10
		prerequisite = {
			focus = FRA_North_Africa
		}
		relative_position_id = FRA_North_Africa
		x = 0
		y = 1

	}
	focus = {
		id = FRA_Operation_Harmattan
		icon = war2
		cost = 10
		prerequisite = {
			focus = FRA_Levant
		}
		relative_position_id = FRA_Levant
		x = 0 
		y = 1

	}
	focus = {
		id = FRA_Operation_Liberte
		icon = war2_green
		cost = 10
		prerequisite = {
			focus = FRA_Operation_Harmattan
		}
		prerequisite = {
			focus = FRA_Operation_Namib
		}
		relative_position_id = FRA_Operation_Namib
		x = 1
		y = 1

	}
	focus = {
		id = FRA_Indochina
		icon = GFX_goal_unknown
		cost = 10
		prerequisite = {
			focus = FRA_Operation_Liberte
		}
		relative_position_id = FRA_Operation_Liberte
		x = 0
		y = 1

	}
##		END FRANCAFRIQUE SUB-PATH		##

##########################################	
##			END DIPLOMACY PATH			##
##########################################




#########################################################################




##################################################
##			ALTERNATIVE POLITIC PATH			##
##################################################

	focus = {
		id = FRA_Populous_Agenda
		icon = GFX_goal_unknown
		cost = 10
		x = 22
		y = 9

	}
##		COMMUNISM SUB-PATH		##
	focus = {
		id = FRA_Communism_Rise_Again
		icon = communism2
		cost = 10
		prerequisite = {
			focus = FRA_Populous_Agenda
		}
		relative_position_id = FRA_Populous_Agenda
		x = -10
		y = 1

	}
	focus = {
		id = FRA_Reject_Nationalism
		icon = GFX_goal_unknown
		cost = 10
		prerequisite = {
			focus = FRA_Communism_Rise_Again
		}
		relative_position_id = FRA_Communism_Rise_Again
		x = 0
		y = 1

	}
	focus = {
		id = FRA_Class_Equality
		icon = communist_purge
		cost = 10
		prerequisite = {
			focus = FRA_Reject_Nationalism
		}
		relative_position_id = FRA_Reject_Nationalism
		x = -1
		y = 1

	}
	focus = {
		id = FRA_Red_Guards
		icon = communist_army
		cost = 10
		prerequisite = {
			focus = FRA_Class_Equality
		}
		relative_position_id = FRA_Class_Equality
		x = 0
		y = 1

	}
	focus = {
		id = FRA_Ministry_Popular_Will
		icon = communism3
		cost = 10
		prerequisite = {
			focus = FRA_Reject_Nationalism
		}
		relative_position_id = FRA_Reject_Nationalism
		x = 1
		y = 1

	}
	focus = {
		id = FRA_Rise_Reds
		icon = communist_repression
		cost = 10
		prerequisite = {
			focus = FRA_Ministry_Popular_Will
		}
		relative_position_id = FRA_Ministry_Popular_Will
		x = 0
		y = 1

	}
	focus = {
		id = FRA_Republique_Populaire
		icon = communism
		cost = 10
		prerequisite = {
			focus = FRA_Rise_Reds
		}
		prerequisite = {
			focus = FRA_Red_Guards
		}
		relative_position_id = FRA_Red_Guards
		x = 1
		y = 1

	}
	focus = {
		id = FRA_Anarchism
		icon = GFX_goal_unknown
		cost = 10
		prerequisite = {
			focus = FRA_Republique_Populaire
		}
		mutually_exclusive = {
			focus = FRA_Internationale
			focus = FRA_Adapted_Communism
		}
		relative_position_id = FRA_Republique_Populaire
		x = -3
		y = 1

	}
	focus = {
		id = FRA_Autarcism
		icon = marxism
		cost = 10
		prerequisite = {
			focus = FRA_Anarchism
		}
		relative_position_id = FRA_Anarchism
		x = 0
		y = 1

	}
	focus = {
		id = FRA_Moyens_Ambition
		icon = french_communism
		cost = 10
		prerequisite = {
			focus = FRA_Autarcism
		}
		relative_position_id = FRA_Autarcism
		x = 0
		y = 1

	}
	focus = {
		id = FRA_Internationale
		icon = fourth_international
		cost = 10
		prerequisite = {
			focus = FRA_Republique_Populaire
		}
		mutually_exclusive = {
			focus = FRA_Anarchism
			focus = FRA_Adapted_Communism
		}
		relative_position_id = FRA_Republique_Populaire
		x = 0
		y = 1

	}
	focus = {
		id = FRA_Deal_USSR
		icon = align_to_soviet_union
		cost = 10
		prerequisite = {
			focus = FRA_Internationale
		}
		relative_position_id = FRA_Internationale
		x = 1
		y = 1

	}
	focus = {
		id = FRA_Revolution_Research
		icon = socialist_science
		cost = 10
		prerequisite = {
			focus = FRA_Deal_USSR
		}
		relative_position_id = FRA_Deal_USSR
		x = 0
		y = 1

	}
	focus = {
		id = FRA_Export_Communism
		icon = great_red_menace
		cost = 10
		prerequisite = {
			focus = FRA_Internationale
		}
		relative_position_id = FRA_Internationale
		x = -1
		y = 1

	}
	focus = {
		id = FRA_World_Revolution
		icon = flames_of_rebellion
		cost = 10
		prerequisite = {
			focus = FRA_Export_Communism
		}
		relative_position_id = FRA_Export_Communism
		x = 0
		y = 1

	}
	focus = {
		id = FRA_Adapted_Communism
		icon = maoism
		cost = 10
		prerequisite = {
			focus = FRA_Republique_Populaire
		}
		mutually_exclusive = {
			focus = FRA_Internationale
			focus = FRA_Anarchism
		}
		relative_position_id = FRA_Republique_Populaire
		x = 3
		y = 1

	}
	focus = {
		id = FRA_Share_Chinese_Vision
		icon = one_china_policy
		cost = 10
		prerequisite = {
			focus = FRA_Adapted_Communism
		}
		relative_position_id = FRA_Adapted_Communism
		x = 0
		y = 1

	}
	focus = {
		id = FRA_Franco_Chinese_World
		icon = align_to_china
		cost = 10
		prerequisite = {
			focus = FRA_Share_Chinese_Vision
		}
		relative_position_id = FRA_Share_Chinese_Vision
		x = 0
		y = 1

	}
##		END COMMUNISM SUB-PATH		##



##		LEFT-WING SUB-PATH		##
	focus = {
		id = FRA_Left_Wing
		icon = GFX_goal_unknown
		cost = 10
		prerequisite = {
			focus = FRA_Populous_Agenda
		}
		relative_position_id = FRA_Populous_Agenda
		x = -4
		y = 1

	}
	focus = {
		id = FRA_Reject_Fascism
		icon = anti_fascism
		cost = 10
		prerequisite = {
			focus = FRA_Left_Wing
			focus = FRA_Communism_Rise_Again
		}
		relative_position_id = FRA_Left_Wing
		x = 0
		y = 1

	}
	focus = {
		id = FRA_Redistribution_Wealth
		icon = GFX_goal_unknown
		cost = 10
		prerequisite = {
			focus = FRA_Reject_Fascism
		}
		relative_position_id = FRA_Reject_Fascism
		x = 0
		y = 1

	}
	focus = {
		id = FRA_Taxation_Reforms
		icon = consumer_goods
		cost = 10
		prerequisite = {
			focus = FRA_Redistribution_Wealth
		}
		relative_position_id = FRA_Redistribution_Wealth
		x = 0
		y = 1

	}
	focus = {
		id = FRA_French_Economy_Area
		icon = GFX_goal_unknown
		cost = 10
		prerequisite = {
			focus = FRA_Taxation_Reforms
		}
		relative_position_id = FRA_Taxation_Reforms
		x = 0
		y = 1

	}
	focus = {
		id = FRA_Socialism_Awakening
		icon = GFX_goal_unknown
		cost = 10
		prerequisite = {
			focus = FRA_French_Economy_Area
		}
		relative_position_id = FRA_French_Economy_Area
		x = 0
		y = 1

	}
	focus = {
		id = FRA_Communism_Reality_Debate
		icon = GFX_goal_unknown
		cost = 10
		prerequisite = {
			focus = FRA_Socialism_Awakening
		}
		relative_position_id = FRA_Socialism_Awakening
		x = 0
		y = 1

	}
	focus = {
		id = FRA_Will_People
		icon = GFX_goal_unknown
		cost = 10
		prerequisite = {
			focus = FRA_Communism_Reality_Debate
		}
		mutually_exclusive = {
			focus = FRA_Defender_People
		}
		relative_position_id = FRA_Communism_Reality_Debate
		x = -1
		y = 1

	}
	focus = {
		id = FRA_Defender_People
		icon = GFX_goal_unknown
		cost = 10
		prerequisite = {
			focus = FRA_Communism_Reality_Debate
		}
		mutually_exclusive = {
			focus = FRA_Will_People
		}
		relative_position_id = FRA_Communism_Reality_Debate
		x = 1
		y = 1

	}
##		END LEFT-WING SUB-PATH		##



##		AUTOCRAT - MILITARY JUNTA SUB-PATH		##
	focus = {
		id = FRA_One_Man_Dream
		icon = GFX_goal_unknown
		cost = 10
		prerequisite = {
			focus = FRA_Populous_Agenda
		}
		relative_position_id = FRA_Populous_Agenda
		x = -1
		y = 1

	}
	focus = {
		id = FRA_Kindly_Neutrality
		icon = GFX_goal_unknown
		cost = 10
		prerequisite = {
			focus = FRA_One_Man_Dream
		}
		relative_position_id = FRA_One_Man_Dream
		x = 0
		y = 1

	}
	focus = {
		id = FRA_Ai_Compris
		icon = GFX_goal_unknown
		cost = 10
		prerequisite = {
			focus = FRA_Kindly_Neutrality
		}
		relative_position_id = FRA_Kindly_Neutrality
		x = 0
		y = 1

	}

	focus = {
		id = FRA_Dictature_Militaire
		icon = GFX_goal_unknown
		cost = 10
		prerequisite = {
			focus = FRA_Populous_Agenda
		}
		relative_position_id = FRA_Populous_Agenda
		x = 1
		y = 1

	}
	focus = {
		id = FRA_Enforce_Martial_Law
		icon = GFX_goal_unknown
		cost = 10
		prerequisite = {
			focus = FRA_Dictature_Militaire
		}
		relative_position_id = FRA_Dictature_Militaire
		x = 0
		y = 1

	}
	focus = {
		id = FRA_Increase_Army_Budget
		icon = GFX_goal_unknown
		cost = 10
		prerequisite = {
			focus = FRA_Enforce_Martial_Law
		}
		relative_position_id = FRA_Enforce_Martial_Law
		x = 0
		y = 1

	}
	focus = {
		id = FRA_DeGaulle_Inheritance
		icon = GFX_goal_unknown
		cost = 10
		prerequisite = {
			focus = FRA_Increase_Army_Budget
			focus = FRA_Ai_Compris
		}
		relative_position_id = FRA_Ai_Compris
		x = 1
		y = 1

	}
	focus = {
		id = FRA_Alliance_Francophones
		icon = GFX_goal_unknown
		cost = 10
		prerequisite = {
			focus = FRA_DeGaulle_Inheritance
		}
		relative_position_id = FRA_DeGaulle_Inheritance
		x = 0
		y = 1

	}
	focus = {
		id = FRA_Agence_Universitaire_Francophonie
		icon = GFX_goal_unknown
		cost = 10
		prerequisite = {
			focus = FRA_Alliance_Francophones
		}
		relative_position_id = FRA_Alliance_Francophones
		x = 0
		y = 1

	}
##		END AUTOCRAT - MILITARY JUNTA SUB-PATH		##



##		RIGHT-WING SUB-PATH		##
	focus = {
		id = FRA_Right_Wing
		icon = GFX_goal_unknown
		cost = 10
		prerequisite = {
			focus = FRA_Populous_Agenda
		}
		relative_position_id = FRA_Populous_Agenda
		x = 4
		y = 1

	}
	focus = {
		id = FRA_Reject_Communism
		icon = anti_communism
		cost = 10
		prerequisite = {
			focus = FRA_Right_Wing
			focus = FRA_One_Country_French
		}
		relative_position_id = FRA_Right_Wing
		x = 0
		y = 1

	}
	focus = {
		id = FRA_Back_Septenat
		icon = anti_democracy3
		cost = 10
		prerequisite = {
			focus = FRA_Reject_Communism
		}
		relative_position_id = FRA_Reject_Communism
		x = 0
		y = 1

	}
	focus = {
		id = FRA_National_Fellowship
		icon = recruitment
		cost = 10
		prerequisite = {
			focus = FRA_Back_Septenat
		}
		relative_position_id = FRA_Back_Septenat
		x = 0
		y = 1

	}
	focus = {
		id = FRA_Nationalist_Militias
		icon = war4
		cost = 10
		prerequisite = {
			focus = FRA_National_Fellowship
		}
		relative_position_id = FRA_National_Fellowship
		x = 0
		y = 1

	}
	focus = {
		id = FRA_Seek_Indian_Friendship
		icon = hindu_government
		cost = 10
		prerequisite = {
			focus = FRA_Nationalist_Militias
		}
		relative_position_id = FRA_Nationalist_Militias
		x = 0
		y = 1

	}
	focus = {
		id = FRA_Modernize_Indian_Army
		icon = indian_army
		cost = 10
		prerequisite = {
			focus = FRA_Seek_Indian_Friendship
		}
		relative_position_id = FRA_Seek_Indian_Friendship
		x = 0
		y = 1

	}
	focus = {
		id = FRA_Contain_Communism_China
		icon = attack_china
		cost = 10
		prerequisite = {
			focus = FRA_Modernize_Indian_Army
		}
		relative_position_id = FRA_Modernize_Indian_Army
		x = 0
		y = 1

	}
##		END RIGHT-WING SUB-PATH		##



##		FASCISM - MONARCHIST SUB-PATH		##
	focus = {
		id = FRA_One_Country_French
		icon = GFX_goal_unknown
		cost = 10
		prerequisite = {
			focus = FRA_Populous_Agenda
		}
		relative_position_id = FRA_Populous_Agenda
		x = 11
		y = 1

	}

	focus = {
		id = FRA_Reject_Capitalism
		icon = anti_democracy2
		cost = 10
		prerequisite = {
			focus = FRA_One_Country_French
		}
		relative_position_id = FRA_One_Country_French
		x = 0
		y = 1

	}
	focus = {
		id = FRA_France_Great_Again
		icon = GFX_goal_unknown
		cost = 10
		prerequisite = {
			focus = FRA_Reject_Capitalism
		}
		relative_position_id = FRA_Reject_Capitalism
		x = -4
		y = 1

	}
	focus = {
		id = FRA_Border_Protection
		icon = GFX_goal_unknown
		cost = 10
		prerequisite = {
			focus = FRA_France_Great_Again
		}
		relative_position_id = FRA_France_Great_Again
		x = 0
		y = 1

	}

	focus = {
		id = FRA_Bonapartist_Rising
		icon = french_monarchy2
		cost = 10
		prerequisite = {
			focus = FRA_Reject_Capitalism
		}
		mutually_exclusive = {
			focus = FRA_Monarchist_Restauration
			focus = FRA_One_Strong_Leader
		}
		relative_position_id = FRA_Reject_Capitalism
		x = 0
		y = 1

	}
	focus = {
		id = FRA_French_Glory
		icon = GFX_goal_unknown
		cost = 10
		prerequisite = {
			focus = FRA_Bonapartist_Rising
		}
		relative_position_id = FRA_Bonapartist_Rising
		x = 0
		y = 1

	}

	focus = {
		id = FRA_One_Strong_Leader
		icon = fascism
		cost = 10
		prerequisite = {
			focus = FRA_Reject_Capitalism
		}
		mutually_exclusive = {
			focus = FRA_Bonapartist_Rising
			focus = FRA_Monarchist_Restauration
		}
		relative_position_id = FRA_Reject_Capitalism
		x = 2
		y = 1

	}
	focus = {
		id = FRA_Racial_Society
		icon = fascism2
		cost = 10
		prerequisite = {
			focus = FRA_One_Strong_Leader
		}
		relative_position_id = FRA_One_Strong_Leader
		x = 0
		y = 1

	}

	focus = {
		id = FRA_True_Place
		icon = GFX_goal_unknown
		cost = 10
		prerequisite = {
			focus = FRA_Reject_Capitalism
		}
		relative_position_id = FRA_Reject_Capitalism
		x = 4
		y = 1

	}
	focus = {
		id = FRA_French_Alliance
		icon = GFX_goal_unknown
		cost = 10
		prerequisite = {
			focus = FRA_True_Place
		}
		relative_position_id = FRA_True_Place
		x = 0
		y = 1

	}
	focus = {
		id = FRA_Monarchist_Restauration
		icon = french_monarchy
		cost = 10
		prerequisite = {
			focus = FRA_Reject_Capitalism
		}
		mutually_exclusive = {
			focus = FRA_Bonapartist_Rising
			focus = FRA_One_Strong_Leader
		}
		relative_position_id = FRA_Reject_Capitalism
		x = -2
		y = 1

	}
	focus = {
		id = FRA_Sacre_Reims
		icon = catholicism
		cost = 10
		prerequisite = {
			focus = FRA_Monarchist_Restauration
		}
		relative_position_id = FRA_Monarchist_Restauration
		x = 0
		y = 1

	}
	focus = {
		id = FRA_Return_French_Empire
		icon = GFX_goal_unknown
		cost = 10
		prerequisite = {
			focus = FRA_Border_Protection
			focus = FRA_Sacre_Reims
			focus = FRA_French_Glory
			focus = FRA_Racial_Society
		}
		prerequisite = {
			focus = FRA_French_Alliance
		}
		prerequisite = {
			focus = FRA_Border_Protection
		}
		relative_position_id = FRA_French_Glory
		x = 0
		y = 1

	}
	focus = {
		id = FRA_Grand_Rattachement
		icon = GFX_goal_unknown
		cost = 10
		prerequisite = {
			focus = FRA_Return_French_Empire
		}
		mutually_exclusive = {
			focus = FRA_Bring_Back_Colonies
		}
		relative_position_id = FRA_Return_French_Empire
		x = -2
		y = 1

	}
	focus = {
		id = FRA_Natural_Border
		icon = GFX_goal_unknown
		cost = 10
		prerequisite = {
			focus = FRA_Grand_Rattachement
		}
		mutually_exclusive = {
			focus = FRA_Where_Everything_Stop
		}
		relative_position_id = FRA_Grand_Rattachement
		x = 1
		y = 1

	}
	focus = {
		id = FRA_French_Europe
		icon = GFX_goal_unknown
		cost = 10
		prerequisite = {
			focus = FRA_Natural_Border
		}
		relative_position_id = FRA_Natural_Border
		x = 0
		y = 1

	}
	focus = {
		id = FRA_Where_Everything_Stop
		icon = GFX_goal_unknown
		cost = 10
		prerequisite = {
			focus = FRA_Grand_Rattachement
		}
		mutually_exclusive = {
			focus = FRA_Natural_Border
		}
		relative_position_id = FRA_Grand_Rattachement
		x = -1
		y = 1

	}
	focus = {
		id = FRA_Unity_Nation
		icon = GFX_goal_unknown
		cost = 10
		prerequisite = {
			focus = FRA_Where_Everything_Stop
		}
		relative_position_id = FRA_Where_Everything_Stop
		x = 0
		y = 1

	}
	focus = {
		id = FRA_Bring_Back_Colonies
		icon = GFX_goal_unknown
		cost = 10
		prerequisite = {
			focus = FRA_Return_French_Empire
		}
		mutually_exclusive = {
			focus = FRA_Grand_Rattachement
		}
		relative_position_id = FRA_Return_French_Empire
		x = 2
		y = 1

	}
	focus = {
		id = FRA_Revive_Empire_Glory
		icon = GFX_goal_unknown
		cost = 10
		prerequisite = {
			focus = FRA_Bring_Back_Colonies
		}
		relative_position_id = FRA_Bring_Back_Colonies
		x = 0
		y = 1

	}
	focus = {
		id = FRA_Quebeckers
		icon = GFX_goal_unknown
		cost = 10
		prerequisite = {
			focus = FRA_Revive_Empire_Glory
		}
		relative_position_id = FRA_Revive_Empire_Glory
		x = 0
		y = 1

	}
##		END FASCISM - MONARCHIST SUB-PATH		##

######################################################
##			END ALTERNATIVE POLITIC PATH			##
######################################################



##################################################################################



##############################################
##			PRO-WES POLITIC PATH			##
##############################################
	focus = {
		id = FRA_French_Democracy
		icon = french_democracy
		cost = 10
		x = 51
		y = 0

	}

##		SELF-DETERMINATION SUB-PATH		##
	focus = {
		id = FRA_Self_Determination
		icon = french_republic
		cost = 10
		prerequisite = {
			focus = FRA_French_Democracy
		}
		mutually_exclusive = {
			focus = FRA_European_Dream
		}
		relative_position_id = FRA_French_Democracy
		x = -7
		y = 1

	}
	focus = {
		id = FRA_Question_NATO_Membership
		icon = nato3
		cost = 10
		prerequisite = {
			focus = FRA_Self_Determination
		}
		relative_position_id = FRA_Self_Determination
		x = -2
		y = 1

	}
	focus = {
		id = FRA_French_sovereignty
		icon = giant_wakes
		cost = 10
		prerequisite = {
			focus = FRA_Question_NATO_Membership
		}
		relative_position_id = FRA_Question_NATO_Membership
		x = 0
		y = 1

	}
	focus = {
		id = FRA_Euroscepticism
		icon = GFX_euroscepticism
		cost = 10
		prerequisite = {
			focus = FRA_Self_Determination
		}
		relative_position_id = FRA_Self_Determination
		x = 0
		y = 1

	}
	focus = {
		id = FRA_Disunited_States_Europe
		icon = GFX_goal_unknown
		cost = 10
		prerequisite = {
			focus = FRA_Euroscepticism
		}
		relative_position_id = FRA_Euroscepticism
		x = 0
		y = 1

	}
	focus = {
		id = FRA_Border_Control
		icon = war4
		cost = 10
		prerequisite = {
			focus = FRA_Self_Determination
		}
		relative_position_id = FRA_Self_Determination
		x = 2
		y = 1

	}
	focus = {
		id = FRA_Protectionnism
		icon = franco_british_conflict
		cost = 10
		prerequisite = {
			focus = FRA_Border_Control
		}
		relative_position_id = FRA_Border_Control
		x = 0
		y = 1

	}
	focus = {
		id = FRA_French_True_Friends
		icon = GFX_goal_unknown
		cost = 10
		prerequisite = {
			focus = FRA_Protectionnism
		}
		prerequisite = {
			focus = FRA_French_sovereignty
		}
		prerequisite = {
			focus = FRA_Disunited_States_Europe
		}
		relative_position_id = FRA_Disunited_States_Europe
		x = 0
		y = 1

	}
	focus = {
		id = FRA_seek_African_Partners
		icon = align_to_africa
		cost = 10
		prerequisite = {
			focus = FRA_French_True_Friends
		}
		mutually_exclusive = {
			focus = FRA_European_Bilateralism
		}
		relative_position_id = FRA_French_True_Friends
		x = -1
		y = 1

	}
	focus = {
		id = FRA_European_Bilateralism
		icon = align_to_germany
		cost = 10
		prerequisite = {
			focus = FRA_French_True_Friends
		}
		mutually_exclusive = {
			focus = FRA_seek_African_Partners
		}
		relative_position_id = FRA_French_True_Friends
		x = 1
		y = 1

	}
	focus = {
		id = FRA_Union_Francaise
		icon = align_to_france2
		cost = 10
		prerequisite = {
			focus = FRA_seek_African_Partners
		}
		relative_position_id = FRA_seek_African_Partners
		x = 0
		y = 1

	}
	focus = {
		id = FRA_Goal_For_Union
		icon = GFX_goal_unknown
		cost = 10
		prerequisite = {
			focus = FRA_Union_Francaise
			focus = FRA_European_Bilateralism
			focus = FRA_Appoint_New_President
			focus = FRA_European_Brigades
		}
		relative_position_id = FRA_Union_Francaise
		x = 1
		y = 1

	}
##		END SELF-DETERMINATION SUB-PATH		##

##		EUROPEANISM SUB-PATH		##
	focus = {
		id = FRA_European_Dream
		icon = align_to_europe
		cost = 10
		prerequisite = {
			focus = FRA_French_Democracy
		}
		mutually_exclusive = {
			focus = FRA_Self_Determination
		}
		relative_position_id = FRA_French_Democracy
		x = 0
		y = 1

	}
	focus = {
		id = FRA_Term_Lengh_Reform
		icon = GFX_parlamentary_reform
		cost = 10
		prerequisite = {
			focus = FRA_European_Dream
		}
		relative_position_id = FRA_European_Dream
		x = -2
		y = 1

	}
	focus = {
		id = FRA_Legislative_Reform
		icon = stolen_papers
		cost = 10
		prerequisite = {
			focus = FRA_Term_Lengh_Reform
		}
		relative_position_id = FRA_Term_Lengh_Reform
		x = 0
		y = 1

	}
	focus = {
		id = FRA_Europhilie
		icon = GFX_association_agreement
		cost = 10
		prerequisite = {
			focus = FRA_European_Dream
		}
		relative_position_id = FRA_European_Dream
		x = 0
		y = 1

	}
	focus = {
		id = FRA_Pan_Europeanism
		icon = GFX_goal_unknown
		cost = 10
		prerequisite = {
			focus = FRA_Europhilie
		}
		relative_position_id = FRA_Europhilie
		x = 0
		y = 1

	}
	focus = {
		id = FRA_Judicial_Reform
		icon = GFX_confirm_non_block_status
		cost = 10
		prerequisite = {
			focus = FRA_European_Dream
		}
		relative_position_id = FRA_European_Dream
		x = 2
		y = 1

	}
	focus = {
		id = FRA_Executive_Reform
		icon = self_management
		cost = 10
		prerequisite = {
			focus = FRA_Judicial_Reform
		}
		relative_position_id = FRA_Judicial_Reform
		x = 0
		y = 1

	}
	focus = {
		id = FRA_Doctrine_Union
		icon = GFX_goal_unknown
		cost = 10
		prerequisite = {
			focus = FRA_Executive_Reform
		}
		prerequisite = {
			focus = FRA_Pan_Europeanism
		}
		prerequisite = {
			focus = FRA_Legislative_Reform
		}
		relative_position_id = FRA_Pan_Europeanism
		x = 0
		y = 1
		
	}
	focus = {
		id = FRA_European_Officer_School
		icon = general_staff
		cost = 10
		prerequisite = {
			focus = FRA_Doctrine_Union
		}
		relative_position_id = FRA_Doctrine_Union
		x = -1
		y = 1

	}
	focus = {
		id = FRA_European_Doctrine_Academy
		icon = military_academy
		cost = 10
		prerequisite = {
			focus = FRA_European_Officer_School
		}
		relative_position_id = FRA_European_Officer_School
		x = -2
		y = 1

	}
	focus = {
		id = FRA_European_Constitution
		icon = treaty4
		cost = 10
		prerequisite = {
			focus = FRA_Doctrine_Union
		}
		relative_position_id = FRA_Doctrine_Union
		x = 1
		y = 1

	}
	focus = {
		id = FRA_European_Brigades
		icon = entente
		cost = 10
		prerequisite = {
			focus = FRA_European_Officer_School
		}
		relative_position_id = FRA_European_Officer_School
		x = 0
		y = 1

	}
	focus = {
		id = FRA_Appoint_New_President
		icon = military_mission2
		cost = 10
		prerequisite = {
			focus = FRA_European_Constitution
		}
		relative_position_id = FRA_European_Constitution
		x = 0
		y = 1

	}
	focus = {
		id = FRA_Capital_For_Union
		icon = GFX_goal_unknown
		cost = 10
		prerequisite = {
			focus = FRA_Appoint_New_President
		}
		prerequisite = {
			focus = FRA_European_Brigades
		}
		relative_position_id = FRA_European_Brigades
		x = 1
		y = 1

	}
	focus = {
		id = FRA_France_First_Daughter
		icon = GFX_goal_unknown
		cost = 10
		prerequisite = {
			focus = FRA_Capital_For_Union
		}
		relative_position_id = FRA_Capital_For_Union
		x = -1
		y = 1

	}
	focus = {
		id = FRA_Shall_Lead
		icon = GFX_goal_unknown
		cost = 10
		prerequisite = {
			focus = FRA_France_First_Daughter
		}
		relative_position_id = FRA_France_First_Daughter
		x = 0
		y = 1

	}
	focus = {
		id = FRA_Union_Inside_Union
		icon = GFX_goal_unknown
		cost = 10
		prerequisite = {
			focus = FRA_Shall_Lead
		}
		relative_position_id = FRA_Shall_Lead
		x = 0
		y = 1

	}
	focus = {
		id = FRA_European_HQ
		icon = gentleman_officers
		cost = 10
		prerequisite = {
			focus = FRA_Capital_For_Union
		}
		relative_position_id = FRA_Capital_For_Union
		x = 1
		y = 1

	}
	focus = {
		id = FRA_Harmonize_European_Military
		icon = army_doctrine
		cost = 10
		prerequisite = {
			focus = FRA_European_HQ
		}
		relative_position_id = FRA_European_HQ
		x = 0
		y = 1

	}
	focus = {
		id = FRA_European_Defense_Community
		icon = GFX_goal_unknown
		cost = 10
		prerequisite = {
			focus = FRA_Harmonize_European_Military
		}
		relative_position_id = FRA_Harmonize_European_Military
		x = 0
		y = 1

	}
##		END EUROPEANISM SUB-PATH		##

##		GOVERNANCE SUB-PATH		##
	focus = {
		id = FRA_Reform_French_Governance
		icon = GFX_goal_unknown
		cost = 10
		prerequisite = {
			focus = FRA_French_Democracy
		}
		relative_position_id = FRA_French_Democracy
		x = 8
		y = 1

	}
	focus = {
		id = FRA_Hard_Power
		icon = anti_establishment
		cost = 10
		prerequisite = {
			focus = FRA_Reform_French_Governance
		}
		relative_position_id = FRA_Reform_French_Governance
		x = -2
		y = 1

	}
	focus = {
		id = FRA_Civilized_Outlook
		icon = gentleman_officers
		cost = 10
		prerequisite = {
			focus = FRA_Hard_Power
		}
		relative_position_id = FRA_Hard_Power
		x = -1
		y = 1

	}
	focus = {
		id = FRA_National_Interest
		icon = industry_communist2
		cost = 10
		prerequisite = {
			focus = FRA_Civilized_Outlook
		}
		relative_position_id = FRA_Civilized_Outlook
		x = 0
		y = 1

	}
	focus = {
		id = FRA_Protect_French_Democracy
		icon = infiltration
		cost = 10
		prerequisite = {
			focus = FRA_National_Interest
		}
		relative_position_id = FRA_National_Interest
		x = 0
		y = 1

	}
	focus = {
		id = FRA_Liberte
		icon = GFX_goal_unknown
		cost = 10
		prerequisite = {
			focus = FRA_Protect_French_Democracy
		}
		relative_position_id = FRA_Protect_French_Democracy
		x = 0
		y = 1

	}
	focus = {
		id = FRA_Reestablish_Service_Militaire
		icon = conscription
		cost = 10
		prerequisite = {
			focus = FRA_Hard_Power
		}
		relative_position_id = FRA_Hard_Power
		x = 1
		y = 1

	}
	focus = {
		id = FRA_Learn_Marseillaise
		icon = war_against_france
		cost = 10
		prerequisite = {
			focus = FRA_Reestablish_Service_Militaire
		}
		relative_position_id = FRA_Reestablish_Service_Militaire
		x = 0
		y = 1

	}
	focus = {
		id = FRA_Economic_Control
		icon = economic_prosperity
		cost = 10
		prerequisite = {
			focus = FRA_Learn_Marseillaise
		}
		relative_position_id = FRA_Learn_Marseillaise
		x = 0
		y = 1

	}
	focus = {
		id = FRA_Egalite
		icon = GFX_goal_unknown
		cost = 10
		prerequisite = {
			focus = FRA_Economic_Control
		}
		relative_position_id = FRA_Economic_Control
		x = 0
		y = 1

	}
	focus = {
		id = FRA_Soft_Power
		icon = aristocratic_funding
		cost = 10
		prerequisite = {
			focus = FRA_Reform_French_Governance
		}
		relative_position_id = FRA_Reform_French_Governance
		x = 2
		y = 1

	}
	focus = {
		id = FRA_House_Francophonie
		icon = GFX_goal_unknown
		cost = 10
		prerequisite = {
			focus = FRA_Soft_Power
		}
		relative_position_id = FRA_Soft_Power
		x = -1
		y = 1

	}
	focus = {
		id = FRA_Alliance_Francaise
		icon = GFX_goal_unknown
		cost = 10
		prerequisite = {
			focus = FRA_House_Francophonie
		}
		relative_position_id = FRA_House_Francophonie
		x = 0
		y = 1

	}
	focus = {
		id = FRA_French_Culture
		icon = GFX_goal_unknown
		cost = 10
		prerequisite = {
			focus = FRA_Soft_Power
		}
		relative_position_id = FRA_Soft_Power
		x = 1
		y = 1

	}
	focus = {
		id = FRA_Code_Napoleon
		icon = GFX_goal_unknown
		cost = 10
		prerequisite = {
			focus = FRA_French_Culture
		}
		relative_position_id = FRA_French_Culture
		x = 0
		y = 1

	}
	focus = {
		id = FRA_One_Project
		icon = construction
		cost = 10
		prerequisite = {
			focus = FRA_Alliance_Francaise
		}
		prerequisite = {
			focus = FRA_Code_Napoleon
		}
		relative_position_id = FRA_Alliance_Francaise
		x = 1
		y = 1

	}
	focus = {
		id = FRA_Fraternite
		icon = GFX_goal_unknown
		cost = 10
		prerequisite = {
			focus = FRA_One_Project
		}
		relative_position_id = FRA_One_Project
		x = 0
		y = 1

	}
##		END GOVERNANCE SUB-PATH		##

##################################################
##			END PRO-WEST POLITIC PATH			##
##################################################



##################################################################################



######################################
##			STRIKES PATH			##
######################################
	focus = {
		id = FRA_Fund_Police
		icon = french_police
		cost = 10
		x = 66
		y = 0

	}
	focus = {
		id = FRA_Crack_Down_Strikers
		icon = great_railway_incident
		cost = 10
		prerequisite = {
			focus = FRA_Fund_Police
		}
		relative_position_id = FRA_Fund_Police
		x = 0
		y = 1

	}
	focus = {
		id = FRA_Organize_Meeting
		icon = union_negotiations
		cost = 10
		prerequisite = {
			focus = FRA_Crack_Down_Strikers
		}
		mutually_exclusive = {
			focus = FRA_Ban_Strikes
		}
		relative_position_id = FRA_Crack_Down_Strikers
		x = -1
		y = 1

	}
	focus = {
		id = FRA_Seek_Agreement
		icon = concessions
		cost = 10
		prerequisite = {
			focus = FRA_Organize_Meeting
		}
		relative_position_id = FRA_Organize_Meeting
		x = 0
		y = 1

	}
	focus = {
		id = FRA_Promote_National_Unity
		icon = national_unity
		cost = 10
		prerequisite = {
			focus = FRA_Seek_Agreement
		}
		relative_position_id = FRA_Seek_Agreement
		x = 0
		y = 1

	}
	focus = {
		id = FRA_Ban_Strikes
		icon = become_puppet
		cost = 10
		prerequisite = {
			focus = FRA_Crack_Down_Strikers
		}
		mutually_exclusive = {
			focus = FRA_Organize_Meeting
		}
		relative_position_id = FRA_Crack_Down_Strikers
		x = 1
		y = 1

	}
	focus = {
		id = FRA_Crack_Down_Manisfestant
		icon = skull
		cost = 10
		prerequisite = {
			focus = FRA_Ban_Strikes
		}
		prerequisite = {
			focus = FRA_Invest_Gendarmerie
		}
		relative_position_id = FRA_Ban_Strikes
		x = 2
		y = 1

	}
	focus = {
		id = FRA_Appease_People
		icon = national_unity_red
		cost = 10
		prerequisite = {
			focus = FRA_Crack_Down_Manisfestant
		}
		relative_position_id = FRA_Crack_Down_Manisfestant
		x = 0
		y = 1

	}
	focus = {
		id = FRA_Leave_NATO
		icon = attack_nato
		cost = 10
		prerequisite = {
			focus = FRA_Appease_People
		}
		relative_position_id = FRA_Appease_People
		x = 2
		y = 1

	}
	focus = {
		id = FRA_Solve_Migrant_Crisis
		icon = border_war
		cost = 10
		prerequisite = {
			focus = FRA_Appease_People
		}
		relative_position_id = FRA_Appease_People
		x = -2
		y = 1

	}
	focus = {
		id = FRA_Vote_FREXIT
		icon = attack_europe
		cost = 10
		prerequisite = {
			focus = FRA_Appease_People
		}
		relative_position_id = FRA_Appease_People
		x = 0
		y = 1

	}
	focus = {
		id = FRA_European_Recognize_Agreement
		icon = gunpoint_diplomacy
		cost = 10
		prerequisite = {
			focus = FRA_Vote_FREXIT
		}
		relative_position_id = FRA_Vote_FREXIT
		x = 0
		y = 1

	}
	focus = {
		id = FRA_Agreement_Parlement
		icon = self_management
		cost = 10
		prerequisite = {
			focus = FRA_European_Recognize_Agreement
		}
		relative_position_id = FRA_European_Recognize_Agreement
		x = 0
		y = 1

	}
	focus = {
		id = FRA_Did_It
		icon = support_the_left_right
		cost = 10
		prerequisite = {
			focus = FRA_Agreement_Parlement
		}
		relative_position_id = FRA_Agreement_Parlement
		x = 0
		y = 1

	}
##########################################
##			END STRIKES PATH			##
##########################################



##################################################################################



######################################
##			MILITARY PATH			##
######################################
	
	focus = {
		id = FRA_Redact_New_White
		icon = treaty
		cost = 10
		x = 78
		y = 0

	}
	focus = {
		id = FRA_Draft_Military_Program
		icon = treaty3
		cost = 10
		prerequisite = {
			focus = FRA_Redact_New_White
		}
		relative_position_id = FRA_Redact_New_White
		x = 0
		y = 1

	}
	focus = {
		id = FRA_Invest_Gendarmerie
		icon = french_gendarmerie
		cost = 10
		prerequisite = {
			focus = FRA_Draft_Military_Program
		}
		relative_position_id = FRA_Draft_Military_Program
		x = -7
		y = 1

	}
##		AIR SUB-PATH		##
	focus = {
		id = FRA_Invest_Air
		icon = french_air_force
		cost = 10
		prerequisite = {
			focus = FRA_Draft_Military_Program
		}
		relative_position_id = FRA_Draft_Military_Program
		x = -3
		y = 1

	}
	focus = {
		id = FRA_Air_Strong_Together
		icon = GFX_goal_unknown
		cost = 10
		prerequisite = {
			focus = FRA_Invest_Air
		}
		mutually_exclusive = {
			focus = FRA_Air_Our_Own
		}
		relative_position_id = FRA_Invest_Air
		x = -2
		y = 1

	}
	focus = {
		id = FRA_Air_Give_Try
		icon = GFX_goal_unknown
		cost = 10
		prerequisite = {
			focus = FRA_Air_Strong_Together
		}
		relative_position_id = FRA_Air_Strong_Together
		x = 0
		y = 1

	}
	focus = {
		id = FRA_European_Air_Consorsium
		icon = GFX_goal_unknown
		cost = 10
		prerequisite = {
			focus = FRA_Air_Give_Try
		}
		relative_position_id = FRA_Air_Give_Try
		x = 0
		y = 1

	}
	focus = {
		id = FRA_Air_Our_Own
		icon = GFX_goal_unknown
		cost = 10
		prerequisite = {
			focus = FRA_Invest_Air
		}
		mutually_exclusive = {
			focus = FRA_Air_Strong_Together
		}
		relative_position_id = FRA_Invest_Air
		x = 2
		y = 1

	}
	focus = {
		id = FRA_Dedicated_Purpose
		icon = GFX_goal_unknown
		cost = 10
		prerequisite = {
			focus = FRA_Air_Our_Own
		}
		mutually_exclusive = {
			focus = FRA_Multi_Role
		}
		relative_position_id = FRA_Air_Our_Own
		x = -2
		y = 1

	}
	focus = {
		id = FRA_dedicated_Flotilla
		icon = GFX_goal_unknown
		cost = 10
		prerequisite = {
			focus = FRA_Dedicated_Purpose
		}
		relative_position_id = FRA_Dedicated_Purpose
		x = 0
		y = 1

	}
	focus = {
		id = FRA_Multi_Role
		icon = GFX_goal_unknown
		cost = 10
		prerequisite = {
			focus = FRA_Air_Our_Own
		}
		mutually_exclusive = {
			focus = FRA_Dedicated_Purpose
		}
		relative_position_id = FRA_Air_Our_Own
		x = 0
		y = 1

	}
	focus = {
		id = FRA_Aeronaval
		icon = GFX_goal_unknown
		cost = 10
		prerequisite = {
			focus = FRA_Multi_Role
		}
		relative_position_id = FRA_Multi_Role
		x = 0
		y = 1

	}
	focus = {
		id = FRA_DGA_Air
		icon = GFX_goal_unknown
		cost = 10
		prerequisite = {
			focus = FRA_Aeronaval
			focus = FRA_dedicated_Flotilla
			focus = FRA_European_Air_Consorsium
		}
		relative_position_id = FRA_dedicated_Flotilla
		x = 0
		y = 1

	}
##		END AIR SUB-PATH		##

##		NAVY SUB-PATH		##
	focus = {
		id = FRA_Invest_Navy
		icon = french_navy
		cost = 10
		prerequisite = {
			focus = FRA_Draft_Military_Program
		}
		relative_position_id = FRA_Draft_Military_Program
		x = 3
		y = 1

	}
	focus = {
		id = FRA_Naval_Strong_Together
		icon = GFX_goal_unknown
		cost = 10
		prerequisite = {
			focus = FRA_Invest_Navy
		}
		mutually_exclusive = {
			focus = FRA_Naval_Our_Own
		}
		relative_position_id = FRA_Invest_Navy
		x = -2
		y = 1

	}
	focus = {
		id = FRA_Naval_Give_Try
		icon = GFX_goal_unknown
		cost = 10
		prerequisite = {
			focus = FRA_Naval_Strong_Together
		}
		relative_position_id = FRA_Naval_Strong_Together
		x = 0
		y = 1

	}
	focus = {
		id = FRA_European_Naval_Consorsium
		icon = GFX_goal_unknown
		cost = 10
		prerequisite = {
			focus = FRA_Naval_Give_Try
		}
		relative_position_id = FRA_Naval_Give_Try
		x = 0
		y = 1

	}
	focus = {
		id = FRA_Naval_Our_Own
		icon = GFX_goal_unknown
		cost = 10
		prerequisite = {
			focus = FRA_Invest_Navy
		}
		mutually_exclusive = {
			focus = FRA_Naval_Strong_Together
		}
		relative_position_id = FRA_Invest_Navy
		x = 2
		y = 1

	}
	focus = {
		id = FRA_Sea_Control
		icon = GFX_goal_unknown
		cost = 10
		prerequisite = {
			focus = FRA_Naval_Our_Own
		}
		mutually_exclusive = {
			focus = FRA_Sea_Denial
		}
		relative_position_id = FRA_Naval_Our_Own
		x = -2
		y = 1

	}
	focus = {
		id = FRA_Naval_Diplomacy
		icon = GFX_goal_unknown
		cost = 10
		prerequisite = {
			focus = FRA_Sea_Control
		}
		relative_position_id = FRA_Sea_Control
		x = 0
		y = 1

	}
	focus = {
		id = FRA_Sea_Denial
		icon = GFX_goal_unknown
		cost = 10
		prerequisite = {
			focus = FRA_Naval_Our_Own
		}
		mutually_exclusive = {
			focus = FRA_Sea_Control
		}
		relative_position_id = FRA_Naval_Our_Own
		x = 0
		y = 1

	}
	focus = {
		id = FRA_Focus_Exportation
		icon = GFX_goal_unknown
		cost = 10
		prerequisite = {
			focus = FRA_Sea_Denial
		}
		relative_position_id = FRA_Sea_Denial
		x = 0
		y = 1
		
	}
	focus = {
		id = FRA_DGA_Naval
		icon = GFX_goal_unknown
		cost = 10
		prerequisite = {
			focus = FRA_European_Naval_Consorsium
			focus = FRA_Naval_Diplomacy
			focus = FRA_Focus_Exportation
		}
		relative_position_id = FRA_Naval_Diplomacy
		x = 0
		y = 1

	}
##		END NAVY SUB-PATH		##

##		LAND SUB-PATH		##
	focus = {
		id = FRA_Invest_Land
		icon = french_army
		cost = 10
		prerequisite = {
			focus = FRA_Draft_Military_Program
		}
		relative_position_id = FRA_Draft_Military_Program
		x = 11
		y = 1

	}
	focus = {
		id = FRA_Land_Strong_Together
		icon = GFX_goal_unknown
		cost = 10
		prerequisite = {
			focus = FRA_Invest_Land
		}
		mutually_exclusive = {
			focus = FRA_Land_Our_Own
		}
		relative_position_id = FRA_Invest_Land
		x = -4
		y = 1

	}
	focus = {
		id = FRA_Land_Give_Try
		icon = leopard_2a6
		cost = 10
		prerequisite = {
			focus = FRA_Land_Strong_Together
		}
		relative_position_id = FRA_Land_Strong_Together
		x = 0
		y = 1

	}
	focus = {
		id = FRA_European_Land_Consorsium
		icon = GFX_goal_unknown
		cost = 10
		prerequisite = {
			focus = FRA_Land_Give_Try
		}
		relative_position_id = FRA_Land_Give_Try
		x = 0
		y = 1

	}
	focus = {
		id = FRA_Land_Our_Own
		icon = GFX_goal_unknown
		cost = 10
		prerequisite = {
			focus = FRA_Invest_Land
		}
		mutually_exclusive = {
			focus = FRA_Land_Strong_Together
			focus = FRA_Missile_Strong_Together
		}
		relative_position_id = FRA_Invest_Land
		x = 0
		y = 1

	}
	focus = {
		id = FRA_Nexter_Ground_Combat
		icon = tank_production1
		cost = 10
		prerequisite = {
			focus = FRA_Land_Our_Own
		}
		relative_position_id = FRA_Land_Our_Own
		x = -2
		y = 1

	}
	focus = {
		id = FRA_Reopen_MAS
		icon = GFX_goal_unknown
		cost = 10
		prerequisite = {
			focus = FRA_Land_Our_Own
		}
		relative_position_id = FRA_Land_Our_Own
		x = 0
		y = 1

	}
	focus = {
		id = FRA_EADS_Missile
		icon = GFX_goal_unknown
		cost = 10
		prerequisite = {
			focus = FRA_Land_Our_Own
		}
		relative_position_id = FRA_Land_Our_Own
		x = 2
		y = 1

	}
	focus = {
		id = FRA_Order_Rearmament
		icon = tank_production2
		cost = 10
		prerequisite = {
			focus = FRA_EADS_Missile
		}
		prerequisite = {
			focus = FRA_Reopen_MAS
		}
		prerequisite = {
			focus = FRA_Nexter_Ground_Combat
		}
		relative_position_id = FRA_Reopen_MAS
		x = 0
		y = 1

	}
	focus = {
		id = FRA_Missile_Strong_Together
		icon = GFX_goal_unknown
		cost = 10
		prerequisite = {
			focus = FRA_Invest_Land
		}
		mutually_exclusive = {
			focus = FRA_Land_Our_Own
		}
		relative_position_id = FRA_Invest_Land
		x = 4
		y = 1

	}
	focus = {
		id = FRA_Missile_Give_Try
		icon = GFX_goal_unknown
		cost = 10
		prerequisite = {
			focus = FRA_Missile_Strong_Together
		}
		relative_position_id = FRA_Missile_Strong_Together
		x = 0
		y = 1

	}
	focus = {
		id = FRA_European_Missile_Consorsium
		icon = GFX_goal_unknown
		cost = 10
		prerequisite = {
			focus = FRA_Missile_Give_Try
		}
		relative_position_id = FRA_Missile_Give_Try
		x = 0
		y = 1

	}
	focus = {
		id = FRA_DGA_Land
		icon = GFX_goal_unknown
		cost = 10
		prerequisite = {
			focus = FRA_Order_Rearmament
			focus = FRA_European_Missile_Consorsium
			focus = FRA_European_Land_Consorsium
		}
		relative_position_id = FRA_Order_Rearmament
		x = 0
		y = 1

	}
	focus = {
		id = FRA_Ixarm
		icon = GFX_goal_unknown
		cost = 10
		prerequisite = {
			focus = FRA_DGA_Land
		}
		relative_position_id = FRA_DGA_Land
		x = 0
		y = 1

	}
##		END LAND SUB-PATH		##
	focus = {
		id = FRA_Investigate_European_Intervention_Force
		icon = GFX_goal_unknown
		cost = 10
		prerequisite = {
			focus = FRA_European_Air_Consorsium
			focus = FRA_European_Naval_Consorsium
			focus = FRA_European_Land_Consorsium
			focus = FRA_European_Missile_Consorsium
		}
		relative_position_id = FRA_European_Naval_Consorsium
		x = 0
		y = 2

	}
	focus = {
		id = FRA_European_Army
		icon = GFX_goal_unknown
		cost = 10
		prerequisite = {
			focus = FRA_Investigate_European_Intervention_Force
		}
		relative_position_id = FRA_Investigate_European_Intervention_Force
		x = 0
		y = 1

	}
	focus = {
		id = FRA_Nuclear_Dissuasion
		icon = nuclear_bomb
		cost = 10
		prerequisite = {
			focus = FRA_Draft_Military_Program
		}
		relative_position_id = FRA_Draft_Military_Program
		x = 17
		y = 1

	}
	focus = {
		id = FRA_Strategic_Autonomy
		icon = GFX_focus_rocketry
		cost = 10
		prerequisite = {
			focus = FRA_Nuclear_Dissuasion
		}
		relative_position_id = FRA_Nuclear_Dissuasion
		x = 0
		y = 1

	}
##########################################
##			END MILITARY PATH			##
##########################################

}
