ideas = {

	country = {
		
		Migrant_Crisis_Europe = {
			
			allowed = {
				OR = {
					original_tag = POR
					original_tag = SPR
					original_tag = IRE
					original_tag = ENG
					original_tag = FRA
					original_tag = BEL
					original_tag = ICE
					original_tag = HOL
					original_tag = GER
					original_tag = SWI
					original_tag = AUS
					original_tag = DEN
					original_tag = ITA
					original_tag = NOR
					original_tag = MLT
					#original_tag = CZE
					original_tag = POL
					original_tag = SWE
					original_tag = SLV
					original_tag = SLO
					original_tag = HUN
					original_tag = CRO
					original_tag = BOS
					#original_tag = YUG
					original_tag = SER
					#original_tag = MTN
					original_tag = ALB
					#original_tag = MCD
					original_tag = GRE
					original_tag = BUL
					original_tag = TUR
					original_tag = FIN
					original_tag = EST
					original_tag = LAT
					original_tag = LIT
					original_tag = BLR
					original_tag = UKR
					#original_tag = MOL
					original_tag = ROM
					original_tag = CYP

				}
			}
			
			default = no

			modifier = {
				political_power_factor = -0.1
				nationalist_drift = 0.05
				MONTHLY_POPULATION = 0.2
			}
		}
	}
}
