ideas = {

	Infantry_Weapon_Company = {
	
		designer = yes
		
		BUL_arsenal_infantry_weapon_company = {
		
			picture = Arsenal_BUL
			
			allowed = {
				tag = BUL
			}
			cost = 150
			
			removal_cost = 10
			
			research_bonus = {
				Cat_INF = 0.155
			}
			
			traits = {
				Cat_INF_5
			
			}
			ai_will_do = {
				factor = 0.5 #All countries need a land army, vehicles are part of modern warfare
				
				modifier = {
					num_of_military_factories > 5 #has the industry to take advantage of the company
					factor = 1
				}
				modifier = {
					is_major = yes #Majors project power
					factor = 1
				}
			}
			
		}
	}
	
}
