ideas = {

	Infantry_Weapon_Company = {
	
		designer = yes
		
		CHL_famae_infantry_weapon_company = {
		
			picture = FAMAE_CHL
			
			allowed = {
				tag = CHL
			}
			cost = 150
			
			removal_cost = 10
			
			research_bonus = {
				Cat_INF_WEP = 0.124
			}
			
			traits = {
				Cat_INF_WEP_4
			
			}
			ai_will_do = {
				factor = 0.4 #All countries need a land army, vehicles are part of modern warfare
				
				modifier = {
					num_of_military_factories > 5 #has the industry to take advantage of the company
					factor = 1
				}
				modifier = {
					is_major = yes #Majors project power
					factor = 1
				}
			}
			
		}
	}
	
	Vehicle_Company = {
	
		designer = yes
		
		CHL_famae_vehicle_company = {
		
			picture = FAMAE_CHL
			
			allowed = {
				tag = CHL
			}
			cost = 150
			
			removal_cost = 10
			
			research_bonus = {
				Cat_AFV = 0.124
			}
			
			traits = {
				Cat_AFV_4
			
			}
			ai_will_do = {
				factor = 0.4 #All countries need a land army, vehicles are part of modern warfare
				
				modifier = {
					num_of_military_factories > 10 #has the industry to take advantage of the company
					factor = 1
				}
				modifier = {
					is_major = yes #Majors project power
					factor = 1
				}
			}
			
		}
	}
	
	Aircraft_Company = {
	
		designer = yes
		
		CHL_enaer_aircraft_company = {
		
			picture = ENAER_CHL
			
			allowed = {
				tag = CHL
			}
			cost = 150
			
			removal_cost = 10
			
			research_bonus = {
				Cat_L_Fighter = 0.155
			}
			
			traits = {
				Cat_L_Fighter_5
			
			}
			ai_will_do = {
				factor = 0.5 #Most countries don't have decent airforces
				
				modifier = {
					or = {
						has_tech = AS_Fighter2 #has semi-modern tech
						has_tech = MR_Fighter2
						has_tech = Strike_fighter2
						has_tech = L_Strike_fighter2
						has_tech = Air_UAV1
					}
					factor = 1
				}
				modifier = {
					or = {
						has_tech = strategic_bomber3 #has semi-modern tech, most countries dont have it
						has_tech = transport_plane2
						has_tech = naval_plane3
						has_tech = cas2
					}
					factor = 1
				}
				modifier = {
					is_major = yes #Majors project power
					factor = 1
				}
			}
			
		}
	}
	
	Ship_Company = {
	
		designer = yes
		
		CHL_asmar_ship_company = {
		
			picture = ASMAR_CHL
			
			allowed = {
				tag = CHL
			}
			cost = 150
			
			removal_cost = 10
			
			research_bonus = {
				Cat_SURFACE_SHIP = 0.124
			}
			
			traits = {
				Cat_NAVAL_EQP_4
			
			}
			ai_will_do = {
				factor = 0.4
				
				modifier = {
					has_navy_size = { size > 25 } #has a large navy
					factor = 1
				}
				modifier = {
					num_of_naval_factories > 3 #has the industry to take advantage of the company
					factor = 1
				}
				modifier = {
					is_major = yes #Majors project power
					factor = 1
				}
				modifier = {
					NOT = { #need to have ports
						any_owned_state = {
							is_coastal = yes
						}
					}
					factor = -10
				}
			}
			
		}
	}
	
}
