ideas = {

	Aircraft_Company = {
	
		designer = yes
		
		CZE_aero_aircraft_company = {
		
			picture = Aero_CZE
			
			allowed = {
				tag = CZE
			}
			cost = 150
			
			removal_cost = 10
			
			research_bonus = {
				Cat_L_Fighter = 0.155
			}
			
			traits = {
				Cat_L_Fighter_5
			
			}
			ai_will_do = {
				factor = 0.5 #Most countries don't have decent airforces
				
				modifier = {
					or = {
						has_tech = AS_Fighter2 #has semi-modern tech
						has_tech = MR_Fighter2
						has_tech = Strike_fighter2
						has_tech = L_Strike_fighter2
						has_tech = Air_UAV1
					}
					factor = 1
				}
				modifier = {
					or = {
						has_tech = strategic_bomber3 #has semi-modern tech, most countries dont have it
						has_tech = transport_plane2
						has_tech = naval_plane3
						has_tech = cas2
					}
					factor = 1
				}
				modifier = {
					is_major = yes #Majors project power
					factor = 1
				}
			}
			
		}
	}
	
	Infantry_Weapon_Company = {
	
		designer = yes
		
		CZE_czub_infantry_weapon_company = {
		
			picture = CZUB_CZE
			
			allowed = {
				tag = CZE
			}
			cost = 150
			
			removal_cost = 10
			
			research_bonus = {
				Cat_INF_WEP = 0.124
			}
			
			traits = {
				Cat_INF_WEP_4
			
			}
			ai_will_do = {
				factor = 0.4 #All countries need a land army, vehicles are part of modern warfare
				
				modifier = {
					num_of_military_factories > 5 #has the industry to take advantage of the company
					factor = 1
				}
				modifier = {
					is_major = yes #Majors project power
					factor = 1
				}
			}
			
		}
	}
	
	Vehicle_Company = {
	
		designer = yes
		
		CZE_vop_vehicle_company = {
		
			picture = VOP_CZE
			
			allowed = {
				tag = CZE
			}
			cost = 150
			
			removal_cost = 10
			
			research_bonus = {
				Cat_AFV = 0.155
			}
			
			traits = {
				Cat_AFV_5
			
			}
			ai_will_do = {
				factor = 0.5 #All countries need a land army, vehicles are part of modern warfare
				
				modifier = {
					num_of_military_factories > 10 #has the industry to take advantage of the company
					factor = 1
				}
				modifier = {
					is_major = yes #Majors project power
					factor = 1
				}
			}
			
		}
	}
	
}
