ideas = {

	Infantry_Weapon_Company = {
	
		designer = yes
		
		GRE_eas_infantry_weapon_company = {
		
			picture = EAS_GRE
			
			allowed = {
				tag = GRE
			}
			cost = 150
			
			removal_cost = 10
			
			research_bonus = {
				Cat_INF_WEP = 0.155
			}
			
			traits = {
				Cat_INF_WEP_5
			
			}
			ai_will_do = {
				factor = 0.5 #All countries need a land army, vehicles are part of modern warfare
				
				modifier = {
					num_of_military_factories > 5 #has the industry to take advantage of the company
					factor = 1
				}
				modifier = {
					is_major = yes #Majors project power
					factor = 1
				}
			}
			
		}
	}
	
	Vehicle_Company = {
	
		designer = yes
		
		GRE_hellenic_vehicle_industry_vehicle_company = {
		
			picture = Hellenic_Vehicle_Industry_GRE
			
			allowed = {
				tag = GRE
			}
			cost = 150
			
			removal_cost = 10
			
			research_bonus = {
				Cat_ARMOR = 0.186
			}
			
			traits = {
				Cat_ARMOR_6
			
			}
			ai_will_do = {
				factor = 0.6 #All countries need a land army, vehicles are part of modern warfare
				
				modifier = {
					num_of_military_factories > 10 #has the industry to take advantage of the company
					factor = 1
				}
				modifier = {
					is_major = yes #Majors project power
					factor = 1
				}
			}
			
		}
	}
	
}
