focus_tree = {

	id = ERI_eritrea_puppet

	country = {
		factor = 0

		modifier = {
			add = 1
			original_tag = ERI
		}
	}

	default = no

	focus = {
		id = ERI_eritrea_puppet_federation
		icon = ethiopia_eritrea_federation

		x = 8
		y = 0

		cost = 5

		prerequisite = {
			#
		}

		mutually_exclusive = {
			#
		}

		available = {
			#
		}

		bypass = { }

		completion_reward = {
			#
		}

		ai_will_do = {
			factor = 10
		}
	}

	focus = {
		id = ERI_eritrea_puppet_federation_assembly
		icon = self_management

		x = 0
		y = 1

		relative_position_id = ERI_eritrea_puppet_federation

		cost = 5

		prerequisite = {
			focus = ERI_eritrea_puppet_federation
		}

		mutually_exclusive = {

		}

		available = {

		}

		bypass = { }

		completion_reward = {

		}

		ai_will_do = {
			factor = 10
		}
	}

	focus = {
		id = ERI_eritrea_puppet_federation_constitution
		icon = adopt_the_peoples_constitution

		x = 0
		y = 2

		relative_position_id = ERI_eritrea_puppet_federation

		cost = 5

		prerequisite = {
			focus = ERI_eritrea_puppet_federation_assembly
		}

		mutually_exclusive = { }

		available = {

		}

		bypass = { }

		completion_reward = {

		}

		ai_will_do = {
			factor = 10
		}
	}

	focus = {
		id = ERI_eritrea_puppet_federation_appoint_chief_executive
		icon = major_alliance2

		x = 0
		y = 3

		relative_position_id = ERI_eritrea_puppet_federation

		cost = 5

		prerequisite = {
			focus = ERI_eritrea_puppet_federation_constitution
		}

		mutually_exclusive = { }

		available = {

		}

		bypass = { }

		completion_reward = {
			custom_effect_tooltip = appoint_chief_executive_tt
		}

		ai_will_do = {
			factor = 10
		}
	}

	focus = {
		id = ERI_eritrea_puppet_federation_christian
		icon = orthodox_reform

		x = -4
		y = 4

		relative_position_id = ERI_eritrea_puppet_federation

		cost = 10

		prerequisite = {
			focus = ERI_eritrea_puppet_federation_appoint_chief_executive
		}

		mutually_exclusive = { focus = ERI_eritrea_puppet_federation_muslim }

		available = {
			has_country_flag = ahmed_nasser_cf
		}

		bypass = { }

		completion_reward = {

		}

		ai_will_do = {
			factor = 10
		}
	}

	focus = {
		id = ERI_eritrea_puppet_federation_muslim
		icon = sunni_politics

		x = 4
		y = 4

		relative_position_id = ERI_eritrea_puppet_federation

		cost = 10

		prerequisite = {
			focus = ERI_eritrea_puppet_federation_appoint_chief_executive
		}

		mutually_exclusive = { focus = ERI_eritrea_puppet_federation_christian }

		available = {
			has_country_flag = hussein_kelifay_cf
		}

		bypass = { }

		completion_reward = {

		}

		ai_will_do = {
			factor = 10
		}
	}

}
