focus_tree = {

	id = norway_focus

	country = {
		factor = 0

		modifier = {
			add = 20
			original_tag = NOR
		}
	}

	continuous_focus_position = { x = 1900 y = 500 }

	#Motion of Confidence Tree
	focus = {
		id = NOR_bondevik_motion_of_confidence
		icon = giant_wakes

		x = 1
		y = 0

		cost = 10

		prerequisite = { }

		mutually_exclusive = { }

		available = {

		}

		bypass = { }

		completion_reward = {

			add_stability = 0.01
		}

		ai_will_do = {
			factor = 10
		}
	}

	focus = {
		id = NOR_stoltenberg_cabinet
		icon = race_relations2

		x = -1
		y = 1
		relative_position_id = NOR_bondevik_motion_of_confidence

		cost = 5

		prerequisite = {
			focus = NOR_bondevik_motion_of_confidence
		}

		mutually_exclusive = { }

		available = {
			has_country_leader = { name = "" }
		}

		bypass = { }

		completion_reward = {
			add_political_power = 150
			add_stability = 0.02
		}

		ai_will_do = {
			factor = 10
		}
	}

	#NATO/EU Tree
	focus = {
		id = NOR_stay_in_nato
		icon = align_to_nato

		x = 2
		y = 1

		cost = 10

		prerequisite = {
			focus = NOR_bondevik_motion_of_confidence
		}

		mutually_exclusive = {
			focus = NOR_leave_nato
		}

		available = {
			is_in_faction = yes
			has_government = democratic
		}

		bypass = { }

		completion_reward = {
			add_stability = 0.02
			every_country = {
				limit = { is_in_faction_with = NOR }
				add_opinion_modifier = {
					target = NOR
					modifier = reaffirmed_NATO
				}
			}
		}

		ai_will_do = {
			factor = 10
		}
	}

	focus = {
		id = NOR_leave_nato
		icon = attack_nato

		x = 2
		y = 0
		relative_position_id = NOR_stay_in_nato

		cost = 15

		prerequisite = {
			focus = NOR_bondevik_motion_of_confidence
		}

		mutually_exclusive = {
			focus = NOR_stay_in_nato
		}

		available = { }

		bypass = {
			is_in_faction = no
		}

		completion_reward = {
			random_country = {
				limit = {
					is_in_faction_with = NOR
					is_faction_leader = yes
				}
				remove_from_faction = NOR
			}
		}

		ai_will_do = {
			factor = 10
			modifier = {
				factor = 0
				is_historical_focus_on = yes
			}
		}
	}

	focus = {
		id = NOR_maintain_the_european_status
		icon = demand_territory

		x = 0
		y = 1
		relative_position_id = NOR_stay_in_nato

		cost = 10

		prerequisite = {
			focus = NOR_stay_in_nato
			focus = NOR_leave_nato
		}

		mutually_exclusive = {
			focus = NOR_join_the_eu
		}

		available = { }

		bypass = { }

		completion_reward = {
			add_stability = 0.02
			add_political_power = 150
		}

		ai_will_do = {
			factor = 10
		}
	}

	focus = {
		id = NOR_join_the_eu
		icon = align_to_europe

		x = 2
		y = 1
		relative_position_id = NOR_stay_in_nato

		cost = 15

		prerequisite = {
			focus = NOR_stay_in_nato
			focus = NOR_leave_nato
		}

		mutually_exclusive = {
			focus = NOR_maintain_the_european_status
		}

		available = { }

		bypass = { }

		completion_reward = {
			add_political_power = -150
			add_ideas = EU_member
		}

		ai_will_do = {
			factor = 10
			modifier = {
				factor = 0
				is_historical_focus_on = yes
			}
		}
	}

	###Haakon's Marriage Question

	##Support

	focus = {
		id = NOR_support_haakons_marriage
		icon = aristocratic_funding

		x = 6
		y = 1

		cost = 10

		prerequisite = {
			focus = NOR_bondevik_motion_of_confidence
		}

		mutually_exclusive = {
			focus = NOR_oppose_haakons_marriage
		}

		available = {
			has_country_flag = haakons_marriage_announced
		}

		bypass = { }

		completion_reward = {
			add_stability = 0.02
		}

		ai_will_do = {
			factor = 10
		}
	}

	focus = {
		id = NOR_reinforce_the_constitutional_monarchy
		icon = improve_relations_green

		x = 0
		y = 1
		relative_position_id = NOR_support_haakons_marriage

		cost = 10

		prerequisite = {
			focus = NOR_support_haakons_marriage
		}

		mutually_exclusive = {
			focus = NOR_defund_the_monarchy
		}

		available = { }

		bypass = { }

		completion_reward = {
			add_stability = 0.02
			add_ideas = political_power_bonus2
		}

		ai_will_do = {
			factor = 10
		}
	}

	focus = {
		id = NOR_economic_growth_1
		icon = money

		x = 0
		y = 2
		relative_position_id = NOR_support_haakons_marriage

		cost = 10

		prerequisite = {
			focus = NOR_reinforce_the_constitutional_monarchy
		}

		mutually_exclusive = { }

		available = { }

		bypass = { }

		completion_reward = {
			add_political_power = 40
			random_owned_state = {
				limit = {
					free_building_slots = {
						building = industrial_complex
						size > 0
						include_locked = yes
					}
				}
				add_extra_state_shared_building_slots = 1
				add_building_construction = {
					type = industrial_complex
					level = 1
					instant_build = yes
				}
			}
		}

		ai_will_do = {
			factor = 10
		}
	}

	focus = {
		id = NOR_government_expansion_plans
		icon = intelligence_exchange

		x = -1
		y = 3
		relative_position_id = NOR_support_haakons_marriage

		cost = 10

		prerequisite = {
			focus = NOR_economic_growth_1
		}

		mutually_exclusive = { }

		available = { }

		bypass = { }

		completion_reward = {
			add_political_power = 100
		}

		ai_will_do = {
			factor = 10
		}
	}

	focus = {
		id = NOR_expand_the_industrial_base
		icon = industry_civilian

		x = 1
		y = 3
		relative_position_id = NOR_support_haakons_marriage

		cost = 10

		prerequisite = {
			focus = NOR_economic_growth_1
			focus = NOR_encourage_republican_sentiment
		}

		mutually_exclusive = { }

		available = { }

		bypass = { }

		completion_reward = {
			add_ideas = civilian_industry_project
		}

		ai_will_do = {
			factor = 10
		}
	}

	focus = {
		id = NOR_economic_growth_2
		icon = money

		x = 0
		y = 4
		relative_position_id = NOR_support_haakons_marriage

		cost = 10

		prerequisite = {
			focus = NOR_government_expansion_plans
			focus = NOR_expand_the_industrial_base
		}
		prerequisite = {
			focus = NOR_economic_growth_1
		}

		mutually_exclusive = { }

		available = { }

		bypass = { }

		completion_reward = {
			add_political_power = 40
			random_owned_state = {
				limit = {
					free_building_slots = {
						building = industrial_complex
						size > 0
						include_locked = yes
					}
				}
				add_extra_state_shared_building_slots = 1
				add_building_construction = {
					type = industrial_complex
					level = 1
					instant_build = yes
				}
			}
		}

		ai_will_do = {
			factor = 10
		}
	}

	focus = {
		id = NOR_invest_in_the_ministry_of_education_and_research
		icon = research

		x = -1
		y = 5
		relative_position_id = NOR_support_haakons_marriage

		cost = 10

		prerequisite = {
			focus = NOR_government_expansion_plans
		}

		mutually_exclusive = { }

		available = { }

		bypass = { }

		completion_reward = {
			add_research_slot = 1
		}

		ai_will_do = {
			factor = 10
		}
	}

	focus = {
		id = NOR_further_research_investments
		icon = tech_sharing

		x = -1
		y = 6
		relative_position_id = NOR_support_haakons_marriage

		cost = 10

		prerequisite = {
			focus = NOR_invest_in_the_ministry_of_education_and_research
		}

		mutually_exclusive = { }

		available = { }

		bypass = { }

		completion_reward = {
			add_ideas = scientific_advances2
		}

		ai_will_do = {
			factor = 10
		}
	}

	##Oppose

	focus = {
		id = NOR_oppose_haakons_marriage
		icon = anti_establishment

		x = 3
		y = 0
		relative_position_id = NOR_support_haakons_marriage

		cost = 10

		cancel_if_invalid = yes

		prerequisite = {
			focus = NOR_bondevik_motion_of_confidence
		}

		mutually_exclusive = {
			focus = NOR_support_haakons_marriage
		}

		available = {
			has_country_flag = haakons_marriage_announced
			NOT = { has_country_flag = haakon_married }
		}

		bypass = { }

		completion_reward = {
			add_stability = -0.03
		}

		ai_will_do = {
			factor = 10
			modifier = {
				factor = 0
				is_historical_focus_on = yes
			}
		}
	}

	#Radical Left Wing

	focus = {
		id = NOR_defund_the_monarchy
		icon = stolen_papers

		x = -1
		y = 1
		relative_position_id = NOR_oppose_haakons_marriage

		cost = 10

		prerequisite = {
			focus = NOR_support_haakons_marriage
			focus = NOR_oppose_haakons_marriage
		}

		mutually_exclusive = {
			focus = NOR_reinforce_the_constitutional_monarchy
		}
		mutually_exclusive = {
			focus = NOR_find_a_better_bride
		}

		available = { }

		bypass = { }

		completion_reward = {
			add_war_support = -0.05
			add_political_power = 40
			add_stability = 0.03
		}

		ai_will_do = {
			factor = 10
			modifier = {
				factor = 0
				is_historical_focus_on = yes
			}
		}
	}

	focus = {
		id = NOR_encourage_republican_sentiment
		icon = democracy

		x = 0
		y = 1
		relative_position_id = NOR_defund_the_monarchy

		cost = 10

		prerequisite = {
			focus = NOR_defund_the_monarchy
		}

		mutually_exclusive = { }

		available = {

		NOT = { has_government = nationalist }
		NOT = { has_government = fascism }

		}

		bypass = { }

		completion_reward = {
			add_political_power = 150
			add_popularity = { ideology = communism popularity = 0.05 }
			add_popularity = { ideology = democratic popularity = 0.05 }
			}


		ai_will_do = {
			factor = 10
		}
	}

	focus = {
		id = NOR_republican_militias
		icon = entente

		x = 1
		y = 2
		relative_position_id = NOR_defund_the_monarchy

		cost = 10

		prerequisite = {
			focus = NOR_encourage_republican_sentiment
		}

		mutually_exclusive = { }

		available = {

		NOT = { has_government = nationalist }
		NOT = { has_government = fascism }

		}

		bypass = { }

		completion_reward = {
			add_ideas = additional_recruits2
		}

		ai_will_do = {
			factor = 10
		}
	}

	focus = {
		id = NOR_abolish_the_monarchy
		icon = anti_monarchism4

		x = 0
		y = 2
		relative_position_id = NOR_encourage_republican_sentiment

		cost = 10

		prerequisite = {
			focus = NOR_encourage_republican_sentiment
		}

		mutually_exclusive = { }

		available = {
			NOT = { has_government = nationalist }
		  NOT = { has_government = fascism }


		}

		bypass = { }

		completion_reward = {
			add_political_power = 150

			add_popularity = { ideology = nationalist popularity = -0.05 }

			recalculate_party = yes

		}

		ai_will_do = {
			factor = 10
		}
	}



	focus = {
		id = NOR_democratic_socialism
		icon = democracy

		x = -1
		y = 3
		relative_position_id = NOR_encourage_republican_sentiment

		cost = 10

		prerequisite = {
			focus = NOR_abolish_the_monarchy
		}

		mutually_exclusive = {
			focus = NOR_radical_socialism
		}

		available = { }

		bypass = { }

		completion_reward = {
			add_popularity = {
				ideology = democratic
				popularity = 0.1
			}
		}

		ai_will_do = {
			factor = 10
		}
	}

	focus = {
		id = NOR_radical_socialism
		icon = communism

		x = 1
		y = 3
		relative_position_id = NOR_encourage_republican_sentiment

		cost = 10

		prerequisite = {
			focus = NOR_abolish_the_monarchy
		}

		mutually_exclusive = {
			focus = NOR_democratic_socialism
		}

		available = {
			OR = {
				is_puppet = no
				has_government = communism
			}
		}

		bypass = { }

		completion_reward = {
			add_war_support = -0.25
			add_popularity = {
				ideology = communism
				popularity = 0.1
			}
			set_politics = {
				ruling_party = communism
				elections_allowed = no
			}
		}

		ai_will_do = {
			factor = 10
			modifier = {
				factor = 0
				is_historical_focus_on = yes
			}
		}
	}


	#Monarchist

	focus = {
		id = NOR_find_a_better_bride
		icon = monarchism2

		x = 5
		y = 1
		relative_position_id = NOR_oppose_haakons_marriage

		cost = 10

		prerequisite = {
			focus = NOR_oppose_haakons_marriage
		}

		mutually_exclusive = {
			focus = NOR_defund_the_monarchy
		}

		available = { }

		bypass = { }

		completion_reward = {
			add_popularity = {
				ideology = nationalist
				popularity = 0.1
			}
		}

		ai_will_do = {
			factor = 10
		}
	}

	focus = {
		id = NOR_british_princess
		icon = british_cooperation

		x = -3
		y = 1
		relative_position_id = NOR_find_a_better_bride

		cost = 10

		prerequisite = {
			focus = NOR_find_a_better_bride
		}

		mutually_exclusive = {
			focus = NOR_belgian_princess
		}
		mutually_exclusive = {
			focus = NOR_swedish_princess
		}
		mutually_exclusive = {
			focus = NOR_japanese_princess
		}

		available = {
			NOT = { has_war_with = ENG }
			NOT = { ENG = { has_government = communism } }
		}


		bypass = { }

		completion_reward = {
			ENG = {
				news_event = { id = Norway.5 hours = 4 }
				add_opinion_modifier = {
					target = NOR
					modifier = declaration_of_friendship
				}
			}
		}

		ai_will_do = {
			factor = 10
		}
	}

	focus = {
		id = NOR_belgian_princess
		icon = belgian_monarchy

		x = -1
		y = 1
		relative_position_id = NOR_find_a_better_bride

		cost = 10

		prerequisite = {
			focus = NOR_find_a_better_bride
		}

		mutually_exclusive = {
			focus = NOR_british_princess
		}
		mutually_exclusive = {
			focus = NOR_swedish_princess
		}
		mutually_exclusive = {
			focus = NOR_japanese_princess
		}

		available = {
			NOT = { has_war_with = BEL }
			NOT = { BEL = { has_government = communism } }
		}

		bypass = { }

		completion_reward = {
			BEL = {
				news_event = { id = Norway.5 hours = 4 }
				add_opinion_modifier = {
					target = NOR
					modifier = declaration_of_friendship
				}
			}
		}

		ai_will_do = {
			factor = 10
		}
	}



	focus = {
		id = NOR_swedish_princess
		icon = swedish_monarchy

		x = 1
		y = 1
		relative_position_id = NOR_find_a_better_bride

		cost = 10

		prerequisite = {
			focus = NOR_find_a_better_bride
		}

		mutually_exclusive = {
			focus = NOR_british_princess
		}
		mutually_exclusive = {
			focus = NOR_belgian_princess
		}
		mutually_exclusive = {
			focus = NOR_japanese_princess
		}

		available = {
			NOT = { has_war_with = SWE }
			NOT = { SWE = { has_government = communism } }
		}

		bypass = { }

		completion_reward = {
			SWE = {
				news_event = { id = Norway.5 hours = 4 }
				add_opinion_modifier = {
					target = NOR
					modifier = declaration_of_friendship
				}
			}
		}

		ai_will_do = {
			factor = 10
		}
	}

	focus = {
		id = NOR_japanese_princess
		icon = japanese_monarchy

		x = 3
		y = 1
		relative_position_id = NOR_find_a_better_bride

		cost = 10

		prerequisite = {
			focus = NOR_find_a_better_bride
		}

		mutually_exclusive = {
			focus = NOR_british_princess
		}
		mutually_exclusive = {
			focus = NOR_belgian_princess
		}
		mutually_exclusive = {
			focus = NOR_swedish_princess
		}

		available = {
			NOT = { has_war_with = JAP }
			NOT = { JAP = { has_government = communism } }
		}

		bypass = { }

		completion_reward = {
			JAP = {
				news_event = { id = Norway.5 hours = 4 }
				add_opinion_modifier = {
					target = NOR
					modifier = declaration_of_friendship
				}
			}
		}

		ai_will_do = {
			factor = 10
		}
	}

	focus = {
		id = NOR_the_future_queen_of_norway
		icon = norwegian_monarchy

		x = 0
		y = 2
		relative_position_id = NOR_find_a_better_bride

		cost = 10

		prerequisite = {
			focus = NOR_british_princess
			focus = NOR_belgian_princess
			focus = NOR_swedish_princess
			focus = NOR_japanese_princess
		}

		mutually_exclusive = { }

		available = { }

		bypass = { }

		completion_reward = {
			add_popularity = {
				ideology = nationalist
				popularity = 0.15
			}
		}

		ai_will_do = {
			factor = 10
		}
	}

	focus = {
		id = NOR_royal_government_decree
		icon = monarchism

		x = 0
		y = 3
		relative_position_id = NOR_find_a_better_bride

		cost = 10

		prerequisite = {
			focus = NOR_the_future_queen_of_norway
		}

		mutually_exclusive = { }

		available = { }

		bypass = { }

		completion_reward = {
			add_popularity = {
				ideology = nationalist
				popularity = 0.2
			}
			set_politics = {
				ruling_party = nationalist
				elections_allowed = no
			}
		}

		ai_will_do = {
			factor = 10
		}
	}

	focus = {
		id = NOR_joint_oil_drills
		icon = oil_trade

		x = -3
		y = 4
		relative_position_id = NOR_find_a_better_bride

		cost = 10

		prerequisite = {
			focus = NOR_royal_government_decree
		}
		prerequisite = {
			focus = NOR_british_princess
		}

		mutually_exclusive = { }

		available = {
			NOT = { has_war_with = ENG }
		}

		bypass = { }

		completion_reward = {
			ENG = { country_event = { id = Norway.4 days = 1 } }
			NOR = { country_event = { id = Norway.4 days = 1 } }
		}

		ai_will_do = {
			factor = 10
		}
	}

	focus = {
		id = NOR_additional_european_trade
		icon = euro

		x = -1
		y = 4
		relative_position_id = NOR_find_a_better_bride

		cost = 10

		prerequisite = {
			focus = NOR_royal_government_decree
		}
		prerequisite = {
			focus = NOR_belgian_princess
		}

		mutually_exclusive = { }

		available = {
			NOT = { has_war_with = BEL }
		}

		bypass = { }

		completion_reward = {
			every_country = {
				limit = {
					NOT = { original_tag = NOR }

				}
				add_opinion_modifier = {
					target = NOR
					modifier = european_commitment
				}
				add_opinion_modifier = {
					target = NOR
					modifier = declaration_of_friendship
				}
			}
		}

		ai_will_do = {
			factor = 10
		}
	}

	focus = {
		id = NOR_the_union_of_sweden_norway
		icon = major_alliance

		x = 1
		y = 4
		relative_position_id = NOR_find_a_better_bride

		cost = 10

		prerequisite = {
			focus = NOR_royal_government_decree
		}
		prerequisite = {
			focus = NOR_swedish_princess
		}

		mutually_exclusive = { }

		available = {
			NOT = { has_war_with = SWE }
			is_puppet = no
			has_government = nationalist
			SWE = { is_puppet = no }
			SWE = { has_government = nationalist }

			OR = {
				is_in_faction_with = SWE
				AND = {
					is_in_faction = no
					SWE = { is_in_faction = no }
				}
			}
		}

		bypass = { }

		completion_reward = {
			annex_country = { target = SWE transfer_troops = yes }
			set_cosmetic_tag = Norway_Sweden
		}

		ai_will_do = {
			factor = 10
		}
	}

	focus = {
		id = NOR_expand_the_navy
		icon = navy2

		x = 3
		y = 4
		relative_position_id = NOR_find_a_better_bride

		cost = 10

		prerequisite = {
			focus = NOR_royal_government_decree
		}
		prerequisite = {
			focus = NOR_japanese_princess
		}

		mutually_exclusive = { }

		available = {
			NOT = { has_war_with = JAP }
		}

		bypass = { }

		completion_reward = {

			add_political_power = 150
			add_war_support = 0.05
			navy_experience = 50
		}

		ai_will_do = {
			factor = 10
		}
	}

	#Import German Tanks Tree
	focus = {
		id = NOR_import_german_tanks
		icon = leopard_2a4

		x = 18
		y = 0

		cost = 10

		prerequisite = { }

		mutually_exclusive = {
			focus = NOR_import_american_tanks
		}
		mutually_exclusive = {
			focus = NOR_import_russian_tanks
		}

		available = {
			NOT = { has_war_with = GER }
			OR = {
				is_in_faction_with = GER
				is_in_faction = no
			}
		}

		bypass = { }

		completion_reward = {
			add_political_power = -30
			add_equipment_to_stockpile = {
				type = modern_tank_equipment_3
				amount = 150
				producer = GER
			}
			GER = {
				add_opinion_modifier = { target = NOR modifier = military_deals }
			}
		}

		ai_will_do = {
			factor = 10
		}
	}

	focus = {
		id = NOR_import_american_tanks
		icon = m1a1_abrams

		x = 2
		y = 0
		relative_position_id = NOR_import_german_tanks

		cost = 10

		prerequisite = { }

		mutually_exclusive = {
			focus = NOR_import_german_tanks
		}
		mutually_exclusive = {
			focus = NOR_import_russian_tanks
		}

		available = {
			NOT = { has_war_with = USA }
			OR = {
				is_in_faction_with = USA
				is_in_faction = no
			}
		}

		bypass = { }

		completion_reward = {
			add_political_power = -45
			add_equipment_to_stockpile = {
				type = modern_tank_equipment_3
				amount = 150
				producer = USA
			}
			USA = {
				add_opinion_modifier = { target = NOR modifier = military_deals }
			}
		}

		ai_will_do = {
			factor = 10
			modifier = {
				factor = 0
				is_historical_focus_on = yes
			}
		}
	}

	focus = {
		id = NOR_import_russian_tanks
		icon = t90

		x = 4
		y = 0
		relative_position_id = NOR_import_german_tanks

		cost = 10

		prerequisite = { }

		mutually_exclusive = {
			focus = NOR_import_german_tanks
		}
		mutually_exclusive = {
			focus = NOR_import_american_tanks
		}

		available = {
			NOT = { has_war_with = SOV }
			OR = {
				is_in_faction_with = SOV
				is_in_faction = no
			}
		}

		bypass = { }

		completion_reward = {
			add_political_power = -60
			add_equipment_to_stockpile = {
				type = modern_tank_equipment_3
				amount = 150
				producer = SOV
			}
			SOV = {
				add_opinion_modifier = { target = NOR modifier = military_deals }
			}
		}

		ai_will_do = {
			factor = 10
			modifier = {
				factor = 0
				is_historical_focus_on = yes
			}
		}
	}


	focus = {
		id = NOR_artillery_models
		icon = artillery

		x = 2
		y = 1
		relative_position_id = NOR_import_german_tanks

		cost = 10

		prerequisite = {
			focus = NOR_import_american_tanks
			focus = NOR_import_german_tanks
			focus = NOR_import_russian_tanks
		}

		mutually_exclusive = { }

		available = { }

		bypass = { }

		completion_reward = {
			add_tech_bonus = {
				name = artillery_bonus
				bonus = 0.4
				uses = 1
				category = Cat_ARTY
			}
		}

		ai_will_do = {
			factor = 10
		}
	}

	focus = {
		id = NOR_infantry_weapons
		icon = small_arms2

		x = 1
		y = 2
		relative_position_id = NOR_import_german_tanks

		cost = 10

		prerequisite = {
			focus = NOR_artillery_models
		}

		mutually_exclusive = { }

		available = { }

		bypass = { }

		completion_reward = {
			add_tech_bonus = {
				name = infantry_bonus
				bonus = 0.3
				uses = 2
				category = Cat_INF_WEP
			}
		}

		ai_will_do = {
			factor = 10
		}
	}

	focus = {
		id = NOR_production_efficiency_focus
		icon = industry_military

		x = 3
		y = 2
		relative_position_id = NOR_import_german_tanks

		cost = 10

		prerequisite = {
			focus = NOR_artillery_models
		}

		mutually_exclusive = { }

		available = { }

		bypass = { }

		completion_reward = {
		add_ideas = economic_autonomy
		}

		ai_will_do = {
			factor = 10
		}
	}

	#Expand Haakonsvern
	focus = {
		id = NOR_expand_haakonsvern
		icon = amphibious_assault

		x = 24
		y = 0

		cost = 10

		prerequisite = { }

		mutually_exclusive = { }

		available = { }

		bypass = { }

		completion_reward = {

			30 = {
				add_extra_state_shared_building_slots = 4
				add_building_construction = {
					type = naval_base
					level = 4
					instant_build = yes
				}
			}
		}

		ai_will_do = {
			factor = 10
		}
	}

	focus = {
		id = NOR_additional_dockyards
		icon = naval_dockyard

		x = 0
		y = 1
		relative_position_id = NOR_expand_haakonsvern

		cost = 10

		prerequisite = {
			focus = NOR_expand_haakonsvern
		}

		mutually_exclusive = { }

		available = { }

		bypass = { }

		completion_reward = {
			31 = {
				add_extra_state_shared_building_slots = 2
				add_building_construction = {
					type = dockyard
					level = 2
					instant_build = yes
				}
			}
		}

		ai_will_do = {
			factor = 10
		}
	}

	focus = {
		id = NOR_expand_the_naval_industrial_base
		icon = navy3

		x = 0
		y = 2
		relative_position_id = NOR_expand_haakonsvern

		cost = 10

		prerequisite = {
			focus = NOR_additional_dockyards
		}

		mutually_exclusive = { }

		available = { }

		bypass = { }

		completion_reward = {

		navy_experience = 25

		32 = {

			add_extra_state_shared_building_slots = 2
			add_building_construction = {
			type = dockyard
			level = 2
			instant_build = yes
		}
}

}
		ai_will_do = {
			factor = 10
		}

}

	#Northern Oil Investments Tree
	focus = {
		id = NOR_northern_oil_investments
		icon = oil_production

		x = 0
		y = 3

		cost = 10

		prerequisite = { }

		mutually_exclusive = { }

		available = {
			has_full_control_of_state = 31
		}

		bypass = { }

		completion_reward = {
			31 = {
				add_resource = {
					type = oil
					amount = 10
				}
			}
		}

		ai_will_do = {
			factor = 10
		}
	}

	focus = {
		id = NOR_western_oil_investments
		icon = oil_production

		x = 2
		y = 0
		relative_position_id = NOR_northern_oil_investments

		cost = 10

		prerequisite = { }

		mutually_exclusive = { }

		available = {
			has_full_control_of_state = 30
		}

		bypass = { }

		completion_reward = {
			30 = {
				add_resource = {
					type = oil
					amount = 10
				}
			}
		}

		ai_will_do = {
			factor = 10
		}
	}

	focus = {
		id = NOR_southern_oil_investments
		icon = oil_production

		x = 4
		y = 0
		relative_position_id = NOR_northern_oil_investments

		cost = 10

		prerequisite = { }

		mutually_exclusive = { }

		available = {
			has_full_control_of_state = 32
		}

		bypass = { }

		completion_reward = {
			32 = {
				add_resource = {
					type = oil
					amount = 10
				}
			}
		}

		ai_will_do = {
			factor = 10
		}
	}

	focus = {
		id = NOR_expand_e6_and_e39
		icon = infrastructure

		x = 0
		y = 1
		relative_position_id = NOR_northern_oil_investments

		cost = 20

		prerequisite = { }

		mutually_exclusive = { }

		available = { has_full_control_of_state = 30
								 has_full_control_of_state = 31
								 has_full_control_of_state = 32
								 has_full_control_of_state = 542 }

		bypass = { }

		completion_reward = {

				30 = {
					add_building_construction = {
						type = infrastructure
						level = 2
						instant_build = yes
					}
				}


				31 = {
					add_building_construction = {
						type = infrastructure
						level = 2
						instant_build = yes
					}
			}

				32 = {
					add_building_construction = {
						type = infrastructure
						level = 2
						instant_build = yes
					}
				}
				542 = {
					add_building_construction = {
						type = infrastructure
						level = 2
						instant_build = yes
					}
				}
			}


		ai_will_do = {
			factor = 10
		}
	}

	focus = {
		id = NOR_resource_production_program
		icon = production

		x = 2
		y = 1
		relative_position_id = NOR_northern_oil_investments

		cost = 10

		prerequisite = {
			focus = NOR_northern_oil_investments
		}
		prerequisite = {
			focus = NOR_western_oil_investments
		}
		prerequisite = {
			focus = NOR_southern_oil_investments
		}

		mutually_exclusive = { }

		available = { }

		bypass = { }

		completion_reward = {
			add_ideas = resource_production_bonus2
		}

		ai_will_do = {
			factor = 10
		}
	}

	focus = {
		id = NOR_invest_in_ostlandet
		icon = industry_civilian

		x = 1
		y = 2
		relative_position_id = NOR_northern_oil_investments

		cost = 10

		prerequisite = {
			focus = NOR_expand_e6_and_e39
		}
		prerequisite = {
			focus = NOR_resource_production_program
		}

		mutually_exclusive = { }

		available = {
			has_full_control_of_state = 31
		}

		bypass = { }

		completion_reward = {

				31 = {
					add_extra_state_shared_building_slots = 2
					add_building_construction = {
						type = industrial_complex
						level = 2
						instant_build = yes
					}
				}
		}

		ai_will_do = {
			factor = 10
		}
	}

	focus = {
		id = NOR_invest_in_vestlandet
		icon = industry_civilian

		x = 1
		y = 3
		relative_position_id = NOR_northern_oil_investments

		cost = 10

		prerequisite = {
			focus = NOR_invest_in_ostlandet
		}

		mutually_exclusive = { }

		available = {
			has_full_control_of_state = 30
		}

		bypass = { }

		completion_reward = {

				30 = {
					add_extra_state_shared_building_slots = 2
					add_building_construction = {
						type = industrial_complex
						level = 2
						instant_build = yes
					}
				}
		}

		ai_will_do = {
			factor = 10
		}
	}

  }
