set_leader_GRE = {

	if = { limit = { has_country_flag = set_conservatism }

		if = { limit = { check_variable = { conservatism_leader = 0 } }
			add_to_variable = { conservatism_leader = 1 }
			hidden_effect = { kill_country_leader = yes }

			create_country_leader = {
				name = "Kostas Karamanlis"
				picture = "kostas_karamanlis.dds"
				ideology = conservatism
				traits = {
					western_conservatism
				}
			}

			if = { limit = { has_country_flag = do_not_retire } subtract_from_variable = { conservatism_leader = 1 } }
			if = { limit = { date < 2016.1.2 } set_temp_variable = { b = 1 } } #skip if 2017
		}
		if = { limit = { check_variable = { conservatism_leader = 1 } NOT = { check_variable = { b = 1 } } }
			add_to_variable = { conservatism_leader = 1 }
			hidden_effect = { kill_country_leader = yes }

			create_country_leader = {
				name = "Vangelis Memarakis"
				picture = "generic.dds"
				ideology = conservatism
				traits = {
					western_conservatism
				}
			}

			if = { limit = { has_country_flag = do_not_retire } subtract_from_variable = { conservatism_leader = 1 } }
			set_temp_variable = { b = 1 }
		}
		if = { limit = { check_variable = { conservatism_leader = 2 } NOT = { check_variable = { b = 1 } } }
			add_to_variable = { conservatism_leader = 1 }
			hidden_effect = { kill_country_leader = yes }

			create_country_leader = {
				name = "Kyriakos Mitsotakis"
				picture = "kyriakos_mitsotakis.dds"
				ideology = conservatism
				traits = {
					western_conservatism
				}
			}

			if = { limit = { has_country_flag = do_not_retire } subtract_from_variable = { conservatism_leader = 1 } }
			set_temp_variable = { b = 1 }
		}
	}
	else_if = { limit = { has_country_flag = set_liberalism }
		if = { limit = { check_variable = { liberalism_leader = 0 } }
			add_to_variable = { liberalism_leader = 1 }
			hidden_effect = { kill_country_leader = yes }

			create_country_leader = {
				name = "Vassilis Leventis"
				picture = "generic.dds"
				ideology = liberalism
				traits = {
					western_liberalism
				}
			}

			if = { limit = { has_country_flag = do_not_retire } subtract_from_variable = { liberalism_leader = 1 } }
			if = { limit = { date < 2016.1.2 } set_temp_variable = { b = 1 } } #skip if 2017
		}
	}
	else_if = { limit = { has_country_flag = set_Communist-State }
		if = { limit = { check_variable = { Communist-State_leader = 0 } }
			add_to_variable = { Communist-State_leader = 1 }
			hidden_effect = { kill_country_leader = yes }

			create_country_leader = {
				name = "Aleka Papariga"
				picture = "aleka_papariga.dds"
				ideology = Communist-State
				traits = {
					emerging_Communist-State
				}
			}

			if = { limit = { has_country_flag = do_not_retire } subtract_from_variable = { Communist-State_leader = 1 } }
			if = { limit = { date < 2016.1.2 } set_temp_variable = { b = 1 } } #skip if 2017
		}
		if = { limit = { check_variable = { Communist-State_leader = 1 } NOT = { check_variable = { b = 1 } } }
			add_to_variable = { Communist-State_leader = 1 }
			hidden_effect = { kill_country_leader = yes }

			create_country_leader = {
				name = "Dimitris Koustsoumpas"
				picture = "dimitris_koustsoumpas.dds"
				ideology = Communist-State
				traits = {
					emerging_Communist-State
				}
			}

			if = { limit = { has_country_flag = do_not_retire } subtract_from_variable = { Communist-State_leader = 1 } }
			set_temp_variable = { b = 1 }
		}
	}
	else_if = { limit = { has_country_flag = set_Nat_Fascism }
		if = { limit = { check_variable = { Nat_Fascism_leader = 0 } }
			add_to_variable = { Nat_Fascism_leader = 1 }
			hidden_effect = { kill_country_leader = yes }

			create_country_leader = {
				name = "Nikolaos Michaloliakos"
				picture = "Fascist_Nikolaos_Michaloliakos.dds"
				ideology = Nat_Fascism
				traits = {
					nationalist_Nat_Fascism
				}
			}

			if = { limit = { has_country_flag = do_not_retire } subtract_from_variable = { Nat_Fascism_leader = 1 } }
			if = { limit = { date < 2016.1.2 } set_temp_variable = { b = 1 } } #skip if 2017
		}
	}
	else_if = { limit = { has_country_flag = set_Monarchist }
		if = { limit = { check_variable = { Monarchist_leader = 0 } }
			add_to_variable = { Monarchist_leader = 1 }
			hidden_effect = { kill_country_leader = yes }

			create_country_leader = {
				name = "Constantine II"
				picture = "constantine_ii.dds"
				ideology = Monarchist
				traits = {
					nationalist_Monarchist
				}
			}

			if = { limit = { has_country_flag = do_not_retire } subtract_from_variable = { Monarchist_leader = 1 } }
			if = { limit = { date < 2016.1.2 } set_temp_variable = { b = 1 } } #skip if 2017
		}
	}
	else_if = { limit = { has_country_flag = set_socialism }
		if = { limit = { check_variable = { socialism_leader = 0 } }
			add_to_variable = { socialism_leader = 1 }
			hidden_effect = { kill_country_leader = yes }

			create_country_leader = {
				name = "Costas Simitis"
				picture = "kostas_simitis.dds"
				ideology = socialism
				traits = {
					western_socialism
				}
			}

			if = { limit = { has_country_flag = do_not_retire } subtract_from_variable = { socialism_leader = 1 } }
			if = { limit = { date < 2016.1.2 } set_temp_variable = { b = 1 } } #skip if 2017
		}
		if = { limit = { check_variable = { socialism_leader = 1 } NOT = { check_variable = { b = 1 } } }
			add_to_variable = { socialism_leader = 1 }
			hidden_effect = { kill_country_leader = yes }

			create_country_leader = {
				name = "Fofi Gennimata"
				picture = "fofi_gennimata.dds"
				ideology = socialism
				traits = {
					western_socialism
				}
			}

			if = { limit = { has_country_flag = do_not_retire } subtract_from_variable = { socialism_leader = 1 } }
			set_temp_variable = { b = 1 }
		}
	}
	else_if = { limit = { has_country_flag = set_Neutral_conservatism }
		if = { limit = { check_variable = { Neutral_conservatism_leader = 0 } }
			add_to_variable = { Neutral_conservatism_leader = 1 }
			hidden_effect = { kill_country_leader = yes }

			create_country_leader = {
				name = "Panos Kammenos"
				picture = "panos_kammenos.dds"
				ideology = Neutral_conservatism
				traits = {
					neutrality_Neutral_conservatism
				}
			}

			if = { limit = { has_country_flag = do_not_retire } subtract_from_variable = { Neutral_conservatism_leader = 1 } }
			set_temp_variable = { b = 1 }
		}
	}
}