set_leader_YEM = {

	if = { limit = { has_country_flag = set_Vilayat_e_Faqih }

		if = { limit = { check_variable = { Vilayat_e_Faqih_leader = 0 } }
			add_to_variable = { Vilayat_e_Faqih_leader = 1 }
			hidden_effect = { kill_country_leader = yes }

			create_country_leader = {
				name = "Hussein Badreddin al-Houthi"
				picture = "generic.dds"
				ideology = Vilayat_e_Faqih
				traits = {
					emerging_Vilayat_e_Faqih
				}
			}

			if = { limit = { has_country_flag = do_not_retire } subtract_from_variable = { Vilayat_e_Faqih_leader = 1 } }
			if = { limit = { date < 2016.1.2 } set_temp_variable = { b = 1 } } #skip if 2017
		}
		if = { limit = { check_variable = { Vilayat_e_Faqih_leader = 1 } NOT = { check_variable = { b = 1 } } }
			add_to_variable = { Vilayat_e_Faqih_leader = 1 }
			hidden_effect = { kill_country_leader = yes }

			create_country_leader = {
				name = "Abdul-Malik Al-Houthi"
				picture = "gfx/leaders/HOU/Abdul-Malik_Al-Houthi.dds"
				ideology = Vilayat_e_Faqih
				traits = {
					emerging_Vilayat_e_Faqih
				}
			}

			if = { limit = { has_country_flag = do_not_retire } subtract_from_variable = { Vilayat_e_Faqih_leader = 1 } }
			if = { limit = { date < 2016.1.2 } set_temp_variable = { b = 1 } } #skip if 2017
		}
	}
	else_if = { limit = { has_country_flag = set_Mod_Vilayat_e_Faqih }
		if = { limit = { check_variable = { Mod_Vilayat_e_Faqih_leader = 0 } }
			add_to_variable = { Mod_Vilayat_e_Faqih_leader = 1 }
			hidden_effect = { kill_country_leader = yes }

			create_country_leader = {
				name = "Ahmad al-Shami"
				picture = "generic.dds"
				ideology = Mod_Vilayat_e_Faqih
				traits = {
					emerging_Vilayat_e_Faqih
				}
			}

			if = { limit = { has_country_flag = do_not_retire } subtract_from_variable = { Mod_Vilayat_e_Faqih_leader = 1 } }
			if = { limit = { date < 2016.1.2 } set_temp_variable = { b = 1 } } #skip if 2017
		}
		if = { limit = { check_variable = { Mod_Vilayat_e_Faqih_leader = 1 } NOT = { check_variable = { b = 1 } } }
			add_to_variable = { Mod_Vilayat_e_Faqih_leader = 1 }
			hidden_effect = { kill_country_leader = yes }

			create_country_leader = {
				name = "Mohammed Al-Mansour"
				picture = "generic.dds"
				ideology = Mod_Vilayat_e_Faqih
				traits = {
					emerging_Vilayat_e_Faqih
				}
			}

			if = { limit = { has_country_flag = do_not_retire } subtract_from_variable = { Mod_Vilayat_e_Faqih_leader = 1 } }
			set_temp_variable = { b = 1 }
		}
	}
	else_if = { limit = { has_country_flag = set_Neutral_conservatism }
		if = { limit = { check_variable = { Neutral_conservatism_leader = 0 } }
			add_to_variable = { Neutral_conservatism_leader = 1 }
			hidden_effect = { kill_country_leader = yes }

			create_country_leader = {
				name = "Abdulmalik Al-Mekhlafi"
				picture = "generic.dds"
				ideology = Neutral_conservatism
				traits = {
					neutrality_Neutral_conservatism
				}
			}

			if = { limit = { has_country_flag = do_not_retire } subtract_from_variable = { Neutral_conservatism_leader = 1 } }
			if = { limit = { date < 2016.1.2 } set_temp_variable = { b = 1 } } #skip if 2017
		}
		if = { limit = { check_variable = { Neutral_conservatism_leader = 1 } NOT = { check_variable = { b = 1 } } }
			add_to_variable = { Neutral_conservatism_leader = 1 }
			hidden_effect = { kill_country_leader = yes }

			create_country_leader = {
				name = "Abdul Majeed al-Zindani"
				picture = "Abdul_al_Zindani.dds"
				ideology = Neutral_conservatism
				traits = {
					neutrality_Neutral_conservatism
				}
			}

			if = { limit = { has_country_flag = do_not_retire } subtract_from_variable = { Neutral_conservatism_leader = 1 } }
			if = { limit = { date < 2016.1.2 } set_temp_variable = { b = 1 } } #skip if 2017
		}
	}
	else_if = { limit = { has_country_flag = set_neutral_Social }
		if = { limit = { check_variable = { neutral_Social_leader = 0 } }
			add_to_variable = { neutral_Social_leader = 1 }
			hidden_effect = { kill_country_leader = yes }

			create_country_leader = {
				name = "Ali Saleh Obad"
				picture = "generic.dds"
				ideology = neutral_Social
				traits = {
					neutrality_neutral_Social
				}
			}

			if = { limit = { has_country_flag = do_not_retire } subtract_from_variable = { neutral_Social_leader = 1 } }
			if = { limit = { date < 2016.1.2 } set_temp_variable = { b = 1 } } #skip if 2017
		}
		if = { limit = { check_variable = { neutral_Social_leader = 1 } NOT = { check_variable = { b = 1 } } }
			add_to_variable = { neutral_Social_leader = 1 }
			hidden_effect = { kill_country_leader = yes }

			create_country_leader = {
				name = "Abdulraham Al-Saqqaf"
				picture = "generic.dds"
				ideology = neutral_Social
				traits = {
					neutrality_neutral_Social
				}
			}

			if = { limit = { has_country_flag = do_not_retire } subtract_from_variable = { neutral_Social_leader = 1 } }
			set_temp_variable = { b = 1 }
		}
	}
	else_if = { limit = { has_country_flag = set_Neutral_Muslim_Brotherhood }
		if = { limit = { check_variable = { Neutral_Muslim_Brotherhood_leader = 0 } }
			add_to_variable = { Neutral_Muslim_Brotherhood_leader = 1 }
			hidden_effect = { kill_country_leader = yes }

			create_country_leader = {
				name = "Abdullah ibn Husayn al-Ahmar"
				picture = "generic.dds"
				ideology = Neutral_Muslim_Brotherhood
				traits = {
					neutrality_Neutral_Muslim_Brotherhood
				}
			}

			if = { limit = { has_country_flag = do_not_retire } subtract_from_variable = { Neutral_Muslim_Brotherhood_leader = 1 } }
			if = { limit = { date < 2016.1.2 } set_temp_variable = { b = 1 } } #skip if 2017
		}
		if = { limit = { check_variable = { Neutral_Muslim_Brotherhood_leader = 1 } NOT = { check_variable = { b = 1 } } }
			add_to_variable = { Neutral_Muslim_Brotherhood_leader = 1 }
			hidden_effect = { kill_country_leader = yes }

			create_country_leader = {
				name = "Mohammed al-Yadumi"
				picture = "mohammed_al_yadumi.dds"
				ideology = Neutral_Muslim_Brotherhood
				traits = {
					neutrality_Neutral_Muslim_Brotherhood
				}
			}

			if = { limit = { has_country_flag = do_not_retire } subtract_from_variable = { Neutral_Muslim_Brotherhood_leader = 1 } }
			set_temp_variable = { b = 1 }
		}
	}
	else_if = { limit = { has_country_flag = set_Nat_Autocracy }
		if = { limit = { check_variable = { Nat_Autocracy_leader = 0 } }
			add_to_variable = { Nat_Autocracy_leader = 1 }
			hidden_effect = { kill_country_leader = yes }

			create_country_leader = {
				name = "Ali Mohsen al-Ahmar"
				picture = "generic.dds"
				ideology = Nat_Autocracy
				traits = {
					nationalist_Nat_Autocracy
				}
			}

			if = { limit = { has_country_flag = do_not_retire } subtract_from_variable = { Nat_Autocracy_leader = 1 } }
			if = { limit = { date < 2016.1.2 } set_temp_variable = { b = 1 } } #skip if 2017
		}
		if = { limit = { check_variable = { Nat_Autocracy_leader = 1 } NOT = { check_variable = { b = 1 } } }
			add_to_variable = { Nat_Autocracy_leader = 1 }
			hidden_effect = { kill_country_leader = yes }

			create_country_leader = {
				name = "Mohamed Ali al-Makdashi"
				picture = "mohamed_ali_al_makdashi.dds"
				ideology = Nat_Autocracy
				traits = {
					nationalist_Nat_Autocracy
				}
			}

			if = { limit = { has_country_flag = do_not_retire } subtract_from_variable = { Nat_Autocracy_leader = 1 } }
			set_temp_variable = { b = 1 }
		}
	}
	else_if = { limit = { has_country_flag = set_Nat_Populism }
		if = { limit = { check_variable = { Nat_Populism_leader = 0 } }
			add_to_variable = { Nat_Populism_leader = 1 }
			hidden_effect = { kill_country_leader = yes }

			create_country_leader = {
				name = "Ali Ahmad Nasser al-Dhahab"
				picture = "generic.dds"
				ideology = Nat_Populism
				traits = {
					nationalist_Nat_Populism
				}
			}

			if = { limit = { has_country_flag = do_not_retire } subtract_from_variable = { Nat_Populism_leader = 1 } }
			if = { limit = { date < 2016.1.2 } set_temp_variable = { b = 1 } } #skip if 2017
		}
		if = { limit = { check_variable = { Nat_Populism_leader = 1 } NOT = { check_variable = { b = 1 } } }
			add_to_variable = { Nat_Populism_leader = 1 }
			hidden_effect = { kill_country_leader = yes }

			create_country_leader = {
				name = "Quasim Salaam"
				picture = "generic.dds"
				ideology = Nat_Populism
				traits = {
					nationalist_Nat_Populism
				}
			}

			if = { limit = { has_country_flag = do_not_retire } subtract_from_variable = { Nat_Populism_leader = 1 } }
			set_temp_variable = { b = 1 }
		}
	}
	else_if = { limit = { has_country_flag = set_Monarchist }
		if = { limit = { check_variable = { Monarchist_leader = 0 } }
			add_to_variable = { Monarchist_leader = 1 }
			hidden_effect = { kill_country_leader = yes }

			create_country_leader = {
				name = "Ageel bin Muhammad al-Badr"
				picture = "generic.dds"
				ideology = Monarchist
				traits = {
					nationalist_Monarchist
				}
			}

			if = { limit = { has_country_flag = do_not_retire } subtract_from_variable = { Monarchist_leader = 1 } }
			if = { limit = { date < 2016.1.2 } set_temp_variable = { b = 1 } } #skip if 2017
		}
	}
	else_if = { limit = { has_country_flag = set_Western_Autocracy }
		if = { limit = { check_variable = { Western_Autocracy_leader = 0 } }
			add_to_variable = { Western_Autocracy_leader = 1 }
			hidden_effect = { kill_country_leader = yes }

			create_country_leader = {
				name = "Abd Rabbuh Mansur Hadi"
				picture = "Abd_Rabbuh_Mansur_Hadi.dds"
				ideology = Western_Autocracy
				traits = {
					western_Western_Autocracy
				}
			}

			if = { limit = { has_country_flag = do_not_retire } subtract_from_variable = { Western_Autocracy_leader = 1 } }
			if = { limit = { date < 2016.1.2 } set_temp_variable = { b = 1 } } #skip if 2017
		}
	}
	else_if = { limit = { has_country_flag = set_Conservative }
		if = { limit = { check_variable = { Conservative_leader = 0 } }
			add_to_variable = { Conservative_leader = 1 }
			hidden_effect = { kill_country_leader = yes }

			create_country_leader = {
				name = "Yasin Said Numan"
				picture = "Yasin_Numan.dds"
				ideology = Conservative
				traits = {
					emerging_Conservative
				}
			}

			if = { limit = { has_country_flag = do_not_retire } subtract_from_variable = { Conservative_leader = 1 } }
			set_temp_variable = { b = 1 }
		}
	}
}