1={13058 13058 13058 }
2={13003 13003 13003 }
3={6361 6361 6361 }
4={6393 3305 6393 }
5={3325 3325 3325 }
6={6364 6364 6364 }
7={13255 4861 12674 }
8={6196 6196 6196 }
9={6395 11218 3150 }
10={9315 11297 9379 }
11={6335 6335 6335 }
12={3301 9297 3241 }
13={11333 11221 13070 }
14={11279 271 11374 }
15={9458 13261 9484 }
16={6363 11361 3274 }
17={3379 3242 276 }
18={1280 1280 1280 }
19={4135 4135 4135 }
20={6463 6463 2154 }
21={13010 13010 13010 }
22={10995 10995 10995 }
23={13242 13243 13242 }
24={13016 13016 13016 }
25={13013 13013 13013 }
26={12960 12960 12960 }
27={285 3342 369 }
28={6405 6405 11237 }
29={9255 9321 9369 }
30={9047 53 11101 }
31={6214 3082 3132 }
32={3136 6080 11037 }
33={9151 9066 9171 }
34={3182 11278 11278 }
35={295 295 69 }
36={6258 6258 6258 }
37={6257 3368 11331 }
38={11264 309 6263 }
39={6622 9522 495 }
40={11547 6444 11547 }
41={9524 9486 6549 }
42={11640 11499 519 }
43={11544 9515 11544 }
44={11481 6441 6441 }
45={6521 375 3367 }
46={9498 68 9498 }
47={6496 11562 6500 }
48={9403 9335 6241 }
49={153 153 153 }
50={6446 6560 11419 }
51={3516 9574 13068 }
52={11407 3488 9418 }
53={6583 6583 6583 }
54={11483 11420 11548 }
55={9578 11521 9550 }
56={9725 11491 11506 }
57={9503 678 6529 }
58={648 9642 3681 }
59={9629 11616 503 }
60={6792 3626 11565 }
61={760 11699 752 }
62={590 6786 9609 }
63={911 3959 911 }
64={6548 527 527 }
65={11804 11804 11804 }
66={13017 13017 13017 }
67={12569 12885 4934 }
68={9377 177 177 }
69={10188 12148 12148 }
70={2165 2165 2165 }
71={12132 12132 4268 }
72={6683 6683 3612 }
73={3660 658 9600 }
74={11601 9638 9638 }
75={3673 6673 653 }
76={6723 3684 3684 }
77={9738 3782 3772 }
78={11584 313 11584 }
79={9907 6875 910 }
80={6661 773 11734 }
81={11846 11751 11751 }
82={12098 851 3958 }
83={7059 10074 12047 }
84={11824 11824 11824 }
85={12003 12003 12003 }
86={3899 872 9797 }
87={3816 3954 813 }
88={3933 3735 740 }
89={9703 11707 6764 }
90={6867 11843 9827 }
91={9903 985 6993 }
92={11956 6817 6959 }
93={6744 1048 10111 }
94={9793 9793 9793 }
95={13071 13071 13071 }
96={13253 3846 3790 }
97={889 877 724 }
98={3118 3118 3118 }
99={1751 1751 1751 }
100={3069 11024 162 }
101={63 9166 3025 }
102={3083 204 6108 }
103={3030 6210 37 }
104={9228 9228 9228 }
105={11291 11426 308 }
106={9485 9221 11057 }
107={310 9275 3298 }
108={3296 6342 11246 }
109={6360 13258 6360 }
110={6296 9404 6407 }
111={3295 11260 11232 }
112={9427 6416 6416 }
113={9263 11288 9263 }
114={524 467 402 }
115={6464 506 9511 }
116={3351 347 3254 }
117={6418 9541 6470 }
118={445 3569 6485 }
119={9692 3484 11679 }
120={9551 3581 3565 }
121={6751 548 6751 }
122={11646 11659 730 }
123={9676 9624 546 }
124={9627 11595 11595 }
125={596 9596 9596 }
126={364 11594 11594 }
127={3974 11564 3601 }
128={11872 11872 6942 }
129={11572 953 11741 }
130={6643 9621 3617 }
131={3609 937 9599 }
132={11868 9602 9906 }
133={9874 6940 9890 }
134={11858 11858 3922 }
135={11856 11856 867 }
136={974 974 907 }
137={9914 9914 11762 }
138={9875 3884 3884 }
139={11786 6930 3973 }
140={9791 11905 936 }
141={4109 12001 11895 }
142={4178 4178 4178 }
143={8435 8435 7003 }
144={4170 4170 9940 }
145={11984 11984 11984 }
146={7193 7193 7193 }
147={11686 3707 3707 }
148={565 6600 523 }
149={13203 13204 13203 }
150={501 501 3663 }
151={690 6711 3665 }
152={723 11672 6747 }
153={3796 893 11813 }
154={6967 6842 6814 }
155={11867 6912 6864 }
156={856 10038 6992 }
157={9941 1122 10056 }
158={12029 12029 12029 }
159={9861 961 3862 }
160={3967 9871 3967 }
161={9912 3890 6813 }
162={7530 12387 864 }
163={6976 6919 12376 }
164={11384 3916 11384 }
165={6826 11295 11365 }
166={11498 1938 1938 }
167={3219 11292 11289 }
168={11198 4951 1631 }
169={3221 10744 10876 }
170={11208 78 7977 }
171={12726 2004 2004 }
172={8085 11212 8085 }
173={4968 8101 10815 }
174={1955 10850 5024 }
175={8118 8118 8118 }
176={10892 10923 10923 }
177={10748 12883 10835 }
178={8030 5006 10786 }
179={3725 3709 3709 }
180={2048 3585 2048 }
181={3738 3738 3728 }
182={3496 3496 3550 }
183={2059 2059 3477 }
184={11102 11095 11095 }
185={11097 11097 11097 }
186={11107 4111 4550 }
187={1115 1115 1115 }
188={11123 6302 6302 }
189={1088 1088 1088 }
190={7140 6353 11127 }
191={3004 3942 3127 }
192={1493 1634 901 }
193={3161 10882 3161 }
194={9181 9214 9201 }
195={9217 10840 9189 }
196={4976 9192 9158 }
197={10752 9150 10752 }
198={5074 9138 9141 }
199={9186 9179 9176 }
200={8000 8000 8000 }
201={11919 11919 11919 }
202={792 792 792 }
203={1108 1108 1108 }
204={1201 1201 4206 }
205={1065 1065 1065 }
206={7176 7176 11970 }
207={1086 1086 1086 }
208={13206 7107 13206 }
209={13207 13207 13207 }
210={4574 7170 7151 }
211={4440 7001 4440 }
212={4115 4017 11976 }
213={1112 11922 10002 }
214={10005 4073 10005 }
215={10073 1068 3996 }
216={9989 10061 9989 }
217={1206 6220 1028 }
218={12099 10869 12099 }
219={4910 9957 12002 }
220={12862 2088 10784 }
221={12826 10902 12725 }
222={11063 1914 11042 }
223={7925 4133 2016 }
224={10739 11069 1960 }
225={12744 10907 12887 }
226={11917 11917 10857 }
227={9408 11767 9378 }
228={5047 5047 12766 }
229={12723 81 97 }
230={8124 4985 4985 }
231={520 533 533 }
232={1984 1984 7944 }
233={4954 2009 350 }
234={212 163 297 }
235={315 260 315 }
236={338 208 8062 }
237={12759 5068 5068 }
238={3035 3035 10921 }
239={1964 1964 11090 }
240={750 750 750 }
241={5210 6725 6725 }
242={6739 6020 6739 }
243={9082 9082 9200 }
244={9097 10860 5196 }
245={5079 9244 2066 }
246={6703 6678 8223 }
247={12929 12929 12929 }
248={6566 6566 6566 }
249={6575 6575 6575 }
250={6542 6542 9962 }
251={6540 2220 2220 }
252={10932 4171 9381 }
253={9391 11017 9391 }
254={5180 9324 5180 }
255={9352 8205 9291 }
256={2206 5224 5224 }
257={8183 2196 2196 }
258={9254 9254 9254 }
259={11174 11180 11180 }
260={12986 11154 12986 }
261={2202 10972 11439 }
262={11399 11399 12935 }
263={11377 12971 12971 }
264={5212 5177 2193 }
265={9924 782 9752 }
266={884 884 884 }
267={681 879 844 }
268={2200 12956 12956 }
269={13072 13072 13072 }
270={13018 13018 13018 }
271={7900 7900 7900 }
272={4556 4556 475 }
273={1807 5106 1807 }
274={2171 1431 1611 }
275={10400 10400 10400 }
276={1429 2213 1561 }
277={1314 1397 1335 }
278={1286 5203 1312 }
279={1360 1318 1318 }
280={1306 4822 4584 }
281={931 1304 1239 }
282={2229 11644 2229 }
283={10957 11661 11554 }
284={9635 9635 3076 }
285={6675 9630 9630 }
286={673 671 6680 }
287={530 432 530 }
288={12963 550 12963 }
289={11224 11213 11224 }
290={11298 11283 11290 }
291={11273 11205 11205 }
292={5199 7872 7872 }
293={12504 9592 9592 }
294={10930 11048 10930 }
295={10538 9547 9547 }
296={2115 2115 2115 }
297={12981 8054 8054 }
298={9529 9529 9529 }
299={9502 9459 2126 }
300={12391 9424 9426 }
301={4735 4735 7548 }
302={12925 10968 10968 }
303={6252 12775 10025 }
304={3746 3765 1731 }
305={11732 11488 303 }
306={3413 3361 1968 }
307={1817 3554 3465 }
308={4941 4941 4941 }
309={1181 1181 1181 }
310={7161 7161 10858 }
311={1950 6248 6387 }
312={6027 6506 6468 }
313={6391 6391 988 }
314={6481 7931 10883 }
315={3340 3332 3318 }
316={3109 3349 6008 }
317={3246 3316 3316 }
318={8244 8244 8244 }
319={1903 1903 1903 }
320={13015 13015 13015 }
321={5054 11327 11326 }
322={11341 7978 7978 }
323={11390 11390 11393 }
324={11108 11108 11108 }
325={12719 9298 9232 }
326={11461 11475 11461 }
327={5136 5136 4902 }
328={4978 11503 11503 }
329={11303 8028 11314 }
330={11324 8128 8128 }
331={2056 1975 2056 }
332={11184 11065 11175 }
333={3701 3701 3701 }
334={4952 12731 11216 }
335={577 577 3407 }
336={4889 11230 1992 }
337={11226 8021 11238 }
338={1932 11280 12817 }
339={11267 1969 1969 }
340={4997 8109 5028 }
341={12843 9704 12843 }
342={1951 9687 1951 }
343={9731 12762 9731 }
344={10919 9709 10919 }
345={9569 12785 12785 }
346={12742 9493 12742 }
347={13270 9563 13270 }
348={9672 9632 9672 }
349={12851 10406 7950 }
350={2001 9828 9872 }
351={9811 8071 9769 }
352={10803 9341 9336 }
353={9423 9386 9405 }
354={9406 9372 9362 }
355={8006 8006 13237 }
356={13241 7959 13241 }
357={7377 2094 1897 }
358={7403 7403 2038 }
359={4957 8008 6957 }
360={12858 7239 12802 }
361={6894 12747 12747 }
362={6729 12834 12834 }
363={12710 12710 8015 }
364={6771 6771 6771 }
365={4199 4989 4199 }
366={2068 7930 10868 }
367={7501 12794 5045 }
368={7857 7857 9231 }
369={6709 6605 7992 }
370={5077 8058 6697 }
371={8035 10814 10779 }
372={7979 13233 13234 }
373={5012 6406 5012 }
374={6579 12100 12100 }
375={4154 4108 1207 }
376={7908 7908 7908 }
377={1102 10070 4139 }
378={5046 4022 13231 }
379={4903 6352 4903 }
380={9943 12888 1141 }
381={1043 12849 5095 }
382={10731 8088 10731 }
383={12018 9960 13074 }
384={1058 7081 1058 }
385={4046 4046 7166 }
386={12760 12760 1145 }
387={4116 4116 7132 }
388={7077 9994 3964 }
389={1037 11921 7005 }
390={1105 1105 12000 }
391={4051 11940 10067 }
392={12022 9118 12082 }
393={9136 7154 9136 }
394={6348 7041 7041 }
395={10049 10123 1062 }
396={13078 1060 4060 }
397={10785 1057 10785 }
398={13014 13014 13014 }
399={7953 3908 5005 }
400={3744 4959 10797 }
401={10782 12895 2070 }
402={12748 4356 4356 }
403={4580 7602 10768 }
404={3936 1963 10828 }
405={7969 8125 4488 }
406={3988 9074 3988 }
407={10454 6070 4825 }
408={7604 5098 4943 }
409={12871 10896 10476 }
410={7448 7584 6186 }
411={10826 10781 10826 }
412={7916 10852 10852 }
413={7943 7943 7943 }
414={12831 6114 8090 }
415={4949 2062 2101 }
416={8066 8066 8013 }
417={8044 8044 7847 }
418={6492 4998 6856 }
419={1978 4324 12717 }
420={1910 6424 1910 }
421={6832 10821 6921 }
422={6515 6515 6379 }
423={13208 13208 13208 }
424={13247 13247 13247 }
425={3573 3573 3573 }
426={7084 4110 1147 }
427={7273 7316 103 }
428={5157 98 5157 }
429={89 10729 100 }
430={13275 13275 13275 }
431={2032 40 12868 }
432={10847 12081 12844 }
433={9508 9508 493 }
434={1137 1590 3900 }
435={7089 9971 10000 }
436={7207 4132 1144 }
437={11306 6104 11161 }
438={2105 10334 4953 }
439={9329 9308 363 }
440={5002 38 4915 }
441={373 373 373 }
442={9083 101 9083 }
443={10992 2158 2179 }
444={12362 11807 8114 }
445={9925 11821 10751 }
446={8195 4340 4369 }
447={10361 4571 10878 }
448={1449 10943 10515 }
449={10965 4262 4262 }
450={7500 10985 10975 }
451={10471 12035 1444 }
452={4204 12050 7565 }
453={10390 4643 1568 }
454={8192 11005 12321 }
455={4435 4435 10389 }
456={10428 11924 12063 }
457={11009 11009 11009 }
458={5104 10259 4472 }
459={7465 9325 9325 }
460={4237 1430 1228 }
461={10756 10756 12779 }
462={7436 1409 10149 }
463={10961 8218 2161 }
464={10808 1268 12247 }
465={7391 1321 1238 }
466={3653 3653 3653 }
467={12295 7411 1359 }
468={12920 4648 4441 }
469={10210 10270 10270 }
470={9069 12781 7619 }
471={7013 1349 7013 }
472={5171 5131 8217 }
473={1525 1497 1553 }
474={11372 537 6309 }
475={36 1116 1996 }
476={247 12025 12025 }
477={1581 10094 11449 }
478={7122 997 9819 }
479={12251 12251 12251 }
480={4967 4967 4967 }
481={10201 7344 6954 }
482={6941 1213 10287 }
483={4219 7260 7260 }
484={8010 8010 12860 }
485={6955 6955 7139 }
486={11179 11179 11179 }
487={5128 897 10993 }
488={11178 11178 11178 }
489={7206 7206 10825 }
490={11929 11929 9993 }
491={11162 11162 11162 }
492={11968 9991 11968 }
493={7124 7078 2843 }
494={115 10443 10416 }
495={13228 13228 13228 }
496={1934 4425 4425 }
497={140 4210 7400 }
498={7603 7603 1607 }
499={11966 7534 4019 }
500={4147 4147 12090 }
501={12317 4293 4654 }
502={3651 10182 3651 }
503={1296 1385 4336 }
504={10154 7382 10267 }
505={12404 7163 1333 }
506={7516 12388 1535 }
507={1488 10398 8045 }
508={10250 10293 4348 }
509={10156 12230 12201 }
510={12131 7236 7236 }
511={12475 4596 7645 }
512={12460 12460 4251 }
513={12191 10317 7432 }
514={12260 12260 164 }
515={4339 4613 190 }
516={1507 10496 7356 }
517={1520 1577 175 }
518={7303 1423 7303 }
519={10261 4405 10162 }
520={12150 7238 12150 }
521={4379 4397 7280 }
522={4075 4119 12048 }
523={1157 1073 12065 }
524={10103 12008 12008 }
525={10269 3352 4216 }
526={11146 11169 11167 }
527={10313 7427 10313 }
528={12215 12144 3382 }
529={4355 1392 6022 }
530={12299 12299 12299 }
531={1070 11990 1038 }
532={1047 1047 4189 }
533={10291 12265 1085 }
534={9997 9970 11941 }
535={7302 7302 4286 }
536={10034 7120 11913 }
537={11986 12057 1110 }
538={11991 11947 10101 }
539={321 3258 321 }
540={7014 7014 7014 }
541={12055 4082 7181 }
542={6173 6118 6041 }
543={1237 1237 1237 }
544={4010 7160 9987 }
545={3561 9497 3500 }
546={13050 13038 7393 }
547={3160 11761 11761 }
548={4137 3156 3156 }
549={11944 12062 4032 }
550={11160 9300 3307 }
551={13049 13048 13053 }
552={6851 6910 3934 }
553={6206 6206 6206 }
554={7652 9803 3949 }
555={10368 7591 6811 }
556={5031 3877 1796 }
557={3269 11187 11187 }
558={1180 4208 1438 }
559={7659 3427 517 }
560={12776 5057 5025 }
561={12442 12316 7513 }
562={7199 12495 9984 }
563={4979 12005 9084 }
564={7222 1171 7104 }
565={2188 2188 2188 }
566={12473 12473 6308 }
567={7540 7508 4066 }
568={13055 13055 13055 }
569={7290 7290 7290 }
570={10474 7167 10474 }
571={7671 6374 7671 }
572={10006 1448 12310 }
573={4136 10139 4024 }
574={1597 7128 1023 }
575={6370 6370 6370 }
576={7987 7987 7987 }
577={12733 12733 12733 }
578={4559 354 344 }
579={4191 4191 4191 }
580={4961 4961 4961 }
581={558 11079 11014 }
582={10763 4532 10616 }
583={1893 3093 7948 }
584={8164 8164 8164 }
585={3115 3074 10787 }
586={11972 10132 12141 }
587={13205 13205 13205 }
588={8037 12732 10865 }
589={1961 8029 8029 }
590={13227 13227 13227 }
591={3144 5042 3144 }
592={1708 7732 1844 }
593={5081 5081 5081 }
594={13264 13265 13265 }
595={10062 10062 10062 }
596={12539 10708 4873 }
597={7808 10669 12579 }
598={11959 11959 11959 }
599={12068 1091 11914 }
600={9955 1175 9955 }
601={3860 3245 6922 }
602={7171 906 11770 }
603={11915 3176 3176 }
604={4004 3310 3303 }
605={10115 10115 1081 }
606={11977 9936 11992 }
607={3250 11948 4126 }
608={1177 1177 1177 }
609={1020 10020 1183 }
610={7197 12028 7197 }
611={11985 10052 9968 }
612={7113 6168 12031 }
613={7217 10128 10100 }
614={11076 11076 11076 }
615={4184 9998 7157 }
616={12007 1165 1117 }
617={7595 12352 10512 }
618={10124 1123 1123 }
619={10011 10011 10011 }
620={13026 13026 13026 }
621={13025 13025 13025 }
622={6112 6113 12488 }
623={1648 4652 6106 }
624={11181 11181 11181 }
625={3473 3473 3572 }
626={11517 9570 6595 }
627={12113 12113 12113 }
628={6499 649 11466 }
629={10322 4381 10294 }
630={11340 11443 3302 }
631={10307 12249 10279 }
632={13229 13229 13229 }
633={13248 10811 10811 }
634={12472 4608 10479 }
635={10219 7293 12234 }
636={7557 10409 7369 }
637={7413 7413 10141 }
638={12457 8250 4524 }
639={7598 4564 1589 }
640={7424 6090 12955 }
641={10804 10804 10804 }
642={348 6332 3384 }
643={9165 6175 6175 }
644={149 11080 11080 }
645={6086 3333 11304 }
646={3175 9113 11110 }
647={9041 198 10207 }
648={12502 11025 6040 }
649={6346 3235 11084 }
650={3091 3112 3056 }
651={6167 3370 9257 }
652={401 9282 3391 }
653={457 11337 371 }
654={11254 382 3263 }
655={3387 11347 9266 }
656={6477 9448 6553 }
657={6317 6230 3291 }
658={1380 305 3000 }
659={6162 6372 31 }
660={12 9368 11394 }
661={11389 9402 9401 }
662={9276 324 9276 }
663={452 497 6502 }
664={10226 12130 4322 }
665={3503 11395 544 }
666={11416 9440 9735 }
667={11403 3464 11559 }
668={9694 9696 3760 }
669={3686 6704 9677 }
670={9742 6750 9742 }
671={9645 3668 728 }
672={11632 11632 683 }
673={9628 11614 670 }
674={6733 685 9649 }
675={12584 1294 11223 }
676={10720 10648 10314 }
677={7774 12390 10670 }
678={12630 10663 7768 }
679={4669 1684 10536 }
680={1800 7681 7274 }
681={7793 4730 7655 }
682={4665 12691 10649 }
683={10635 12687 13065 }
684={7731 10597 7804 }
685={4868 4797 1803 }
686={4766 4705 1666 }
687={3963 7748 10598 }
688={9224 3184 1745 }
689={12683 4744 4744 }
690={13037 1399 1399 }
691={1755 1742 855 }
692={9762 6961 6686 }
693={6474 6505 9446 }
694={588 11405 9433 }
695={9714 741 3755 }
696={418 3468 6554 }
697={9477 6565 11462 }
698={3494 511 11557 }
699={476 6455 6480 }
700={11441 11479 11550 }
701={11691 11536 11536 }
702={6306 6306 3393 }
703={233 6371 699 }
704={6373 3293 9371 }
705={1530 11609 11609 }
706={11617 11617 672 }
707={9702 6674 3658 }
708={1599 4534 4534 }
709={11708 3564 1210 }
710={1467 1610 1610 }
711={6997 6997 6997 }
712={4545 12309 1539 }
713={1536 4473 1305 }
714={1276 12229 12266 }
715={4685 4685 7890 }
716={10268 7332 12635 }
717={4773 4374 12329 }
718={3622 4254 12383 }
719={10619 10550 10619 }
720={13213 13213 1675 }
721={12581 2058 2058 }
722={12805 10417 4923 }
723={1919 1919 12430 }
724={4542 1307 12218 }
725={1459 1459 10660 }
726={3067 3007 4629 }
727={3163 10395 10395 }
728={5003 10742 10357 }
729={12491 10510 7563 }
730={12484 7305 10231 }
731={12931 11018 10954 }
732={7365 12240 10423 }
733={10234 7251 10234 }
734={12206 12190 13001 }
735={6063 7275 1288 }
736={10272 4288 1372 }
737={1368 1261 4373 }
738={6046 10300 6055 }
739={12217 12160 10328 }
740={7419 10145 10145 }
741={2221 10350 8230 }
742={12435 1667 7533 }
743={7755 7811 10581 }
744={10665 10665 5181 }
745={8206 5138 12918 }
746={12926 10949 12962 }
747={10316 10979 12992 }
748={13005 13005 13005 }
749={13002 13002 13002 }
750={7692 1814 12664 }
751={5195 8204 7839 }
752={7387 7387 7387 }
753={13075 10703 13075 }
754={393 12578 1737 }
755={3706 2407 1262 }
756={6779 6779 10611 }
757={12636 7782 1873 }
758={2947 1712 2947 }
759={4720 1426 4787 }
760={1354 7304 4360 }
761={4432 12289 4362 }
762={1284 12600 12147 }
763={3736 10621 761 }
764={10318 12202 12221 }
765={733 3712 3715 }
766={4445 7629 9675 }
767={6732 718 718 }
768={9850 11830 6909 }
769={9693 6707 6795 }
770={11900 6882 3863 }
771={12405 702 880 }
772={9758 6984 3957 }
773={3823 873 10412 }
774={7466 11888 4627 }
775={4442 971 4442 }
776={11635 11621 12437 }
777={751 10233 695 }
778={954 12497 12368 }
779={12357 9678 4834 }
780={9880 9880 12597 }
781={1770 1831 12646 }
782={4988 6974 1445 }
783={1564 10370 1621 }
784={1753 4811 4811 }
785={3613 3708 7852 }
786={3750 12620 7745 }
787={7877 3719 1870 }
788={7883 1767 12572 }
789={12651 12651 12651 }
790={9967 7643 10051 }
791={1485 1547 4491 }
792={12325 10465 7612 }
793={8083 1987 7797 }
794={1587 1587 7640 }
795={10489 12353 10380 }
796={12328 12429 12429 }
797={1643 4535 4535 }
798={12778 7485 12489 }
799={6803 10798 4919 }
800={10337 4884 10337 }
801={11140 11134 11134 }
802={11150 11138 11138 }
803={5044 8070 8070 }
804={7780 7684 9792 }
805={1663 7818 4742 }
806={10783 7821 8115 }
807={10591 4799 7756 }
808={10602 10672 12607 }
809={12673 12155 4296 }
810={1414 10151 12281 }
811={9855 6881 12374 }
812={11128 11128 11128 }
813={11131 11131 11131 }
814={1830 4833 7855 }
815={1440 1440 1440 }
816={11133 11133 11133 }
817={12021 4180 4180 }
818={12140 3995 13024 }
819={12103 4357 12103 }
820={13039 13041 13040 }
821={13033 13034 2489 }
822={13052 13052 13052 }
823={13047 13047 13047 }
824={13019 13019 13019 }
825={13051 13051 13051 }
826={13080 13080 13080 }
827={7115 7115 7115 }
828={1892 7964 1904 }
829={8012 4977 8033 }
830={10809 10809 10809 }
831={8057 8003 4946 }
832={10769 13088 2060 }
833={10800 10746 128 }
834={10738 10738 10738 }
835={8089 11780 1965 }
836={12873 2051 12873 }
837={8032 11600 12712 }
838={12810 12810 12810 }
839={11615 11615 1900 }
840={11889 4965 11710 }
841={9896 10842 9896 }
842={4991 13085 13085 }
843={12823 12823 12823 }
844={13093 13093 13093 }
845={11570 2077 2077 }
846={9867 8017 9867 }
847={2031 2031 9870 }
848={9863 1988 2075 }
849={10728 10728 9800 }
850={13087 12878 9736 }
851={13092 13092 13092 }
852={4611 4611 1633 }
853={9732 9732 7617 }
854={7451 10498 7622 }
855={4476 7546 7590 }
856={10254 10254 7245 }
857={1513 1513 1513 }
858={12304 12304 12477 }
859={1594 1594 1594 }
860={1635 9587 9587 }
861={9507 7632 9507 }
862={10484 4598 4598 }
863={4450 4450 4450 }
864={13009 13009 13009 }
865={11350 11350 11350 }
866={379 379 379 }
867={7123 7123 7123 }
868={11106 11106 11106 }
869={3284 3284 3284 }
870={11472 10974 10974 }
871={12790 2085 8056 }
872={10348 2079 10348 }
873={12825 12729 12825 }
874={2052 1997 12261 }
875={8113 10855 10855 }
876={10879 10849 10736 }
877={12487 12560 12339 }
878={10912 10906 10912 }
879={1598 7594 4575 }
880={10405 12905 1529 }
881={6123 156 6093 }
882={12937 10994 7553 }
883={2153 2153 2153 }
884={8210 780 7476 }
885={903 12987 3751 }
886={8189 2147 2142 }
887={3598 3771 5194 }
888={12961 10939 8227 }
889={5107 10933 2227 }
890={5153 4195 3931 }
891={2214 6668 4095 }
892={6841 6975 6979 }
893={12496 12496 4457 }
894={12481 1626 12481 }
895={2152 6096 6017 }
896={8203 6498 6119 }
897={4393 7264 7378 }
898={5188 10982 7412 }
899={8240 7324 2160 }
900={9589 9528 9639 }
901={2226 8160 9469 }
902={7487 10940 5166 }
903={2156 5190 12969 }
904={2225 2212 7486 }
905={8047 8047 8047 }
906={10206 10160 10235 }
907={10179 10179 8075 }
908={5023 5023 5023 }
909={9685 746 713 }
910={693 696 693 }
911={10747 10983 10747 }
912={11538 11591 12872 }
913={4969 11575 7993 }
914={5026 11457 10518 }
915={5056 12163 12154 }
916={8080 12185 10823 }
917={11777 11777 12107 }
918={9110 6311 6311 }
919={4057 4057 7076 }
920={7209 7209 7209 }
921={9353 9319 5084 }
922={8078 11514 11534 }
923={11033 11033 11033 }
924={12800 11034 10200 }
925={9366 9366 9366 }
926={9360 9360 9360 }
927={11049 11049 11049 }
928={10891 765 765 }
