
state = {
	id = 147
	name = "STATE_147"

	history = {
		owner = MLV
		victory_points = {
			11686 5 
		}
		victory_points = {
			3724 1 
		}
		buildings = {
			infrastructure = 2
			industrial_complex = 1
			air_base = 2

		}
		add_core_of = MLV
		add_core_of = ROM
		2017.1.1 = {
			#add_manpower = -110778
		}
	}

	provinces = {
		3707 3724 6743 11686 
	}
	manpower = 1920156
	buildings_max_level_factor = 1.000
	state_category = state_03
}
