
state = {
	id = 245
	name = "STATE_245"

	history = {
		owner = KEN
		victory_points = {
			10761 1 
		}
		victory_points = {
			8133 1 
		}
		victory_points = {
			5079 1 
		}
		buildings = {
			infrastructure = 1

		}
		add_core_of = KEN
		2017.1.1 = {
			add_manpower = 1199666
		}
	}

	provinces = {
		2066 5079 8133 10761 12927 9172 9244
	}
	manpower = 2340891
	buildings_max_level_factor = 1.000
	state_category = state_03
}
