
state = {
	id = 253
	name = "STATE_253"

	history = {
		owner = TNZ
		victory_points = {
			9391 1 
		}
		buildings = {
			infrastructure = 0

		}
		add_core_of = TNZ
		2017.1.1 = {
			add_manpower = 2000000
			add_manpower = 895367
		}
	}

	provinces = {
		11017 9391 
	}
	manpower = 3978937
	buildings_max_level_factor = 1.000
	state_category = state_05
}
