state = {
	id = 864
	name = "STATE_864"
	manpower = 157755
	state_category = state_00
	
	history = {
		owner = STL
		victory_points = { 13009 2 } #Castries
		
		buildings = {
			infrastructure = 4
			air_base = 1
			
			13009 = {
				naval_base = 1
			}

		}
		add_core_of = STL
		2017.1.1 = {
			add_manpower = 15000
		}
	}

	provinces = {
		  13009
		
		}
}
