state = {
	id = 865
	name = "STATE_865"
	manpower = 270000
	state_category = state_00
	
	history = {
		owner = BAR
		victory_points = { 11350 1 } #Bridgetown
		
		buildings = {
			infrastructure = 4
			air_base = 2
			
			11350 = {
				naval_base = 2
			}

		}
		add_core_of = BAR
		2017.1.1 = {
			add_manpower = 8000
		}
	}

	provinces = {
		  11350
		
		}
}
