set_leader_AFR = {

	if = { limit = { has_country_flag = set_Nat_Autocracy }

		if = { limit = { check_variable = { Nat_Autocracy_leader = 0 } }
			add_to_variable = { Nat_Autocracy_leader = 1 }
			hidden_effect = { kill_country_leader = yes }

			create_country_leader = {
				name = "Johnny Paul Koroma"
				picture = "Johnny_Paul_Koroma.dds"
				ideology = Nat_Autocracy
				traits = {
					nationalist_Nat_Autocracy
				}
			}

			if = { limit = { has_country_flag = do_not_retire } subtract_from_variable = { Nat_Autocracy_leader = 1 } }
			if = { limit = { date < 2016.1.2 } set_temp_variable = { b = 1 } } #skip if 2017
		}
	}
	else_if = { limit = { has_country_flag = set_Neutral_Autocracy }
		if = { limit = { check_variable = { Neutral_Autocracy_leader = 0 } }
			add_to_variable = { Neutral_Autocracy_leader = 1 }
			hidden_effect = { kill_country_leader = yes }

			create_country_leader = {
				name = "Foday Sankoh"
				picture = "Foday_Sankoh.dds"
				ideology = Neutral_Autocracy
				traits = {
					neutrality_Neutral_Autocracy
				}
			}

			if = { limit = { has_country_flag = do_not_retire } subtract_from_variable = { Neutral_Autocracy_leader = 1 } }
			if = { limit = { date < 2016.1.2 } set_temp_variable = { b = 1 } } #skip if 2017
		}
	}
}